
# Hire advisor
estate_castonath_patricians_hire_advisor = {
	can_select = {
		NOT = {
			employed_advisor = {
				category = DIP
			}
		}
	}
	selection_weight = {
		factor = 1
	}
	task_requirements = {
		employed_advisor = {
			category = DIP
		}
		is_in_deficit = no
	}
    task_completed_effect = {
		add_estate_loyalty = {
			estate = estate_castonath_patricians
			loyalty = 10
		}
    }
    failing_effect = {
        add_estate_loyalty_modifier = {
            estate = estate_castonath_patricians
			desc = EST_VAL_AGENDA_DENIED
			loyalty = -5
			duration = 7300
        }
    }
}
# Fire advisor
estate_castonath_patricians_fire_advisor = {
	can_select = {
		employed_advisor = {
			category = DIP
		}
	}
	selection_weight = {
		factor = 1
		modifier = {
			factor = 0.5
			always = yes
		}
	}
	immediate_effect = {
		hidden_effect = {
			set_country_flag = need_to_fire_dip_advisor
		}
	}
	on_invalid = {
		clr_country_flag = need_to_fire_dip_advisor
	}
	task_requirements = {
		custom_trigger_tooltip = {
			tooltip = fire_dip_advisor_tooltip
			has_country_flag = just_fired_dip_advisor
		}
	}
    task_completed_effect = {
		add_estate_loyalty = {
			estate = estate_castonath_patricians
			loyalty = 10
		}
		define_advisor = {
			type = trader
			skill = 2
			culture = castanorian
			discount = yes
		}
		clr_country_flag = just_fired_dip_advisor
		clr_country_flag = need_to_fire_dip_advisor
	}
	invalid_trigger = {
		NOT = {
			employed_advisor = {
				category = DIP
			}
		}
		NOT = { has_country_flag = just_fired_dip_advisor }
	}
    failing_effect = {
        add_estate_loyalty_modifier = {
            estate = estate_castonath_patricians
			desc = EST_VAL_AGENDA_DENIED
			loyalty = -5
			duration = 7300
        }
		clr_country_flag = need_to_fire_dip_advisor
    }
}

# Pay off loans
estate_castonath_patricians_pay_off_loans = {
	can_select = {
		num_of_loans = 5
		is_bankrupt = no
	}
	selection_weight = {
		factor = 2
		modifier = {
			factor = 0.5
			is_at_war = yes
		}
		modifier = {
			factor = 1.5
			num_of_loans = 10
		}
		modifier = {
			factor = 1.5
			num_of_loans = 15
		}
		modifier = {
			factor = 1.5
			num_of_loans = 20
		}
	}
	fail_if = {
		is_bankrupt = yes
	}
	task_requirements = {
		NOT = { num_of_loans = 1 }
		hidden_trigger = {
			is_bankrupt = no
		}
	}
    task_completed_effect = {
		add_estate_loyalty = {
			estate = estate_castonath_patricians
			loyalty = 10
		}
		if = {
			limit = {
				NOT = { monthly_income = 15 }
			}
			define_advisor = {
				type = treasurer
				culture = castanorian
				skill = 1
				discount = yes
			}
		}
		else_if = {
			limit = {
				NOT = { monthly_income = 25 }
			}
			define_advisor = {
				type = treasurer
				culture = castanorian
				skill = 2
				discount = yes
			}
		}
		else = {
			define_advisor = {
				type = treasurer
				culture = castanorian
				skill = 3
				discount = yes
			}
		}
    }
    failing_effect = {
        add_estate_loyalty_modifier = {
            estate = estate_castonath_patricians
			desc = EST_VAL_AGENDA_DENIED
			loyalty = -5
			duration = 7300
        }
    }
}

# Restore republican tradition
estate_castonath_patricians_restore_republican_tradition = {
	can_select = {
		NOT = { republican_tradition = 65 }
		republican_tradition = 20
		OR = {
			government = republic
			government = dictatorship
		}
		NOT = { has_country_modifier = agenda_republicanism_restored }
	}
	selection_weight = {
		factor = 2
		modifier = {
			factor = 1.5
			NOT = { republican_tradition = 50 }
		}
		modifier = {
			factor = 1.5
			NOT = { republican_tradition = 35 }
		}
	}
	fail_if = {
		NOT = { government = republic }
		NOT = { government = dictatorship }
	}
	task_requirements = {
		republican_tradition = 85
	}
    task_completed_effect = {
		add_estate_loyalty = {
			estate = estate_castonath_patricians
			loyalty = 10
		}
		add_country_modifier = {
			name = agenda_republicanism_restored
			duration = 3650
		}
    }
    failing_effect = {
        add_estate_loyalty_modifier = {
            estate = estate_castonath_patricians
			desc = EST_VAL_AGENDA_DENIED
			loyalty = -5
			duration = 7300
        }
    }
}

# Reduce Inflation
estate_castonath_patricians_restore_currency = {
	can_select = {
		inflation = 10
		NOT = {
			inflation = 30
		}
		NOT = { has_country_modifier = boom_economy }
	}
	selection_weight = {
		factor = 2.5
		modifier = {
			factor = 2
			inflation = 20
		}
	}
	fail_if = {
		inflation = 35
	}
	task_requirements = {
		NOT = { inflation = 5 }
	}
    task_completed_effect = {
		add_estate_loyalty = {
			estate = estate_castonath_patricians
			loyalty = 10
		}
		add_country_modifier = {
			name = boom_economy
			duration = 5475
		}
    }
    failing_effect = {
        add_estate_loyalty_modifier = {
            estate = estate_castonath_patricians
			desc = EST_VAL_AGENDA_DENIED
			loyalty = -5
			duration = 7300
        }
    }
}

# Recover Abysmal Inflation
estate_castonath_patricians_recovery_from_hyperinflation = {
	can_select = {
		inflation = 30
	}
	selection_weight = {
		factor = 5
	}
	task_requirements = {
		NOT = { inflation = 15 }
	}
    task_completed_effect = {
		add_estate_loyalty = {
			estate = estate_castonath_patricians
			loyalty = 10
		}
		add_stability_or_adm_power = yes
		add_inflation = -10
    }
    failing_effect = {
        add_estate_loyalty_modifier = {
            estate = estate_castonath_patricians
			desc = EST_VAL_AGENDA_DENIED
			loyalty = -5
			duration = 7300
        }
    }
}

# Improve trade power in Castonath
estate_castonath_patricians_increase_trade_power_in_castonath = {
	can_select = {
		840 = {
			trade_share = {
				country = root
				share = 5
			}
			NOT = {
				trade_share = {
					country = root
					share = 50
				}
			}
		}
	}
	selection_weight = {
		factor = 1.5
		modifier = { #a good indication that you should be doing trade stuff
			factor = 2
			num_of_merchants = 3
		}
		modifier = {
			factor = 2
			num_of_merchants = 4
		}
		modifier = {
			factor = 2
			trade_income_percentage = 0.3
		}
	}
	pre_effect = {
		set_variable = {
			which = estate_castonath_patricians_increase_trade_power_in_X_var
			value = 0
		}
		840 = {
			save_event_target_as = agenda_trade_node
			if = {
				limit = {
					trade_share = { #Requires 65
						country = root
						share = 40
					}
				}
				root = {
					set_variable = {
						which = estate_castonath_patricians_increase_trade_power_in_X_var
						value = 7
					}
				}
			}
			else_if = {
				limit = {
					trade_share = { #Requires 50
						country = root
						share = 30
					}
				}
				root = {
					set_variable = {
						which = estate_castonath_patricians_increase_trade_power_in_X_var
						value = 6
					}
				}
			}
			else_if = {
				limit = {
					trade_share = { #Requires 40
						country = root
						share = 23
					}
				}
				root = {
					set_variable = {
						which = estate_castonath_patricians_increase_trade_power_in_X_var
						value = 5
					}
				}
			}
			else_if = {
				limit = {
					trade_share = { #Requires 30
						country = root
						share = 15
					}
				}
				root = {
					set_variable = {
						which = estate_castonath_patricians_increase_trade_power_in_X_var
						value = 4
					}
				}
			}
			else_if = {
				limit = {
					trade_share = { #Requires 25
						country = root
						share = 10
					}
				}
				root = {
					set_variable = {
						which = estate_castonath_patricians_increase_trade_power_in_X_var
						value = 3
					}
				}
			}
			else_if = {
				limit = {
					trade_share = { #Requires 20
						country = root
						share = 7
					}
				}
				root = {
					set_variable = {
						which = estate_castonath_patricians_increase_trade_power_in_X_var
						value = 2
					}
				}
			}
			else = { #Requires 15
				root = {
					set_variable = {
						which = estate_castonath_patricians_increase_trade_power_in_X_var
						value = 1
					}
				}
			}
		}
	}
	provinces_to_highlight = {
		province_id = event_target:agenda_trade_node
	}
	task_requirements = {
		event_target:agenda_trade_node = {
			if = {
				limit = {
					root = {
						check_variable = {
							which = estate_castonath_patricians_increase_trade_power_in_X_var
							value = 7
						}
					}
				}
				trade_share = {
					country = root
					share = 65
				}
			}
			else_if = {
				limit = {
					root = {
						check_variable = {
							which = estate_castonath_patricians_increase_trade_power_in_X_var
							value = 6
						}
					}
				}
				trade_share = {
					country = root
					share = 50
				}
			}
			else_if = {
				limit = {
					root = {
						check_variable = {
							which = estate_castonath_patricians_increase_trade_power_in_X_var
							value = 5
						}
					}
				}
				trade_share = {
					country = root
					share = 40
				}
			}
			else_if = {
				limit = {
					root = {
						check_variable = {
							which = estate_castonath_patricians_increase_trade_power_in_X_var
							value = 4
						}
					}
				}
				trade_share = {
					country = root
					share = 30
				}
			}
			else_if = {
				limit = {
					root = {
						check_variable = {
							which = estate_castonath_patricians_increase_trade_power_in_X_var
							value = 3
						}
					}
				}
				trade_share = {
					country = root
					share = 25
				}
			}
			else_if = {
				limit = {
					root = {
						check_variable = {
							which = estate_castonath_patricians_increase_trade_power_in_X_var
							value = 2
						}
					}
				}
				trade_share = {
					country = root
					share = 20
				}
			}
			else_if = {
				limit = {
					root = {
						check_variable = {
							which = estate_castonath_patricians_increase_trade_power_in_X_var
							value = 1
						}
					}
				}
				trade_share = {
					country = root
					share = 15
				}
			}
		}
	}
	task_completed_effect = {
		add_estate_loyalty = {
			estate = estate_castonath_patricians
			loyalty = 10
		}
		if = {
			limit = {
				NOT = { monthly_income = 15 }
			}
			define_advisor = {
				type = trader
				culture = castanorian
				skill = 1
				discount = yes
			}
		}
		else_if = {
			limit = {
				NOT = { monthly_income = 25 }
			}
			define_advisor = {
				type = trader
				culture = castanorian
				skill = 2
				discount = yes
			}
		}
		else = {
			define_advisor = {
				type = trader
				culture = castanorian
				skill = 3
				discount = yes
			}
		}
	}
    failing_effect = {
        add_estate_loyalty_modifier = {
            estate = estate_castonath_patricians
			desc = EST_VAL_AGENDA_DENIED
			loyalty = -5
			duration = 7300
        }
    }
}

# Improve dip rep
estate_castonath_patricians_improve_dip_rep = {
	can_select = {
		NOT = { diplomatic_reputation = -2 }
	}
	selection_weight = {
		factor = 1
	}
	task_requirements = {
		diplomatic_reputation = 1
	}
	task_completed_effect = {
		add_estate_loyalty = {
			estate = estate_castonath_patricians
			loyalty = 10
		}
		add_prestige = 10
	}
    failing_effect = {
        add_estate_loyalty_modifier = {
            estate = estate_castonath_patricians
			desc = EST_VAL_AGENDA_DENIED
			loyalty = -5
			duration = 7300
        }
    }
}

# Get a treasury
estate_castonath_patricians_get_cash = {
	can_select = {
		NOT = { years_of_income = 0.5 }
		NOT = { num_of_loans = 1 }
		is_at_war = no
	}
	selection_weight = {
		factor = 1
	}
	task_requirements = {
		years_of_income = 2.5
		NOT = { num_of_loans = 1 }
	}
	fail_if = {
		num_of_loans = 1
	}
	task_completed_effect = {
		if = {
			limit = {
				inflation = 5
			}
			add_estate_loyalty = {
				estate = estate_castonath_patricians
				loyalty = 10
			}
			if = {
				limit = {
					NOT = { monthly_income = 15 }
				}
				define_advisor = {
					type = master_of_mint
					culture = castanorian
					skill = 1
					discount = yes
				}
			}
			else_if = {
				limit = {
					NOT = { monthly_income = 25 }
				}
				define_advisor = {
					type = master_of_mint
					culture = castanorian
					skill = 2
					discount = yes
				}
			}
			else = {
				define_advisor = {
					type = master_of_mint
					culture = castanorian
					skill = 3
					discount = yes
				}
			}
		}
		else = {
			add_estate_loyalty = {
				estate = estate_castonath_patricians
				loyalty = 15
			}
		}
	}
    failing_effect = {
        add_estate_loyalty_modifier = {
            estate = estate_castonath_patricians
			desc = EST_VAL_AGENDA_DENIED
			loyalty = -5
			duration = 7300
        }
    }
}

# Reduce corruption
estate_castonath_patricians_reduce_corruption = {
	can_select = {
		corruption = 5
		is_bankrupt = no
		NOT = { has_country_modifier = freedom_from_corruption }
	}
	selection_weight = {
		factor = 1.5
		modifier = {
			factor = 0.5
			is_at_war = yes
		}
		modifier = {
			factor = 2
			corruption = 10
		}
		modifier = {
			factor = 1.5
			corruption = 15
		}
		modifier = {
			factor = 1.5
			corruption = 20
		}
	}
	pre_effect = {
		set_variable = {
			which = estate_castonath_patricians_reduce_corruption_var
			value = 0
		}
		if = {
			limit = {
				NOT = {
					corruption = 10
				}
			}
			set_variable = {
				which = estate_castonath_patricians_reduce_corruption_var
				value = 1
			}
		}
		else_if = {
			limit = {
				NOT = {
					corruption = 15
				}
			}
			set_variable = {
				which = estate_castonath_patricians_reduce_corruption_var
				value = 2
			}
		}
		else = {
			set_variable = {
				which = estate_castonath_patricians_reduce_corruption_var
				value = 3
			}
		}
	}
	task_requirements = {
		if = {
			limit = {
				check_variable = {
					which = estate_castonath_patricians_reduce_corruption_var
					value = 3
				}
			}
			NOT = { corruption = 10 }
		}
		else_if = {
			limit = {
				check_variable = {
					which = estate_castonath_patricians_reduce_corruption_var
					value = 2
				}
			}
			NOT = { corruption = 5 }
		}
		else = {
			NOT = { corruption = 1 }
		}
	}
    task_completed_effect = {
		add_estate_loyalty = {
			estate = estate_castonath_patricians
			loyalty = 10
		}
		add_country_modifier = {
			name = freedom_from_corruption
			duration = 5475
		}
    }
    failing_effect = {
        add_estate_loyalty_modifier = {
            estate = estate_castonath_patricians
			desc = EST_VAL_AGENDA_DENIED
			loyalty = -5
			duration = 7300
        }
    }
}

# Give us 3 privileges
estate_castonath_patricians_three_privileges = {
	can_select = {
		NOT = {
			num_of_estate_privileges = {
				estate = estate_castonath_patricians
				value = 2
			}
		}
	}
	selection_weight = {
		factor = 1
	}
	pre_effect = {
		set_variable = {
			which = estate_castonath_patricians_three_privileges_var
			value = 0
		}
		if = {
			limit = {
				num_of_estate_privileges = {
					estate = estate_castonath_patricians
					value = 1
				}
			}
			set_variable = {
				which = estate_castonath_patricians_three_privileges_var
				value = 2
			}
		}
		else = {
			set_variable = {
				which = estate_castonath_patricians_three_privileges_var
				value = 1
			}
		}
	}
	task_requirements = {
		if = {
			limit = {
				check_variable = {
					which = estate_castonath_patricians_three_privileges_var
					value = 2
				}
			}
			num_of_estate_privileges = {
				estate = estate_castonath_patricians
				value = 3
			}
		}
		else = {
			num_of_estate_privileges = {
				estate = estate_castonath_patricians
				value = 2
			}
		}
	}
    task_completed_effect = {
		add_estate_loyalty = {
			estate = estate_castonath_patricians
			loyalty = 20
		}
    }
    failing_effect = {
        add_estate_loyalty_modifier = {
            estate = estate_castonath_patricians
			desc = EST_VAL_AGENDA_DENIED
			loyalty = -5
			duration = 7300
        }
    }
}

# Protect against Piracy
estate_castonath_patricians_protect_against_piracy = {
	can_select = {
		any_active_trade_node = {
			trade_share = {
				country = root
				share = 20
			}
			privateer_power = {
				share = 20
			}
			NOT = {
				privateer_power = {
					share = 1
					country = root
				}
			}
		}
	}
	selection_weight = {
		factor = 2
		modifier = {
			factor = 2
			any_active_trade_node = {
				trade_share = {
					country = root
					share = 20
				}
				privateer_power = {
					share = 20
				}
				NOT = {
					privateer_power = {
						share = 1
						country = root
					}
				}
				OR = {
					trade_share = {
						country = root
						share = 35
					}
					privateer_power = {
						share = 35
					}
				}
			}
		}
	}
	pre_effect = {
		random_active_trade_node = {
			limit = {
				trade_share = {
					country = root
					share = 20
				}
				privateer_power = {
					share = 20
				}
				NOT = {
					privateer_power = {
						share = 1
						country = root
					}
				}
			}
			save_event_target_as = agenda_trade_node
		}
		random_active_trade_node = {
			limit = {
				trade_share = {
					country = root
					share = 20
				}
				privateer_power = {
					share = 20
				}
				NOT = {
					privateer_power = {
						share = 1
						country = root
					}
				}
				OR = {
					trade_share = {
						country = root
						share = 35
					}
					privateer_power = {
						share = 35
					}
				}
			}
			save_event_target_as = agenda_trade_node
			if = {
				limit = {
					OR = {
						is_sea = yes
						has_port = no #shouldn't ever be the case, but just in case...
					}
				}
				save_event_target_as = agenda_trade_node_sea
			}
			else = {
				sea_zone = {
					save_event_target_as = agenda_trade_node_sea
				}
			}
		}
	}
	provinces_to_highlight = {
		province_id = event_target:agenda_trade_node
	}
	task_requirements = {
		event_target:agenda_trade_node = {
			trade_share = {
				country = root
				share = 20
			}
			NOT = {
				privateer_power = {
					share = 5
				}
			}
		}
	}
	fail_if = {
		event_target:agenda_trade_node = {
			NOT = {
				trade_share = {
					country = root
					share = 10
				}
			}
		}
	}
    task_completed_effect = {
		add_estate_loyalty = {
			estate = estate_castonath_patricians
			loyalty = 15
		}
    }
    failing_effect = {
        add_estate_loyalty_modifier = {
            estate = estate_castonath_patricians
			desc = EST_VAL_AGENDA_DENIED
			loyalty = -5
			duration = 7300
        }
    }
}

# Develop Castonath
estate_castonath_patricians_develop_castonath = {
	selection_weight = {
		factor = 1
	}
	can_select = {
		capital_scope = {
			is_state_core = root
		}
	}
	pre_effect = {
		random_list = {
			1 = {
				trigger = {
					831 = {
						is_core = ROOT
						owned_by = ROOT
					}
				}
				831 = {
					save_event_target_as = agenda_province
				}
			}
			1 = {
				trigger = {
					832 = {
						is_core = ROOT
						owned_by = ROOT
					}
				}
				832 = {
					save_event_target_as = agenda_province
				}
			}
			1 = {
				trigger = {
					833 = {
						is_core = ROOT
						owned_by = ROOT
					}
				}
				833 = {
					save_event_target_as = agenda_province
				}
			}
		}
		event_target:agenda_province = {
			if = {
				limit = {
					check_variable = {
						which = province_dip_var
						value = 1
					}
				}
				set_variable = {
					which = province_dip_var
					value = 0
				}
			}
			export_to_variable = {
				which = province_dip_var
				value = trigger_value:base_production
			}
			change_variable = {
				which = province_dip_var
				value = 2
			}
		}
	}
	provinces_to_highlight = {
		province_id = event_target:agenda_province
	}
	fail_if = {
		event_target:agenda_province = {
			NOT = { owned_by = root }
		}
	}
    task_requirements = {
		event_target:agenda_province = {
			base_production = "province_dip_var"
		}
    }
    task_completed_effect = {
		add_estate_loyalty = {
			estate = estate_castonath_patricians
			loyalty = 10
		}
		add_years_of_income = 0.3
    }
    failing_effect = {
		event_target:agenda_province = {
			if = {
				limit = { owned_by = root }
				add_named_unrest = {
					name = local_patricians_displeased
					value = 5
				}
			}
		}
        add_estate_loyalty_modifier = {
            estate = estate_castonath_patricians
			desc = EST_VAL_AGENDA_DENIED
			loyalty = -5
			duration = 7300
        }
    }
}

# Build university in Castonath
estate_castonath_patricians_build_university_in_castonath = {
	can_select = {
		government = republic
		adm_tech = 17
		any_owned_province = {
			is_state_core = root
			OR = {
				province_id = 831
				province_id = 832
				province_id = 833
			}
			NOT = { has_building = university }
			OR = {
				development = 10
				is_capital = yes
			}
		}
	}
	selection_weight = {
		factor = 1
		modifier = {
			factor = 0.75
			NOT = {
				any_owned_province = {
					OR = {
						province_id = 831
						province_id = 832
						province_id = 833
					}
					is_state_core = root
					NOT = { has_building = university }
					development = 15
				}
			}
		}
		modifier = {
			factor = 1.2
			any_owned_province = {
				OR = {
					province_id = 831
					province_id = 832
					province_id = 833
				}
				is_state_core = root
				NOT = { has_building = university }
				development = 20
			}
		}
		modifier = {
			factor = 2
			is_institution_enabled = enlightenment
			NOT = { has_institution = enlightenment }
		}
	}
	pre_effect = {
		random_owned_province = {
			limit = {
				is_state_core = root
				NOT = { has_building = university }
				development = 10
				OR = {
					province_id = 831
					province_id = 832
					province_id = 833
				}
			}
			save_event_target_as = agenda_province
		}
		random_owned_province = {
			limit = {
				is_state_core = root
				NOT = { has_building = university }
				development = 15
				OR = {
					province_id = 831
					province_id = 832
					province_id = 833
				}
			}
			save_event_target_as = agenda_province
		}
		random_owned_province = {
			limit = {
				is_state_core = root
				NOT = { has_building = university }
				development = 20
				OR = {
					province_id = 831
					province_id = 832
					province_id = 833
				}
			}
			save_event_target_as = agenda_province
		}
		random_owned_province = {
			limit = {
				is_state_core = root
				NOT = { has_building = university }
				is_capital = yes
				OR = {
					province_id = 831
					province_id = 832
					province_id = 833
				}
			}
			save_event_target_as = agenda_province
		}
	}
	provinces_to_highlight = {
		province_id = event_target:agenda_province
	}
	fail_if = {
		event_target:agenda_province = {
			NOT = { owned_by = root }
		}
	}
    task_requirements = {
		event_target:agenda_province = {
			has_building = university
		}
    }
    task_completed_effect = {
		add_estate_loyalty = {
			estate = estate_castonath_patricians
			loyalty = 10
		}
		add_adm_power = 35
		add_dip_power = 35
		add_mil_power = 35
    }
    failing_effect = {
		event_target:agenda_province = {
			if = {
				limit = { owned_by = root }
				add_named_unrest = {
					name = local_patricians_displeased
					value = 5
				}
			}
		}
        add_estate_loyalty_modifier = {
            estate = estate_castonath_patricians
			desc = EST_VAL_AGENDA_DENIED
			loyalty = -5
			duration = 7300
        }
    }
}

# Build manufactory building in Castonath
estate_castonath_patricians_build_manufactory_in_castonath = {
	can_select = {
		any_owned_province = {
			is_state_core = root
			OR = {
				province_id = 831
				province_id = 832
				province_id = 833
			}
			root_can_build_manufactory_here_trigger = yes
			has_burghers_trade_good_trigger = yes
		}
		monthly_income = 30
	}
	selection_weight = {
		factor = 2
		modifier = {
			factor = 0.5
			OR = {
				current_age = age_of_discovery
				current_age = age_of_reformation
			}
		}
		modifier = {
			factor = 0.5
			NOT = { monthly_income = 40 }
		}
		modifier = {
			factor = 2
			monthly_income = 60
		}
		modifier = {
			factor = 2
			is_institution_enabled = manufactories
			NOT = { has_institution = manufactories }
		}
	}
	pre_effect = {
		random_owned_province = {
			limit = {
				is_state_core = root
				root_can_build_manufactory_here_trigger = yes
				has_burghers_trade_good_trigger = yes
				OR = {
					province_id = 831
					province_id = 832
					province_id = 833
				}
			}
			save_event_target_as = agenda_province
		}
		random_owned_province = {
			limit = {
				is_state_core = root
				base_production = 5
				root_can_build_manufactory_here_trigger = yes
				has_burghers_trade_good_trigger = yes
				OR = {
					province_id = 831
					province_id = 832
					province_id = 833
				}
			}
			save_event_target_as = agenda_province
		}
		random_owned_province = {
			limit = {
				is_state_core = root
				base_production = 10
				root_can_build_manufactory_here_trigger = yes
				has_burghers_trade_good_trigger = yes
				OR = {
					province_id = 831
					province_id = 832
					province_id = 833
				}
			}
			save_event_target_as = agenda_province
		}
	}
	provinces_to_highlight = {
		province_id = event_target:agenda_province
	}
	fail_if = {
		event_target:agenda_province = {
			NOT = { owned_by = root }
		}
	}
    task_requirements = {
		event_target:agenda_province = {
			custom_trigger_tooltip = {
				tooltip = has_manufactory_trigger_tooltip
				
				if = {
					limit = {
						OR = {
							trade_goods = naval_supplies
							trade_goods = fish
							trade_goods = salt
						}
					}
					has_building = wharf
				}
				else_if = {
					limit = {
						OR = {
							trade_goods = copper
							trade_goods = iron
						}
					}
					has_building = weapons
				}
				else_if = {
					limit = {
						OR = {
							trade_goods = wool
							trade_goods = cloth
							trade_goods = silk
							trade_goods = dyes
						}
					}
					has_building = textile
				}
				else_if = {
					limit = {
						OR = {
							trade_goods = ivory
							trade_goods = slaves
							trade_goods = spices
							trade_goods = fur
							trade_goods = incense
						}
					}
					has_building = tradecompany
				}
				else_if = {
					limit = {
						OR = {
							trade_goods = grain
							trade_goods = livestock
							trade_goods = wine
						}
					}
					has_building = farm_estate
				}
				else_if = {
					limit = {
						OR = {
							trade_goods = paper
							trade_goods = gems
							trade_goods = tropical_wood
							trade_goods = glass
							trade_goods = chinaware
						}
					}
					has_building = mills
				}
				else_if = {
					limit = {
						trade_goods = coal
					}
					has_building = furnace
				}
				else = {
					has_building = plantations
				}
			}
		}
    }
    task_completed_effect = {
		add_estate_loyalty = {
			estate = estate_castonath_patricians
			loyalty = 10
		}
		event_target:agenda_province = {
			add_base_production = 1
			add_province_modifier = {
				name = prospering_production
				duration = 5475
			}
		}
    }
    failing_effect = {
		event_target:agenda_province = {
			if = {
				limit = { owned_by = root }
				add_named_unrest = {
					name = local_patricians_displeased
					value = 5
				}
			}
		}
        add_estate_loyalty_modifier = {
            estate = estate_castonath_patricians
			desc = EST_VAL_AGENDA_DENIED
			loyalty = -5
			duration = 7300
        }
    }
}

# Build production building in Castonath
estate_castonath_patricians_build_production_building_in_castonath = {
	can_select = {
		adm_tech = 6
		any_owned_province = {
			OR = {
				province_id = 831
				province_id = 832
				province_id = 833
			}
			is_state_core = root
			NOT = { has_building = counting_house }
			OR = {
				AND = {
					NOT = { has_building = workshop }
					num_free_building_slots = 1
				}
				AND = {
					ROOT = { adm_tech = 24 }
					OR = {
						has_building = workshop
						num_free_building_slots = 1
					}
				}
			}
			NOT = { trade_goods = gold }
		}
	}
	selection_weight = {
		factor = 1
		modifier = {
			factor = 0.65
			NOT = {
				any_owned_province = {
					OR = {
						province_id = 831
						province_id = 832
						province_id = 833
					}
					is_state_core = root
					base_production = 4
					NOT = { has_building = counting_house }
					OR = {
						AND = {
							NOT = { has_building = workshop }
							num_free_building_slots = 1
						}
						AND = {
							ROOT = { adm_tech = 24 }
							OR = {
								has_building = workshop
								num_free_building_slots = 1
							}
						}
					}
					NOT = { trade_goods = gold }
				}
			}
		}
		modifier = {
			factor = 1.2
			any_owned_province = {
				is_state_core = root
				OR = {
					province_id = 831
					province_id = 832
					province_id = 833
				}
				OR = {
					base_production = 7
					has_building = wharf
					has_building = weapons
					has_building = textile
					has_building = tradecompany
					has_building = farm_estate
					has_building = mills
					has_building = plantations
					has_building = furnace
				}
				NOT = { has_building = counting_house }
				OR = {
					AND = {
						NOT = { has_building = workshop }
						num_free_building_slots = 1
					}
					AND = {
						ROOT = { adm_tech = 24 }
						OR = {
							has_building = workshop
							num_free_building_slots = 1
						}
					}
				}
				NOT = { trade_goods = gold }
			}
		}
		modifier = {
			factor = 2
			NOT = {
				crown_land_share = 15
			}
		}
	}
	pre_effect = {
		set_variable = {
			which = estate_castonath_patricians_build_production_building_in_castonath_var
			value = 0
		}
		random_owned_province = {
			limit = {
				OR = {
					province_id = 831
					province_id = 832
					province_id = 833
				}
				is_state_core = root
				NOT = { has_building = counting_house }
				OR = {
					AND = {
						NOT = { has_building = workshop }
						num_free_building_slots = 1
					}
					AND = {
						ROOT = { adm_tech = 24 }
						OR = {
							has_building = workshop
							num_free_building_slots = 1
						}
					}
				}
				NOT = { trade_goods = gold }
			}
			save_event_target_as = agenda_province
		}
		random_owned_province = {
			limit = {
				OR = {
					province_id = 831
					province_id = 832
					province_id = 833
				}
				is_state_core = root
				base_production = 4
				NOT = { has_building = counting_house }
				OR = {
					AND = {
						NOT = { has_building = workshop }
						num_free_building_slots = 1
					}
					AND = {
						ROOT = { adm_tech = 24 }
						OR = {
							has_building = workshop
							num_free_building_slots = 1
						}
					}
				}
				NOT = { trade_goods = gold }
			}
			save_event_target_as = agenda_province
		}
		random_owned_province = {
			limit = {
				OR = {
					province_id = 831
					province_id = 832
					province_id = 833
				}
				is_state_core = root
				OR = {
					base_production = 7
					has_building = wharf
					has_building = weapons
					has_building = textile
					has_building = tradecompany
					has_building = farm_estate
					has_building = mills
					has_building = plantations
					has_building = furnace
				}
				NOT = { has_building = counting_house }
				OR = {
					AND = {
						NOT = { has_building = workshop }
						num_free_building_slots = 1
					}
					AND = {
						ROOT = { adm_tech = 24 }
						OR = {
							has_building = workshop
							num_free_building_slots = 1
						}
					}
				}
				NOT = { trade_goods = gold }
			}
			save_event_target_as = agenda_province
		}
		event_target:agenda_province = {
			if = {
				limit = {
					has_building = workshop
				}
				ROOT = {
					set_variable = {
						which = estate_castonath_patricians_build_production_building_in_castonath_var
						value = 2
					}
				}
			}
			else = {
				ROOT = {
					set_variable = {
						which = estate_castonath_patricians_build_production_building_in_castonath_var
						value = 1
					}
				}
			}
		}
	}
	provinces_to_highlight = {
		province_id = event_target:agenda_province
	}
	fail_if = {
		event_target:agenda_province = {
			NOT = { owned_by = root }
		}
	}
    task_requirements = {
		if = {
			limit = {
				check_variable = {
					which = estate_castonath_patricians_build_production_building_in_castonath_var
					value = 2
				}
			}
			event_target:agenda_province = {
				has_building = counting_house
			}
		}
		else = {
			event_target:agenda_province = {
				OR = {
					has_building = workshop
					has_building = counting_house
				}
			}
		}
    }
    task_completed_effect = {
		add_estate_loyalty = {
			estate = estate_castonath_patricians
			loyalty = 10
		}
		if = {
			limit = {
				NOT = { crown_land_share = 15 }
				estate_territory = {
					estate = estate_castonath_patricians
					territory = 10
				}
			}
			take_estate_land_share_small = { estate = estate_castonath_patricians }
		}
		else = {
			event_target:agenda_province = {
				add_base_production = 1
			}
		}
    }
    failing_effect = {
		event_target:agenda_province = {
			if = {
				limit = { owned_by = root }
				add_named_unrest = {
					name = local_patricians_displeased
					value = 5
				}
			}
		}
        add_estate_loyalty_modifier = {
            estate = estate_castonath_patricians
			desc = EST_VAL_AGENDA_DENIED
			loyalty = -5
			duration = 7300
        }
    }
}

# Build trade building in Castonath
estate_castonath_patricians_build_trade_building_in_castonath = {
	can_select = {
		dip_tech = 4
		any_owned_province = {
			OR = {
				province_id = 831
				province_id = 832
				province_id = 833
			}
			is_state_core = root
			NOT = { has_building = stock_exchange }
			OR = {
				AND = {
					NOT = { has_building = marketplace }
					NOT = { has_building = trade_depot }
					num_free_building_slots = 1
				}
				AND = {
					ROOT = { dip_tech = 17 }
					NOT = { has_building = trade_depot }
					OR = {
						num_free_building_slots = 1
						has_building = marketplace
					}
				}
				AND = {
					ROOT = { dip_tech = 22 }
					OR = {
						num_free_building_slots = 1
						has_building = trade_depot
					}
				}
			}
		}
	}
	selection_weight = {
		factor = 1
		modifier = {
			factor = 0.65
			NOT = {
				any_owned_province = {
					OR = {
						province_id = 831
						province_id = 832
						province_id = 833
					}
					is_state_core = root
					OR = {
						province_has_center_of_trade_of_level = 1
						province_trade_power = 10
					}
					NOT = { has_building = stock_exchange }
					OR = {
						AND = {
							NOT = { has_building = marketplace }
							NOT = { has_building = trade_depot }
							num_free_building_slots = 1
						}
						AND = {
							ROOT = { dip_tech = 17 }
							NOT = { has_building = trade_depot }
							OR = {
								num_free_building_slots = 1
								has_building = marketplace
							}
						}
						AND = {
							ROOT = { dip_tech = 22 }
							OR = {
								num_free_building_slots = 1
								has_building = trade_depot
							}
						}
					}
				}
			}
		}
		modifier = {
			factor = 1.2
			any_owned_province = {
				OR = {
					province_id = 831
					province_id = 832
					province_id = 833
				}
				is_state_core = root
				OR = {
					province_has_center_of_trade_of_level = 2
					province_trade_power = 20
				}
				NOT = { has_building = stock_exchange }
				OR = {
					AND = {
						NOT = { has_building = marketplace }
						NOT = { has_building = trade_depot }
						num_free_building_slots = 1
					}
					AND = {
						ROOT = { dip_tech = 17 }
						NOT = { has_building = trade_depot }
						OR = {
							num_free_building_slots = 1
							has_building = marketplace
						}
					}
					AND = {
						ROOT = { dip_tech = 22 }
						OR = {
							num_free_building_slots = 1
							has_building = trade_depot
						}
					}
				}
			}
		}
		modifier = {
			factor = 2
			is_institution_enabled = global_trade
			NOT = { has_institution = global_trade }
		}
		modifier = {
			factor = 2
			NOT = {
				crown_land_share = 15
			}
		}
	}
	pre_effect = {
		set_variable = {
			which = estate_castonath_patricians_build_trade_building_in_castonath_var
			value = 0
		}
		random_owned_province = {
			limit = {
				OR = {
					province_id = 831
					province_id = 832
					province_id = 833
				}
				is_state_core = root
				NOT = { has_building = stock_exchange }
				OR = {
					AND = {
						NOT = { has_building = marketplace }
						NOT = { has_building = trade_depot }
						num_free_building_slots = 1
					}
					AND = {
						ROOT = { dip_tech = 17 }
						NOT = { has_building = trade_depot }
						OR = {
							num_free_building_slots = 1
							has_building = marketplace
						}
					}
					AND = {
						ROOT = { dip_tech = 22 }
						OR = {
							num_free_building_slots = 1
							has_building = trade_depot
						}
					}
				}
			}
			save_event_target_as = agenda_province
		}
		random_owned_province = {
			limit = {
				OR = {
					province_id = 831
					province_id = 832
					province_id = 833
				}
				is_state_core = root
				OR = {
					province_has_center_of_trade_of_level = 1
					province_trade_power = 10
				}
				NOT = { has_building = stock_exchange }
				OR = {
					AND = {
						NOT = { has_building = marketplace }
						NOT = { has_building = trade_depot }
						num_free_building_slots = 1
					}
					AND = {
						ROOT = { dip_tech = 17 }
						NOT = { has_building = trade_depot }
						OR = {
							num_free_building_slots = 1
							has_building = marketplace
						}
					}
					AND = {
						ROOT = { dip_tech = 22 }
						OR = {
							num_free_building_slots = 1
							has_building = trade_depot
						}
					}
				}
			}
			save_event_target_as = agenda_province
		}
		random_owned_province = {
			limit = {
				OR = {
					province_id = 831
					province_id = 832
					province_id = 833
				}
				is_state_core = root
				OR = {
					province_has_center_of_trade_of_level = 2
					province_trade_power = 20
				}
				NOT = { has_building = stock_exchange }
				OR = {
					AND = {
						NOT = { has_building = marketplace }
						NOT = { has_building = trade_depot }
						num_free_building_slots = 1
					}
					AND = {
						ROOT = { dip_tech = 17 }
						NOT = { has_building = trade_depot }
						OR = {
							num_free_building_slots = 1
							has_building = marketplace
						}
					}
					AND = {
						ROOT = { dip_tech = 22 }
						OR = {
							num_free_building_slots = 1
							has_building = trade_depot
						}
					}
				}
			}
			save_event_target_as = agenda_province
		}
		event_target:agenda_province = {
			if = {
				limit = {
					has_building = trade_depot
				}
				ROOT = {
					set_variable = {
						which = estate_castonath_patricians_build_trade_building_in_castonath_var
						value = 3
					}
				}
			}
			else_if = {
				limit = {
					has_building = marketplace
				}
				ROOT = {
					set_variable = {
						which = estate_castonath_patricians_build_trade_building_in_castonath_var
						value = 2
					}
				}
			}
			else = {
				ROOT = {
					set_variable = {
						which = estate_castonath_patricians_build_trade_building_in_castonath_var
						value = 1
					}
				}
			}
		}
	}
	provinces_to_highlight = {
		province_id = event_target:agenda_province
	}
	fail_if = {
		event_target:agenda_province = {
			NOT = { owned_by = root }
		}
	}
    task_requirements = {
		if = {
			limit = {
				check_variable = {
					which = estate_castonath_patricians_build_trade_building_in_castonath_var
					value = 3
				}
			}
			event_target:agenda_province = {
				has_building = stock_exchange
			}
		}
		else_if = {
			limit = {
				check_variable = {
					which = estate_castonath_patricians_build_trade_building_in_castonath_var
					value = 2
				}
			}
			event_target:agenda_province = {
				OR = {
					has_building = trade_depot
					has_building = stock_exchange
				}
			}
		}
		else = {
			event_target:agenda_province = {
				OR = {
					has_building = marketplace
					has_building = trade_depot
					has_building = stock_exchange
				}
			}
		}
    }
    task_completed_effect = {
		add_estate_loyalty = {
			estate = estate_castonath_patricians
			loyalty = 10
		}
		if = {
			limit = {
				NOT = { crown_land_share = 15 }
				estate_territory = {
					estate = estate_castonath_patricians
					territory = 10
				}
			}
			take_estate_land_share_small = { estate = estate_castonath_patricians }
		}
		else = {
			event_target:agenda_province = {
				add_base_production = 1
			}
		}
    }
    failing_effect = {
		event_target:agenda_province = {
			if = {
				limit = { owned_by = root }
				add_named_unrest = {
					name = local_patricians_displeased
					value = 5
				}
			}
		}
        add_estate_loyalty_modifier = {
            estate = estate_castonath_patricians
			desc = EST_VAL_AGENDA_DENIED
			loyalty = -5
			duration = 7300
        }
    }
}

# Increase autonomy in Castonath
estate_castonath_patricians_increase_autonomy_in_castonath = {
	can_select = {
		any_owned_province = {
			is_state_core = root
			OR = {
				province_id = 831
				province_id = 832
				province_id = 833
			}
			NOT = { local_autonomy = 75 }
			is_capital = no
			NOT = { has_province_modifier = autonomy_increased }
			NOT = { has_province_modifier = autonomy_decreased }
		}
	}
	selection_weight = {
		factor = 1.5
	}
	pre_effect = {
		set_variable = {
			which = estate_castonath_patricians_increase_autonomy_in_province_x_var
			value = 0
		}
		random_owned_province = {
			limit = {
				is_state_core = root
				NOT = { local_autonomy = 75 }
				OR = {
					province_id = 831
					province_id = 832
					province_id = 833
				}
				is_capital = no
				NOT = { has_province_modifier = autonomy_increased }
				NOT = { has_province_modifier = autonomy_decreased }
			}
			save_event_target_as = agenda_province

			if = {
				limit = {
					local_autonomy = 60
				}
				root = {
					set_variable = {
						which = estate_castonath_patricians_increase_autonomy_in_province_x_var
						value = 5
					}
				}
			}
			else_if = {
				limit = {
					local_autonomy = 45
				}
				root = {
					set_variable = {
						which = estate_castonath_patricians_increase_autonomy_in_province_x_var
						value = 4
					}
				}
			}
			else_if = {
				limit = {
					local_autonomy = 30
				}
				root = {
					set_variable = {
						which = estate_castonath_patricians_increase_autonomy_in_province_x_var
						value = 3
					}
				}
			}
			else_if = {
				limit = {
					local_autonomy = 15
				}
				root = {
					set_variable = {
						which = estate_castonath_patricians_increase_autonomy_in_province_x_var
						value = 2
					}
				}
			}
			else = {
				root = {
					set_variable = {
						which = estate_castonath_patricians_increase_autonomy_in_province_x_var
						value = 1
					}
				}
			}
			choose_random_development_bonus_effect = yes
		}
	}
	on_invalid = {
		event_target:agenda_province = {
			clear_random_development_bonus_flags_effect = yes
		}
	}
	provinces_to_highlight = {
		province_id = event_target:agenda_province
	}
	fail_if = {
		custom_trigger_tooltip = {
			tooltip = "[agenda_province.GetName]'s autonomy is reduced by more than 10"
			hidden_trigger = {
				if = {
					limit = {
						check_variable = {
							which = estate_castonath_patricians_increase_autonomy_in_province_x_var
							value = 5
						}
					}
					event_target:agenda_province = {
						NOT = { local_autonomy = 50 }
					}
				}
				else_if = {
					limit = {
						check_variable = {
							which = estate_castonath_patricians_increase_autonomy_in_province_x_var
							value = 4
						}
					}
					event_target:agenda_province = {
						NOT = { local_autonomy = 35 }
					}
				}
				else_if = {
					limit = {
						check_variable = {
							which = estate_castonath_patricians_increase_autonomy_in_province_x_var
							value = 3
						}
					}
					event_target:agenda_province = {
						NOT = { local_autonomy = 20 }
					}
				}
				else_if = {
					limit = {
						check_variable = {
							which = estate_castonath_patricians_increase_autonomy_in_province_x_var
							value = 2
						}
					}
					event_target:agenda_province = {
						NOT = { local_autonomy = 5 }
					}
				}
				else = {
					hidden_trigger = {
						always = no
					}
				}
			}
		}	
	}
	task_requirements = {
		if = {
			limit = {
				check_variable = {
					which = estate_castonath_patricians_increase_autonomy_in_province_x_var
					value = 5
				}
			}
			event_target:agenda_province = {
				local_autonomy = 75
			}
		}
		else_if = {
			limit = {
				check_variable = {
					which = estate_castonath_patricians_increase_autonomy_in_province_x_var
					value = 4
				}
			}
			event_target:agenda_province = {
				local_autonomy = 60
			}
		}
		else_if = {
			limit = {
				check_variable = {
					which = estate_castonath_patricians_increase_autonomy_in_province_x_var
					value = 3
				}
			}
			event_target:agenda_province = {
				local_autonomy = 45
			}
		}
		else_if = {
			limit = {
				check_variable = {
					which = estate_castonath_patricians_increase_autonomy_in_province_x_var
					value = 2
				}
			}
			event_target:agenda_province = {
				local_autonomy = 30
			}
		}
		else = {
			event_target:agenda_province = {
				local_autonomy = 15
			}
		}
	}
    task_completed_effect = {
		add_estate_loyalty = {
			estate = estate_castonath_patricians
			loyalty = 10
		}
		event_target:agenda_province = {
			apply_random_development_bonus_bonus_effect = yes
		}
    }
    failing_effect = {
		event_target:agenda_province = {
			clear_random_development_bonus_flags_effect = yes
		}
        add_estate_loyalty_modifier = {
            estate = estate_castonath_patricians
			desc = EST_VAL_AGENDA_DENIED
			loyalty = -5
			duration = 7300
        }
    }
}

# Fort in Castonath
estate_castonath_patricians_build_fort_building_in_castonath = {
	can_select = {
		any_owned_province = {
			OR = {
				AND = {
					NOT = { has_building = fort_15th }
					NOT = { has_building = fort_16th }
					NOT = { has_building = fort_17th }
					NOT = { has_building = fort_18th }
					num_free_building_slots = 1
					OR = {
						province_id = 831
						province_id = 832
						province_id = 833
					}
				}
				AND = {
					has_building = fort_15th
					OR = {
						province_id = 831
						province_id = 832
						province_id = 833
					}
					ROOT = { mil_tech = 14 }
				}
				AND = {
					has_building = fort_16th
					OR = {
						province_id = 831
						province_id = 832
						province_id = 833
					}
					ROOT = { mil_tech = 19 }
				}
				AND = {
					has_building = fort_17th
					OR = {
						province_id = 831
						province_id = 832
						province_id = 833
					}
					ROOT = { mil_tech = 24 }
				}
			}
			NOT = { has_building = fort_18th }
		}
	}
	selection_weight = {
		factor = 1.5
	}
	pre_effect = {
		set_variable = {
			which = estate_castonath_patricians_build_fort_building_in_castonath_var
			value = 0
		}
		random_owned_province = {
			limit = {
				OR = {
					AND = {
						NOT = { has_building = fort_15th }
						NOT = { has_building = fort_16th }
						NOT = { has_building = fort_17th }
						NOT = { has_building = fort_18th }
						num_free_building_slots = 1
						OR = {
							province_id = 831
							province_id = 832
							province_id = 833
						}
					}
					AND = {
						OR = {
							province_id = 831
							province_id = 832
							province_id = 833
						}
						has_building = fort_15th
						ROOT = { mil_tech = 14 }
					}
					AND = {
						OR = {
							province_id = 831
							province_id = 832
							province_id = 833
						}
						has_building = fort_16th
						ROOT = { mil_tech = 19 }
					}
					AND = {
						OR = {
							province_id = 831
							province_id = 832
							province_id = 833
						}
						has_building = fort_17th
						ROOT = { mil_tech = 24 }
					}
				}
				NOT = { has_building = fort_18th }
			}
			save_event_target_as = agenda_province
		}
		
		event_target:agenda_province = {
			if = {
				limit = {
					has_building = fort_17th
				}
				ROOT = {
					set_variable = {
						which = estate_castonath_patricians_build_fort_building_in_castonath_var
						value = 4
					}
				}
			}
			else_if = {
				limit = {
					has_building = fort_16th
				}
				ROOT = {
					set_variable = {
						which = estate_castonath_patricians_build_fort_building_in_castonath_var
						value = 3
					}
				}
			}
			else_if = {
				limit = {
					has_building = fort_15th
				}
				ROOT = {
					set_variable = {
						which = estate_castonath_patricians_build_fort_building_in_castonath_var
						value = 2
					}
				}
			}
			else = {
				ROOT = {
					set_variable = {
						which = estate_castonath_patricians_build_fort_building_in_castonath_var
						value = 1
					}
				}
			}
		}
	}
	provinces_to_highlight = {
		province_id = event_target:agenda_province
	}
	fail_if = {
		event_target:agenda_province = {
			NOT = { owned_by = root }
		}
	}
    task_requirements = {
		if = {
			limit = {
				check_variable = {
					which = estate_castonath_patricians_build_fort_building_in_castonath_var
					value = 4
				}
			}
			event_target:agenda_province = {
				has_building = fort_18th
			}
		}
		else_if = {
			limit = {
				check_variable = {
					which = estate_castonath_patricians_build_fort_building_in_castonath_var
					value = 3
				}
			}
			event_target:agenda_province = {
				OR = {
					has_building = fort_17th
					has_building = fort_18th
				}
			}
		}
		else_if = {
			limit = {
				check_variable = {
					which = estate_castonath_patricians_build_fort_building_in_castonath_var
					value = 2
				}
			}
			event_target:agenda_province = {
				OR = {
					has_building = fort_16th
					has_building = fort_17th
					has_building = fort_18th
				}
			}
		}
		else = {
			event_target:agenda_province = {
				OR = {
					has_building = fort_15th
					has_building = fort_16th
					has_building = fort_17th
					has_building = fort_18th
				}
			}
		}
    }
    task_completed_effect = {
		add_estate_loyalty = {
			estate = estate_castonath_patricians
			loyalty = 10
		}
		event_target:agenda_province = {
			add_base_manpower = 1
		}
    }
    failing_effect = {
		event_target:agenda_province = {
			if = {
				limit = { owned_by = root }
				add_named_unrest = {
					name = local_patricians_displeased
					value = 5
				}
			}
		}
        add_estate_loyalty_modifier = {
            estate = estate_castonath_patricians
			desc = EST_VAL_AGENDA_DENIED
			loyalty = -5
			duration = 7300
        }
    }
}

# Tax building in Castonath
estate_castonath_patricians_build_temple_in_castonath = {
	can_select = {
		adm_tech = 4
		any_owned_province = {
			OR = {
				province_id = 831
				province_id = 832
				province_id = 833
			}
			is_state_core = root
			NOT = { has_building = cathedral }
			OR = {
				AND = {
					NOT = { has_building = temple }
					num_free_building_slots = 1
				}
				AND = {
					ROOT = { adm_tech = 19 }
					has_building = temple
				}
			}
		}
	}
	selection_weight = {
		factor = 1
		modifier = {
			factor = 0.65
			NOT = {
				any_owned_province = {
					OR = {
						province_id = 831
						province_id = 832
						province_id = 833
					}
					is_state_core = root
					base_tax = 4
					NOT = { has_building = cathedral }
					OR = {
						AND = {
							NOT = { has_building = temple }
							num_free_building_slots = 1
						}
						AND = {
							ROOT = { adm_tech = 19 }
							has_building = temple
						}
					}
				}
			}
		}
		modifier = {
			factor = 1.2
			any_owned_province = {
				OR = {
					province_id = 831
					province_id = 832
					province_id = 833
				}
				is_state_core = root
				base_tax = 7
				NOT = { has_building = cathedral }
				OR = {
					AND = {
						NOT = { has_building = temple }
						num_free_building_slots = 1
					}
					AND = {
						ROOT = { adm_tech = 19 }
						has_building = temple
					}
				}
			}
		}
		modifier = {
			factor = 2
			NOT = {
				crown_land_share = 15
			}
		}
	}
	pre_effect = {
		set_variable = {
			which = estate_castonath_patricians_build_temple_in_castonath_var
			value = 0
		}
		random_owned_province = {
			limit = {
				OR = {
					province_id = 831
					province_id = 832
					province_id = 833
				}
				is_state_core = root
				NOT = { has_building = cathedral }
				OR = {
					AND = {
						NOT = { has_building = temple }
						num_free_building_slots = 1
					}
					AND = {
						ROOT = { adm_tech = 19 }
						has_building = temple
					}
				}
			}
			save_event_target_as = agenda_province
		}
		random_owned_province = {
			limit = {
				OR = {
					province_id = 831
					province_id = 832
					province_id = 833
				}
				is_state_core = root
				base_tax = 4
				NOT = { has_building = cathedral }
				OR = {
					AND = {
						NOT = { has_building = temple }
						num_free_building_slots = 1
					}
					AND = {
						ROOT = { adm_tech = 19 }
						has_building = temple
					}
				}
			}
			save_event_target_as = agenda_province
		}
		random_owned_province = {
			limit = {
				OR = {
					province_id = 831
					province_id = 832
					province_id = 833
				}
				is_state_core = root
				base_tax = 7
				NOT = { has_building = cathedral }
				OR = {
					AND = {
						NOT = { has_building = temple }
						num_free_building_slots = 1
					}
					AND = {
						ROOT = { adm_tech = 19 }
						has_building = temple
					}
				}
			}
			save_event_target_as = agenda_province
		}
		event_target:agenda_province = {
			if = {
				limit = {
					NOT = { has_building = temple }
				}
				ROOT = {
					set_variable = {
						which = estate_castonath_patricians_build_temple_in_castonath_var
						value = 1
					}
				}
			}
			else = {
				ROOT = {
					set_variable = {
						which = estate_castonath_patricians_build_temple_in_castonath_var
						value = 2
					}
				}
			}
		}
	}
	provinces_to_highlight = {
		province_id = event_target:agenda_province
	}
	fail_if = {
		event_target:agenda_province = {
			NOT = { owned_by = root }
		}
	}
    task_requirements = {
		if = {
			limit = {
				check_variable = {
					which = estate_castonath_patricians_build_temple_in_castonath_var
					value = 2
				}
			}
			event_target:agenda_province = {
				has_building = cathedral
			}
		}
		else = {
			event_target:agenda_province = {
				OR = {
					has_building = temple
					has_building = cathedral
				}
			}
		}
    }
    task_completed_effect = {
		add_estate_loyalty = {
			estate = estate_castonath_patricians
			loyalty = 10
		}
		if = {
			limit = {
				NOT = { crown_land_share = 15 }
				estate_territory = {
					estate = estate_castonath_patricians
					territory = 10
				}
			}
			take_estate_land_share_small = { estate = estate_castonath_patricians }
		}
		else = {
			event_target:agenda_province = {
				add_base_tax = 1
			}
		}
    }
    failing_effect = {
		event_target:agenda_province = {
			if = {
				limit = { owned_by = root }
				add_named_unrest = {
					name = local_patricians_displeased
					value = 5
				}
			}
		}
		add_estate_loyalty_modifier = {
			estate = estate_castonath_patricians
			desc = EST_VAL_AGENDA_DENIED
			loyalty = -5
			duration = 7300
		}
    }
}

# Patrician familial relations
estate_castonath_patricians_familial_connections = {
	can_select = {
		NOT = { has_country_modifier = castonath_patricians_familial_connections_affirmed }
		any_known_country = {
			OR = {
				culture_group = divenori
				culture_group = businori
				culture_group = bulwari
			}
			capital_scope = {
				OR = {
					superregion = bulwar_superregion
					region = north_salahad_region
					region = akan_region
					region = businor_region
				}
			}
			has_opinion	= { who = ROOT value = -50}
			NOT = { has_opinion = { who = ROOT value = 50 } }
		}
	}
	selection_weight = {
		factor = 1
	}
	pre_effect = {
		random_known_country = {
			limit = {
				OR = {
					culture_group = divenori
					culture_group = businori
					culture_group = bulwari
				}
				capital_scope = {
					OR = {
						superregion = bulwar_superregion
						region = north_salahad_region
						region = akan_region
						region = businor_region
					}
				}
				has_opinion	= { who = ROOT value = -50}
				NOT = { has_opinion = { who = ROOT value = 50 } }
			}
			save_event_target_as = patrician_familial_connection_country
		}
	}
	task_requirements = {
		event_target:patrician_familial_connection_country = {
			has_opinion = { who = ROOT value = 100 }
		}
	}
	task_completed_effect = {
		add_estate_loyalty = {
			estate = estate_castonath_patricians
			loyalty = 5
		}
		add_country_modifier = {
			name = castonath_patricians_familial_connections_affirmed
			duration = 3650
		}
		add_dip_power = 33
	}
    failing_effect = {
        add_estate_loyalty_modifier = {
            estate = estate_castonath_patricians
			desc = EST_VAL_AGENDA_DENIED
			loyalty = -5
			duration = 7300
        }
    }
}

# War with Fey
estate_castonath_patricians_war_with_fey = {
	can_select = {
		is_free_or_tributary_trigger = yes
		is_at_war = no
		any_neighbor_country = {
			religion_group = fey_religion
			is_free_or_tributary_trigger = yes
			NOT = { is_subject_of = root }
			NOT = { overlord_of = root }
			NOT = { alliance_with = root }
			NOT = { ROOT = { truce_with = prev } }
			NOT = { 
				has_opinion = {
					who = root
					value = 25
				}
			}
			ROOT = {
				knows_country = prev
			}
			OR = {
				is_part_of_hre = no
				NOT = { hre_reform_passed = landfriede }
				ROOT = { is_part_of_hre = no }
			}
		}
	}
	selection_weight = {
		factor = 1
		modifier = {
			factor = 0.5
			has_non_generic_missions = yes
		}
		modifier = {
			factor = 1.5
			num_of_cities = 20
		}
		modifier = {
			factor = 1.5
			num_of_cities = 25
		}
		modifier = {
			factor = 1.5
			num_of_cities = 30
		}
		modifier = {
			factor = 1.5
			num_of_cities = 40
		}
		modifier = {
			factor = 1.5
			num_of_cities = 50
		}
		modifier = {
			factor = 0.25
			any_country = {
				coalition_target = root
			}
		}
	}
	pre_effect = {
		random_neighbor_country = {
			limit = {
				religion_group = fey_religion
				is_free_or_tributary_trigger = yes
				NOT = { is_subject_of = root }
				NOT = { overlord_of = root }
				NOT = { alliance_with = root }
				NOT = { ROOT = { truce_with = prev } }
				NOT = { 
					has_opinion = {
						who = root
						value = 25
					}
				}
				ROOT = {
					knows_country = prev
				}
				OR = {
					is_part_of_hre = no
					NOT = { hre_reform_passed = landfriede }
					ROOT = { is_part_of_hre = no }
				}
			}
			save_event_target_as = agenda_country
		}
	}
	provinces_to_highlight = {
		is_capital_of = event_target:agenda_country
	}
	task_requirements = {
		event_target:agenda_country = {
			war_with = ROOT
		}
	}
	fail_if = {
		event_target:agenda_country = {
			NOT = { num_of_cities = 1 }
		}
	}
	task_completed_effect = {
		add_estate_loyalty = {
			estate = estate_castonath_patricians
			loyalty = 10
		}
	}
    failing_effect = {
        add_estate_loyalty_modifier = {
            estate = estate_castonath_patricians
			desc = EST_VAL_AGENDA_DENIED
			loyalty = -5
			duration = 7300
		}
    }
}

# War with gnolls
estate_castonath_patricians_war_with_gnolls = {
	can_select = {
		is_free_or_tributary_trigger = yes
		is_at_war = no
		any_neighbor_country = {
			religion_group = gnollish
			is_free_or_tributary_trigger = yes
			NOT = { is_subject_of = root }
			NOT = { overlord_of = root }
			NOT = { alliance_with = root }
			NOT = { ROOT = { truce_with = prev } }
			NOT = { 
				has_opinion = {
					who = root
					value = 25
				}
			}
			ROOT = {
				knows_country = prev
			}
			OR = {
				is_part_of_hre = no
				NOT = { hre_reform_passed = landfriede }
				ROOT = { is_part_of_hre = no }
			}
		}
	}
	selection_weight = {
		factor = 1
		modifier = {
			factor = 0.5
			has_non_generic_missions = yes
		}
		modifier = {
			factor = 1.5
			num_of_cities = 20
		}
		modifier = {
			factor = 1.5
			num_of_cities = 25
		}
		modifier = {
			factor = 1.5
			num_of_cities = 30
		}
		modifier = {
			factor = 1.5
			num_of_cities = 40
		}
		modifier = {
			factor = 1.5
			num_of_cities = 50
		}
		modifier = {
			factor = 0.25
			any_country = {
				coalition_target = root
			}
		}
	}
	pre_effect = {
		random_neighbor_country = {
			limit = {
				religion_group = gnollish
				is_free_or_tributary_trigger = yes
				NOT = { is_subject_of = root }
				NOT = { overlord_of = root }
				NOT = { alliance_with = root }
				NOT = { ROOT = { truce_with = prev } }
				NOT = { 
					has_opinion = {
						who = root
						value = 25
					}
				}
				ROOT = {
					knows_country = prev
				}
				OR = {
					is_part_of_hre = no
					NOT = { hre_reform_passed = landfriede }
					ROOT = { is_part_of_hre = no }
				}
			}
			save_event_target_as = agenda_country
		}
	}
	provinces_to_highlight = {
		is_capital_of = event_target:agenda_country
	}
	task_requirements = {
		event_target:agenda_country = {
			war_with = ROOT
		}
	}
	fail_if = {
		event_target:agenda_country = {
			NOT = { num_of_cities = 1 }
		}
	}
	task_completed_effect = {
		add_estate_loyalty = {
			estate = estate_castonath_patricians
			loyalty = 10
		}
	}
    failing_effect = {
        add_estate_loyalty_modifier = {
            estate = estate_castonath_patricians
			desc = EST_VAL_AGENDA_DENIED
			loyalty = -5
			duration = 7300
		}
    }
}

# Make Castonath the capital
estate_castonath_patricians_capital_castonath = {
	can_select = {
		NOT = { capital = 831 }
		NOT = { capital = 840 }
		NOT = { capital = 832 }
		NOT = { capital = 833 }
	}
	provinces_to_highlight = {
		province_id = 831
		province_id = 832
		province_id = 833
		province_id = 840
	}	
	selection_weight = {
		factor = 1
	}
	task_requirements = {
		OR = {
			capital = 840
			capital = 831
			capital = 832
			capital = 833
		}
	} 
	task_completed_effect = {
		add_estate_loyalty = {
			estate = estate_castonath_patricians
			loyalty = 10
		}
		add_stability_or_adm_power = yes
		add_prestige = 10

	}
	failing_effect = {
		add_estate_loyalty_modifier = {
			estate = estate_castonath_patricians
			desc = EST_VAL_AGENDA_DENIED
			loyalty = -5
			duration = 7300
		}
	}
	fail_if = {
		840 = {
			NOT = { owned_by = root }
		}
		831 = {
			NOT = { owned_by = root }
		}
		832 = {
			NOT = { owned_by = root }
		}
		833 = {
			NOT = { owned_by = root }
		}
	} 	
}

# Develop Castonath
estate_castonath_patricians_invest_in_patrician_industries = {
	selection_weight = {
		factor = 10
	}
	can_select = {
		OR = {
			831 = {
				OR = {
					trade_goods = fur
					trade_goods = copper
					trade_goods = naval_supplies
					trade_goods = wine
					trade_goods = iron
				}
				NOT = { development = 30 }
				owned_by = ROOT
				is_core = ROOT
			}
			832 = {
				OR = {
					trade_goods = fur
					trade_goods = copper
					trade_goods = naval_supplies
					trade_goods = wine
					trade_goods = iron
				}
				NOT = { development = 30 }
				owned_by = ROOT
				is_core = ROOT
			}
			833 = {
				OR = {
					trade_goods = fur
					trade_goods = copper
					trade_goods = naval_supplies
					trade_goods = wine
					trade_goods = iron
				}
				NOT = { development = 30 }
				owned_by = ROOT
				is_core = ROOT
			}
		}
	}
	pre_effect = {
		random_list = {
			1 = {
				trigger = {
					831 = {
						OR = {
							trade_goods = fur
							trade_goods = copper
							trade_goods = naval_supplies
							trade_goods = wine
							trade_goods = iron
						}
						NOT = { development = 30 }
					}
				}
				831 = {
					save_event_target_as = agenda_province
				}
			}
			1 = {
				trigger = {
					832 = {
						OR = {
							trade_goods = fur
							trade_goods = copper
							trade_goods = naval_supplies
							trade_goods = wine
							trade_goods = iron
						}
						NOT = { development = 30 }
					}
				}
				832 = {
					save_event_target_as = agenda_province
				}
			}
			1 = {
				trigger = {
					833 = {
						OR = {
							trade_goods = fur
							trade_goods = copper
							trade_goods = naval_supplies
							trade_goods = wine
							trade_goods = iron
						}
						NOT = { development = 30 }
					}
				}
				833 = {
					save_event_target_as = agenda_province
				}
			}
		}
	}
	provinces_to_highlight = {
		province_id = event_target:agenda_province
	}
	fail_if = {
		event_target:agenda_province = {
			NOT = { owned_by = root }
		}
	}
    task_requirements = {
		event_target:agenda_province = { development = 30 }
		treasury = 500
    }
    task_completed_effect = {
		add_estate_loyalty = {
			estate = estate_castonath_patricians
			loyalty = 10
		}
		add_treasury = -500
		event_target:agenda_province = {
			random_list = {
				3 = { change_trade_goods = cloth }
				3 = { change_trade_goods = paper }
				3 = { change_trade_goods = glass }
				1 = { change_trade_goods = silk }
			}
		}
    }
    failing_effect = {
		event_target:agenda_province = {
			if = {
				limit = { owned_by = root }
				add_named_unrest = {
					name = local_patricians_displeased
					value = 5
				}
			}
		}
        add_estate_loyalty_modifier = {
            estate = estate_castonath_patricians
			desc = EST_VAL_AGENDA_DENIED
			loyalty = -5
			duration = 7300
        }
    }
}
