
I05_North = {
	slot = 1
	generic = no
	ai = yes
	potential = {
		tag = I05 #Mithradhum
	}
	has_country_shield = yes
	
	I05_mithril_home = {
		icon = mission_pray_light
		required_missions = { }
		position = 1
		
		provinces_to_highlight = {
			has_discovered = ROOT
			province_id = 4236
			OR = {
				NOT = { culture = mithril_dwarf }
				NOT = { religion = ROOT }
			}
		}
		
		trigger = {
			4236 = {
				culture = mithril_dwarf
				religion = ROOT
			}
			adm_power = 25
			dip_power = 25
			mil_power = 25
			treasury = 25
		}
		
		effect = {
			if = {
				limit = {
					4236 = { has_orcish_minority_trigger = yes }
				}
				4236 = { remove_orcish_minority_size_effect = yes }
				if = {
					limit = {
						4236 = { has_orcish_minority_trigger = yes }
					}
					4236 = { remove_orcish_minority_size_effect = yes }
				}
			}
			else = {
				add_corruption = -0.1
			}
			if = {
				limit = {
					4236 = { has_goblin_minority_trigger = yes }
				}
				4236 = { remove_goblin_minority_size_effect = yes }
				if = {
					limit = {
						4236 = { has_goblin_minority_trigger = yes }
					}
					4236 = { remove_goblin_minority_size_effect = yes }
				}
			}
			else = {
				add_corruption = -0.1
			}
			add_adm_power = -25
			add_dip_power = -25
			add_mil_power = -25
			add_treasury = -25
		}
	}
	
	I05_up_tracks = {
		icon = law_of_the_pious
		required_missions = { I05_mithril_home I05_follow_rails }
		position = 3
		
		provinces_to_highlight = {
			has_discovered = ROOT
			OR = {
				area = dwarovrod_4_6_area
				area = dwarovrod_7_9_area
			}
			OR = {
				NOT = { owned_by = ROOT }
				NOT = { is_core = ROOT }
			}
		}
		
		trigger = {
			dwarovrod_4_6_area = {
				type = all
				owned_by = ROOT
				is_core = ROOT
			}
			dwarovrod_7_9_area = {
				type = all
				owned_by = ROOT
				is_core = ROOT
			}
		}
		
		effect = {
			orldhum_area = {
				limit = {
					NOT = { is_core = ROOT }
					NOT = { is_permanent_claim = ROOT }
				}
				add_permanent_claim = ROOT
			}
		}
	}
	
	I05_platinum_rival = {
		icon = mission_rb_unite_the_clans
		required_missions = { I05_up_tracks }
		position = 4
		
		provinces_to_highlight = {
			has_discovered = ROOT
			OR = {
				AND = {
					area = orldhum_area
					OR = {
						NOT = { owned_by = ROOT }
						NOT = { is_core = ROOT }
					}
				}
				AND = {
					province_id = 2868
					OR = {
						has_province_modifier = ruined_hold
						has_province_modifier = infested_hold
						NOT = { culture_group = dwarven }
					}
				}
			}
		}
		
		trigger = {
			orldhum_area = {
				type = all
				owned_by = ROOT
				is_core = ROOT
			}
			2868 = {
				NOT = { has_province_modifier = ruined_hold }
				NOT = { has_province_modifier = infested_hold }
				culture_group = dwarven
			}
			if = {
				limit = { has_estate = estate_nobles }
				estate_loyalty = { estate = estate_nobles loyalty = 40 }
			}
		}
		
		effect = {
			2868 = {
				add_province_modifier = {
					name = mithradhum_aid
					duration = 9125
				}
				add_base_tax = 1
				add_base_production = 1
				add_base_manpower = 1
			}
			snotslair_area = {
				limit = {
					NOT = { is_core = ROOT }
					NOT = { is_permanent_claim = ROOT }
				}
				add_permanent_claim = ROOT
			}
			north_breach_area = {
				limit = {
					NOT = { is_core = ROOT }
					NOT = { is_permanent_claim = ROOT }
				}
				add_permanent_claim = ROOT
			}
			east_breach_area = {
				limit = {
					NOT = { is_core = ROOT }
					NOT = { is_permanent_claim = ROOT }
				}
				add_permanent_claim = ROOT
			}
		}
	}
	
	I05_impure_caverns = {
		icon = alpine_fortifications
		required_missions = { I05_platinum_rival }
		position = 5
		
		provinces_to_highlight = {
			has_discovered = ROOT
			OR = {
				area = snotslair_area
				area = north_breach_area
				area = east_breach_area
			}
			OR = {
				NOT = { owned_by = ROOT }
				NOT = { is_core = ROOT }
			}
		}
		
		trigger = {
			snotslair_area = {
				type = all
				owned_by = ROOT
				is_core = ROOT
			}
			north_breach_area = {
				type = all
				owned_by = ROOT
				is_core = ROOT
			}
			east_breach_area = {
				type = all
				owned_by = ROOT
				is_core = ROOT
			}
		}
		
		effect = {
			add_adm_power = 100
			add_country_modifier = {
				name = mithradhum_cave_fighting
				duration = 7300
			}
		}
	}
	
	I05_begin_purification = {
		icon = mission_priest_church
		required_missions = { I05_impure_caverns I05_kings_vale }
		position = 7
		
		trigger = {
			has_country_modifier = racial_pop_goblin_purge
			has_country_modifier = racial_pop_orcish_purge
			OR = {
				estate_loyalty = { estate = estate_church loyalty = 60 }
				estate_influence = { estate = estate_church influence = 60 }
			}
		}
		
		effect = {
			if = {
				limit = { mission_completed = I05_intervene_directly }
				country_event = { id = flavor_mithradhum.101 }
			}
			else = {
				add_country_modifier = {
					name = mithradhum_true
					duration = 7300
				}
				custom_tooltip = mithradhum_mission_1
			}
		}
	}
	
	I05_protect_agates = {
		icon = mission_rb_conquer_the_highlands
		required_missions = { I05_begin_purification I05_worthy_warriors }
		position = 9
		
		provinces_to_highlight = {
			has_discovered = ROOT
			OR = {
				AND = {
					OR = {
						area = khugdihr_area
						area = dwarovrod_1_3_area
					}
					OR = {
						NOT = { owned_by = ROOT }
						NOT = { is_core = ROOT }
					}
				}
				AND = {
					province_id = 2863
					OR = {
						has_province_modifier = ruined_hold
						has_province_modifier = infested_hold
						NOT = { culture_group = dwarven }
					}
				}
			}
		}
		
		trigger = {
			2863 = {
				NOT = { has_province_modifier = ruined_hold }
				NOT = { has_province_modifier = infested_hold }
				culture_group = dwarven
			}
			khugdihr_area = {
				type = all
				owned_by = ROOT
				is_core = ROOT
			}
			dwarovrod_1_3_area = {
				type = all
				owned_by = ROOT
				is_core = ROOT
			}
		}
		
		effect = {
			2863 = {
				add_province_modifier = {
					name = mithradhum_aid
					duration = 9125
				}
				add_base_tax = 1
				add_base_production = 1
				add_base_manpower = 1
			}
		}
	}
	
	I05_plug_holes = {
		icon = alpine_defenses
		required_missions = { I05_protect_agates }
		position = 10
		
		provinces_to_highlight = {
			has_discovered = ROOT
			OR = {
				province_id = 2863
				province_id = 2897
				province_id = 4026
				province_id = 4021
			}
		}
		
		trigger = {
			2863 = { province_has_current_tech_fort_trigger = yes }
			2897 = { province_has_current_tech_fort_trigger = yes }
			4026 = { province_has_current_tech_fort_trigger = yes }
			4021 = { province_has_current_tech_fort_trigger = yes }
		}
		
		effect = {
			add_stability_or_adm_power = yes
			add_country_modifier = {
				name = mithradhum_safety
				duration = 10950
			}
		}
	}
	
	I05_purify_dwarovar = {
		icon = mission_fire_judgement
		required_missions = { I05_plug_holes }
		position = 11
		
		provinces_to_highlight = {
			has_discovered = ROOT
			owned_by = ROOT
			region = west_dwarovar_region
			OR = {
				has_orcish_majority_trigger = yes
				has_orcish_minority_trigger = yes
				has_goblin_majority_trigger = yes
				has_goblin_minority_trigger = yes
			}
		}
		
		trigger = {
			num_of_owned_provinces_with = {
				value = 50
				region = west_dwarovar_region
			}
			custom_trigger_tooltip = {
				tooltip = mithradhum_purged
				all_owned_province = {  
					OR = {
						NOT = { region = west_dwarovar_region }
						NOT = {
							has_orcish_majority_trigger = yes
							has_orcish_minority_trigger = yes
							has_goblin_majority_trigger = yes
							has_goblin_minority_trigger = yes
						}
					}
				}
			}
		}
		
		effect = {
			increase_legitimacy_large_effect = yes
			custom_tooltip = mithradhum_lose_devestation
			hidden_effect = {
				every_owned_province = {
					limit = { region = west_dwarovar_region }
					add_devastation = -30
				}
			}
			custom_tooltip = mithradhum_purge
			set_country_flag = mithradhum_purging
		}
	}
	
	I05_loyalty_prosperity = {
		icon = defender_of_the_faith
		required_missions = { I05_purify_dwarovar }
		position = 13
		
		provinces_to_highlight = {
			has_discovered = ROOT
			OR = {
				province_id = 2868
				province_id = 2863
			}
			OR = {
				if = {
					limit = { has_dlc = "Mandate of Heaven" }
					NOT = { is_prosperous = yes }
				}
				else = {
					devastation = 1
				}
				NOT = { has_dwarven_hold_4 = yes }
				NOT = { is_state = yes }
			}
		}
		
		trigger = {
			if = {
				limit = { has_dlc = "Mandate of Heaven" }
				2868 = { 
					is_state = yes 
					is_prosperous = yes
					has_dwarven_hold_4 = yes
				}
				2863 = { 
					is_state = yes 
					is_prosperous = yes
					has_dwarven_hold_4 = yes
				}
			}
			else = {
				NOT = { 
					2868 = { 
						is_state = yes 
						devastation = 1 
						has_dwarven_hold_4 = yes
					} 
				}
				NOT = { 
					2863 = { 
						is_state = yes 
						devastation = 1 
						has_dwarven_hold_4 = yes
					} 
				}
			}
		}
		
		effect = {
			2868 = {
				add_province_modifier = {
					name = mithradhum_loyal
					duration = -1
				}
			}
			2863 = {
				add_province_modifier = {
					name = mithradhum_loyal
					duration = -1
				}
			}
		}
	}
}

I05_Amldhir = {
	slot = 2
	generic = no
	ai = yes
	potential = {
		tag = I05 #Mithradhum
	}
	has_country_shield = yes
	
	I05_follow_rails = {
		icon = mission_conquer_kanem_bornu
		required_missions = { I05_restore_hold }
		position = 2
		
		provinces_to_highlight = {
			has_discovered = ROOT
			area = dwarovrod_10_12_area
			OR = {
				NOT = { owned_by = ROOT }
				NOT = { is_core = ROOT }
			}
		}
		
		trigger = {
			dwarovrod_10_12_area = {
				type = all
				owned_by = ROOT
				is_core = ROOT
			}
		}
		
		effect = {
			define_conquistador = {
				name = "Snorri Orcslayer"
				fire = 2
				shock = 3
				manuever = 5
				siege = 1
			}
			dwarovrod_4_6_area = {
				limit = {
					NOT = { is_core = ROOT }
					NOT = { is_permanent_claim = ROOT }
				}
				add_permanent_claim = ROOT
			}
			dwarovrod_7_9_area = {
				limit = {
					NOT = { is_core = ROOT }
					NOT = { is_permanent_claim = ROOT }
				}
				add_permanent_claim = ROOT
			}
			railyard_area = {
				limit = {
					NOT = { is_core = ROOT }
					NOT = { is_permanent_claim = ROOT }
				}
				add_permanent_claim = ROOT
			}
		}
	}
	
	I05_amlvaz_tunad = {
		icon = state_of_the_presidi
		required_missions = { I05_follow_rails }
		position = 3
		
		provinces_to_highlight = {
			has_discovered = ROOT
			province_id = 2933
			OR = {
				NOT = { owned_by = ROOT }
				NOT = { is_core = ROOT }
			}
		}
		
		trigger = {
			2933 = {
				owned_by = ROOT
				is_core = ROOT
			}
		}
		
		effect = {
			amldihr_area = {
				discover_country = ROOT
			}
			amldihr_area = {
				limit = {
					NOT = { is_core = ROOT }
					NOT = { is_permanent_claim = ROOT }
				}
				add_claim = ROOT
			}
			add_country_modifier = {
				name = mithradhum_serving_vow
				duration = 5475
			}
		}
	}
	
	I05_mountain_king = {
		icon = kingdom_of_lombardy
		required_missions = { I05_amlvaz_tunad }
		position = 4
		
		provinces_to_highlight = {
			has_discovered = ROOT
			area = amldihr_area
			NOT = { owned_by = ROOT }
		}
		
		trigger = {
			amldihr_area = {
				type = all
				is_capital = no
				owned_by = ROOT
			}
		}
		
		effect = {
			add_estate_loyalty = { estate = estate_church loyalty = 10 }
			country_event = { id = flavor_mithradhum.100 }
		}
	}
	
	I05_crown_mithril = {
		icon = mission_empire
		required_missions = { I05_mountain_king }
		position = 5
		
		provinces_to_highlight = {
			has_discovered = ROOT
			area = amldihr_area
			OR = {
				has_province_modifier = ruined_hold
				has_province_modifier = infested_hold
				NOT = { culture_group = dwarven }
			}
		}
		
		trigger = {
			if = {
				limit = { I01 = { is_subject_of = ROOT } }
				reverse_has_opinion = { who = I01 value = 200 }
			}
			else = {
				amldihr_area = {
					type = all
					NOT = { has_province_modifier = ruined_hold }
					NOT = { has_province_modifier = infested_hold }
					culture_group = dwarven
				}
			}
		}
		
		effect = {
			add_estate_loyalty = { estate = estate_church loyalty = 10 }
			if = {
				limit = {
					4119 = { has_orcish_minority_trigger = yes }
				}
				4119 = { remove_orcish_minority_size_effect = yes }
				if = {
					limit = {
						4119 = { has_orcish_minority_trigger = yes }
					}
					4119 = { remove_orcish_minority_size_effect = yes }
				}
			}
			if = {
				limit = {
					4122 = { has_orcish_minority_trigger = yes }
				}
				4122 = { remove_orcish_minority_size_effect = yes }
			}
			if = {
				limit = {
					4128 = { has_orcish_minority_trigger = yes }
				}
				4128 = { remove_orcish_minority_size_effect = yes }
			}
			if = {
				limit = {
					4149 = { has_orcish_minority_trigger = yes }
				}
				4149 = { remove_orcish_minority_size_effect = yes }
			}
			if = {
				limit = { I01 = { is_subject_of = ROOT } }
				serpents_vale_region = {
					limit = {
						NOT = { 
							is_core = I05
							is_permanent_claim = I05
							is_core = I01
							is_permanent_claim = I01 
						}
					}
					add_permanent_claim = I01
				}
			}
			else = {
				serpents_vale_region = {
					limit = {
						NOT = { is_core = ROOT }
						NOT = { is_permanent_claim = ROOT }
					}
					add_permanent_claim = ROOT
				}
			}
		}
	}
	
	I05_kings_vale = {
		icon = mission_secure_khandesh
		required_missions = { I05_impure_caverns I05_crown_mithril }
		position = 6
		
		provinces_to_highlight = {
			has_discovered = ROOT
			region = serpents_vale_region
			NOT = {
				owned_by = ROOT
				owned_by = I01
			}
		}
		
		trigger = {
			serpents_vale_region = {
				type = all
				OR = {
					owned_by = ROOT
					owned_by = I01
				}
			}
		}
		
		effect = {
			if = {
				limit = { I01 = { is_subject_of = ROOT } }
				2868 = {
					add_trade_modifier = {
						who = I01
						duration = -1
						power = -100
						key = mithradhum_vale_a
					}
				}
				4119 = {
					add_trade_modifier = {
						who = I01
						duration = -1
						power = 50
						key = mithradhum_vale_a
					}
				}
			}
			2868 = {
				add_trade_modifier = {
					who = ROOT
					duration = -1
					power = 100
					key = mithradhum_vale_m
				}
			}
		}
	}
}

I05_Purity = {
	slot = 2
	generic = no
	ai = yes
	potential = {
		tag = I05 #Mithradhum
	}
	has_country_shield = yes
		
	I05_worthy_warriors = {
		icon = mission_face_off
		required_missions = { I05_begin_purification I05_expand_company }
		position = 8
		
		trigger = {
			if = {
				limit = { has_dlc = "Cradle of Civilization" }
				army_professionalism = 0.35
			}
			else = { army_tradition = 40 }
		}
		
		effect = {
			khugdihr_area = {
				limit = {
					NOT = { is_core = I05 }
					NOT = { is_permanent_claim = I05 }
				}
				add_permanent_claim = I05
			}
			dwarovrod_1_3_area = {
				limit = {
					NOT = { is_core = I05 }
					NOT = { is_permanent_claim = I05 }
				}
				add_permanent_claim = I05
			}
			jorkad_junction_area = {
				limit = {
					NOT = { is_core = I05 }
					NOT = { is_permanent_claim = I05 }
				}
				add_permanent_claim = I05
			}
			travelers_refuge_area = {
				limit = {
					NOT = { is_core = I05 }
					NOT = { is_permanent_claim = I05 }
				}
				add_permanent_claim = I05
			}
			azmak_area = {
				limit = {
					NOT = { is_core = I05 }
					NOT = { is_permanent_claim = I05 }
				}
				add_permanent_claim = I05
			}
		}
	}
	
	I05_lead_standing = {
		icon = mission_potosi_silver
		required_missions = { I05_worthy_warriors }
		position = 9
		
		provinces_to_highlight = {
			has_discovered = ROOT
			OR = {
				AND = {
					OR = {
						area = jorkad_junction_area
						area = travelers_refuge_area
						area = azmak_area
					}
					OR = {
						NOT = { owned_by = ROOT }
						NOT = { is_core = ROOT }
					}
				}
				AND = {
					province_id = 2963
					OR = {
						has_province_modifier = ruined_hold
						has_province_modifier = infested_hold
						NOT = { culture_group = dwarven }
					}
				}
			}
		}
		
		trigger = {
			2963 = {
				NOT = { has_province_modifier = ruined_hold }
				NOT = { has_province_modifier = infested_hold }
				culture_group = dwarven
			}
			jorkad_junction_area = {
				type = all
				owned_by = ROOT
				is_core = ROOT
			}
			travelers_refuge_area = {
				type = all
				owned_by = ROOT
				is_core = ROOT
			}
			azmak_area = {
				type = all
				owned_by = ROOT
				is_core = ROOT
			}
		}
		
		effect = {
			2963 = {
				add_province_modifier = {
					name = mithradhum_aid
					duration = 9125
				}
				add_base_tax = 1
				add_base_production = 1
				add_base_manpower = 1
			}
			westnest_area = {
				limit = {
					NOT = { is_core = I05 }
					NOT = { is_permanent_claim = I05 }
				}
				add_permanent_claim = I05
			}
			eastnest_area = {
				limit = {
					NOT = { is_core = I05 }
					NOT = { is_permanent_claim = I05 }
				}
				add_permanent_claim = I05
			}
			dwarovrod_21_24_area = {
				limit = {
					NOT = { is_core = I05 }
					NOT = { is_permanent_claim = I05 }
				}
				add_permanent_claim = I05
			}
		}
	}
	
	I05_shield_dwarovar = {
		icon = prosper_in_piedmont
		required_missions = { I05_lead_standing }
		position = 10
		
		provinces_to_highlight = {
			has_discovered = ROOT
			OR = {
				has_terrain = dwarven_hold
				has_terrain = dwarven_hold_surface
			}
			NOT = { owned_by = ROOT }
			continent = serpentspine
		}
		
		trigger = {
			OR = {
				calc_true_if = {
					all_ally = { culture_group = dwarven }
					amount = 3
				}
				num_of_owned_provinces_with = {
					value = 15
					OR = {
						has_terrain = dwarven_hold
						has_terrain = dwarven_hold_surface
					}
					continent = serpentspine
				}
			}
		}
		
		
		effect = {
			add_prestige = 20
			add_country_modifier = {
				name = mithradhum_shield
				duration = 10950
			}
		}
	}
	
	I05_prove_trust = {
		icon = rein_in_the_nobles
		required_missions = { I05_shield_dwarovar }
		position = 11
		
		trigger = {
			num_of_trusted_allies = 2
			NOT = { has_country_modifier = dishonoured_alliance }
		}
		
		effect = { #Scripted Effects not working
			increase_ruler_adm_effect = yes
			increase_ruler_dip_effect = yes
			increase_ruler_mil_effect = yes
		}
	}
	
	I05_show_purity = {
		icon = chater_the_voc
		required_missions = { I05_purify_dwarovar I05_prove_trust I05_mithril_in_war }
		position = 12
		
		trigger = {
			has_legitimacy_equivalent = { VAL = 100 }
			stability = 3
			has_any_disaster = no
			NOT = { corruption = 0.01 }
			NOT = { num_of_rebel_armies = 1 }
			prestige = 50
		}
		
		effect = {
			add_country_modifier = {
				name = mithradhum_purity
				duration = 18250
			}
		}
	}
}

I05_Hold_Company = {
	slot = 3
	generic = no
	ai = yes
	potential = {
		tag = I05 #Mithradhum
	}
	has_country_shield = yes
	
	I05_restore_hold = {
		icon = develop_naples
		required_missions = { }
		position = 1
		
		provinces_to_highlight = {
			has_discovered = ROOT
			province_id = 4236
			OR = {
				has_province_modifier = ruined_hold
				has_province_modifier = infested_hold
				NOT = { has_dwarven_hold_2 = yes }
			}
		}
		
		trigger = {
			4236 = {
				NOT = { has_province_modifier = ruined_hold }
				NOT = { has_province_modifier = infested_hold }
				has_dwarven_hold_2 = yes
			}
		}
		
		effect = {
			4236 = {
				add_province_modifier = {
					name = mithradum_resurgance
					duration = 7300
				}
			}
			set_country_flag = mithradhum_mithril
			custom_tooltip = mithradhum_mithrill
			mithradhum_area = {
				limit = {
					NOT = { is_core = ROOT }
					NOT = { is_permanent_claim = ROOT }
				}
				add_permanent_claim = ROOT
			}
			dwarovrod_10_12_area = {
				limit = {
					NOT = { is_core = ROOT }
					NOT = { is_permanent_claim = ROOT }
				}
				add_permanent_claim = ROOT
			}
		}
	}
	
	I05_mithril_production = {
		icon = mission_smith
		required_missions = { I05_restore_hold }
		position = 2
		
		provinces_to_highlight = {
			province_id = 4236
			OR = {
				NOT = { base_production = 15 }
				NOT = { owned_by = ROOT }
				NOT = { has_production_building_trigger = yes }
			}
			has_discovered = ROOT
		}
		
		trigger = {
			owns_core_province = 4236
			4236 = {
				base_production = 15
				has_production_building_trigger = yes
			}
		}
		
		effect = {
			add_splendor = 100
			4236 = {
				add_province_modifier = {
					name = mithradum_revenue
					duration = -1
				}
			}
		}
	}
	
	I05_derail_skulkers = {
		icon = mission_mechanical_mining
		required_missions = { I05_follow_rails I05_breathing_space }
		position = 3
		
		provinces_to_highlight = {
			has_discovered = ROOT
			area = railyard_area
			OR = {
				NOT = { owned_by = ROOT }
				NOT = { is_core = ROOT }
			}
		}
		
		trigger = {
			railyard_area = {
				type = all
				owned_by = ROOT
				is_core = ROOT
			}
		}
		
		effect = {
			backmarr_area = {
				limit = {
					NOT = { is_core = ROOT }
					NOT = { is_permanent_claim = ROOT }
				}
				add_permanent_claim = ROOT
			}
			railyard_exchange_area = {
				limit = {
					NOT = { is_core = ROOT }
					NOT = { is_permanent_claim = ROOT }
				}
				add_permanent_claim = ROOT
			}
			skulkers_lair_area = {
				limit = {
					NOT = { is_core = ROOT }
					NOT = { is_permanent_claim = ROOT }
				}
				add_permanent_claim = ROOT
			}
			add_country_modifier = {
				name = mithradhum_railyard
				duration = 7300
			}
		}
	}
	
	I05_secure_dagrites = {
		icon = fortify_the_passes
		required_missions = { I05_derail_skulkers }
		position = 4
		
		provinces_to_highlight = {
			has_discovered = ROOT
			OR = {
				AND = {
					OR = {
						area = backmarr_area
						area = railyard_exchange_area
						area = skulkers_lair_area
					}
					OR = {
						NOT = { owned_by = ROOT }
						NOT = { is_core = ROOT }
					}
				}
				AND = {
					province_id = 4236
					OR = {
						has_province_modifier = ruined_hold
						has_province_modifier = infested_hold
						NOT = { culture_group = dwarven }
					}
				}
			}
		}
		
		trigger = {
			2931 = {
				NOT = { has_province_modifier = ruined_hold }
				NOT = { has_province_modifier = infested_hold }
				culture_group = dwarven
			}
			backmarr_area = {
				type = all
				owned_by = ROOT
				is_core = ROOT
			}
			railyard_exchange_area = {
				type = all
				owned_by = ROOT
				is_core = ROOT
			}
			skulkers_lair_area = {
				type = all
				owned_by = ROOT
				is_core = ROOT
			}
		}
		
		effect = {
			2931 = {
				add_province_modifier = {
					name = mithradhum_aid
					duration = 9125
				}
				add_base_tax = 1
				add_base_production = 1
				add_base_manpower = 1
			}
		}
	}
	
	I05_prepare_company = {
		icon = swiss_mercenaries
		required_missions = { I05_mountain_king I05_secure_dagrites I05_promote_trade }
		position = 5
		
		trigger = {
			treasury = 100
			mil_power = 50
			estate_loyalty = { estate = estate_adventurers loyalty = 40 }
			estate_influence = { estate = estate_adventurers influence = 30 }
		}
		
		effect = {
			add_treasury = -100
			add_mil_power = -50
			set_global_flag = mithradhum_company_local
			custom_tooltip = mithradhum_company_local_t
		}
	}
	
	I05_base_company = {
		icon = mission_armoury
		required_missions = { I05_prepare_company }
		position = 6
		
		provinces_to_highlight = {
			has_discovered = ROOT
			province_id = 4236
			OR = {
				NOT = { has_dwarven_hold_4 = yes }
				NOT = { has_manpower_building_trigger = yes }
				NOT = { has_forcelimit_building_trigger = yes }
			}
		}
		
		trigger = {
			4236 = {
				has_dwarven_hold_4 = yes
				has_forcelimit_building_trigger = yes
				has_manpower_building_trigger = yes
			}
		}
		
		effect = {
			change_estate_land_share = {
				estate = all
				share = -10
			}
			change_estate_land_share = {
				estate = estate_adventurers
				share = 5
			}
			4236 = { add_base_manpower = 2 }
			dwarovrod_15_17_area = {
				limit = {
					NOT = { is_core = ROOT }
					NOT = { is_permanent_claim = ROOT }
				}
				add_permanent_claim = ROOT
			}
			stunad_kozenad_area = {
				limit = {
					NOT = { is_core = ROOT }
					NOT = { is_permanent_claim = ROOT }
				}
				add_permanent_claim = ROOT
			}
			zokkorna_caverns_area = {
				limit = {
					NOT = { is_core = ROOT }
					NOT = { is_permanent_claim = ROOT }
				}
				add_permanent_claim = ROOT
			}
		}
	}
	
	I05_expand_company = {
		icon = claim_the_borderlands
		required_missions = { I05_kings_vale I05_base_company I05_cavernous_mithril }
		position = 7
		
		provinces_to_highlight = {
			has_discovered = ROOT
			OR = {
				AND = {
					OR = {
						area = dwarovrod_15_17_area
						area = stunad_kozenad_area
						area = zokkorna_caverns_area
					}
					OR = {
						NOT = { owned_by = ROOT }
						NOT = { is_core = ROOT }
					}
				}
				AND = {
					province_id = 2931
					OR = {
						NOT = { has_dwarven_hold_3 = yes }
					}
				}
			}
		}
		
		trigger = {
			2931 = {
				has_dwarven_hold_3 = yes
			}
			dwarovrod_15_17_area = {
				type = all
				owned_by = ROOT
				is_core = ROOT
			}
			stunad_kozenad_area = {
				type = all
				owned_by = ROOT
				is_core = ROOT
			}
			zokkorna_caverns_area = {
				type = all
				owned_by = ROOT
				is_core = ROOT
			}
		}
		
		effect = {
			set_global_flag = mithradhum_company_extend
			custom_tooltip = mithradhum_company_extend_t
		}
	}
	
	I05_arms_training = {
		icon = mission_machine_of_war
		required_missions = { I05_expand_company }
		position = 8
		
		provinces_to_highlight = {
			has_discovered = ROOT
			owned_by = ROOT
			NOT = { has_forcelimit_building_trigger = yes }
		}
		
		trigger = {
			num_of_owned_provinces_with = {
				value = 10
				has_forcelimit_building_trigger = yes
			}
			if = { #Mostly Redundant, just makes sure you do in fact have access to Mithril
				limit = {
					NOT = {
						num_of_owned_provinces_with = {
							value = 2
							trade_goods = mithril
						}
					}
				}
				num_of_owned_provinces_with = {
					value = 2
					trade_goods = mithril
				}
			}
			treasury = 1000
		}
		
		effect = {
			add_treasury = -1000
			change_innovativeness = 2
			add_country_modifier = {
				name = mithradhum_arms
				duration = 5475
			}
		}
	}
	
	I05_durability_testing = {
		icon = mission_mithril_cannons
		required_missions = { I05_worthy_warriors I05_arms_training I05_kings_foundry }
		position = 9
		
		trigger = {
			num_of_artillery = 30
			mil_power = 100
			NOT = { has_country_modifier = mithradhum_arms }
		}
		
		effect = {
			add_mil_power = -100
			change_innovativeness = 3
			add_country_modifier = {
				name = mithradhum_durability
				duration = 5475
			}
		}
	}
	
	I05_regiment_drilling = {
		icon = moravian_arms
		required_missions = { I05_durability_testing }
		position = 10
		
		trigger = {
			if = {
				limit = { has_dlc = "Cradle of Civilization" }
				num_of_regiments_at_full_drill = 20
			}
			else = {
				mil_power = 150
			}
			if = {
				limit = { has_dlc = "Rights of Man" }
				num_of_generals_with_traits = 2
			}
			else = {
				mil_power = 150
			}
			has_mil_advisor_3 = yes
		}
		
		effect = {
			if = {
				limit = { NOT = { has_dlc = "Cradle of Civilization" } }
				add_mil_power = -150
			}
			if = {
				limit = { NOT = { has_dlc = "Rights of Man" } }
				add_mil_power = -150
			}
			add_country_modifier = {
				name = mithradhum_tactics
				duration = 5475
			}
		}
	}
	
	I05_mithril_in_war = {
		icon = mission_armor_choice
		required_missions = { I05_regiment_drilling }
		position = 11
		
		provinces_to_highlight = {
			has_discovered = ROOT
			province_id = 4236
			NOT = { has_dwarven_hold_6 = yes }
		}
		
		trigger = {
			NOT = { has_country_modifier = mithradhum_tactics }
			treasury = 2000
			4236 = { has_dwarven_hold_6 = yes }
		}
		
		effect = {
			add_treasury = -2000
			add_country_modifier = {
				name = mithradhum_mithril_armory
				duration = -1
			}
		}
	}
	
	I05_far_company = {
		icon = mission_embrace_our_destiny
		required_missions = { I05_mithril_in_war }
		position = 12
		
		provinces_to_highlight = {
			has_discovered = ROOT
			OR = {
				AND = {
					OR = {
						area = dwarovrod_10_12_area
						province_id = 2986
					}
					has_province_modifier = dwarovar_rail
				}
				AND = {
					province_id = 2931
					NOT = { has_dwarven_hold_5 = yes }
				}
			}
		}
		
		trigger = {
			dip_power = 100
			dwarovrod_10_12_area = {
				type = all
				NOT = { has_province_modifier = dwarovar_rail } 
			}
			2986 = { NOT = { has_province_modifier = dwarovar_rail } }
			2931 = { has_dwarven_hold_5 = yes }
		}
		
		effect = {
			add_dip_power = -100
			define_conquistador = {
				name = "Durin Stormaxe"
				fire = 4
				shock = 5
				manuever = 6
				siege = 2
			}
			set_global_flag = mithradhum_company_far
			custom_tooltip = mithradhum_company_far_t
			custom_tooltip = mithradhum_plains_dec
		}
	}
	
	I05_mithril_halanna = {
		icon = mission_nomad
		required_missions = { I05_show_purity I05_far_company I05_show_strength }
		position = 13
		
		provinces_to_highlight = {
			has_discovered = ROOT
			OR = {
				AND = {
					province_id = 4236
					NOT = { has_dwarven_hold_8 = yes }
				}
				AND = {
					province_id = 2931
					NOT = { has_dwarven_hold_6 = yes }
				}
				AND = {
					OR = {
						area = dwarovrod_10_12_area
						area = railyard_exchange_area
						area = dwarovrod_15_17_area
						province_id = 2876
						province_id = 2986
						province_id = 2879
						province_id = 2880
					}
					NOT = { 
						has_province_modifier = advanced_rail
						has_province_modifier = rocket_rail
					}
				}
			}
		}
		
		trigger = {
			dwarovrod_10_12_area = { 
				type = all
				has_province_modifier = advanced_rail 
			}
			railyard_exchange_area = { 
				type = all
				has_province_modifier = advanced_rail 
			}
			dwarovrod_15_17_area = { 
				type = all
				has_province_modifier = advanced_rail 
			}
			2876 = { has_province_modifier = advanced_rail }
			2986 = { has_province_modifier = advanced_rail }
			2879 = { has_province_modifier = advanced_rail }
			2880 = { has_province_modifier = advanced_rail }
			4236 = { has_dwarven_hold_8 = yes }
			2931 = { has_dwarven_hold_6 = yes }
		}
		
		effect = {
			set_global_flag = mithradhum_company_halanna
			custom_tooltip = mithradhum_company_halanna_t
		}
	}
}

I05_Mithril_1 = {
	slot = 4
	generic = no
	ai = yes
	potential = {
		tag = I05 #Mithradhum
	}
	has_country_shield = yes
	
	I05_breathing_space = {
		icon = mission_unite_home_region
		required_missions = { I05_restore_hold }
		position = 2
		
		provinces_to_highlight = {
			has_discovered = ROOT
			area = mithradhum_area
			OR = {
				NOT = { owned_by = ROOT }
				NOT = { is_core = ROOT }
			}
		}
		
		trigger = {
			mithradhum_area = {
				type = all
				owned_by = ROOT
				is_core = ROOT
			}
		}
		
		effect = {
			4050 = {
				add_province_modifier = {
					name = mithradum_prospecting
					duration = 7300
				}
			}
			4052 = {
				add_province_modifier = {
					name = mithradum_prospecting
					duration = 7300
				}
			}
			4053 = {
				add_province_modifier = {
					name = mithradum_prospecting
					duration = 7300
				}
			}
			south_breach_area = {
				limit = {
					NOT = { is_core = ROOT }
					NOT = { is_permanent_claim = ROOT }
				}
				add_permanent_claim = ROOT
			}
			riftway_area = {
				limit = {
					NOT = { is_core = ROOT }
					NOT = { is_permanent_claim = ROOT }
				}
				add_permanent_claim = ROOT
			}
		}
	}
	
	I05_expand_mines = {
		icon = mission_entrepot_of_india
		required_missions = { I05_breathing_space }
		position = 3
		
		provinces_to_highlight = {
			has_discovered = ROOT
			OR = {
				province_id = 4050
				province_id = 4052
				province_id = 4053
			}
			OR = {
				NOT = { has_production_building_trigger = yes }
				NOT = { 
					base_production = 5
					trade_goods = gold
				}
				has_province_modifier = mithradum_prospecting
			}
		}
		
		trigger = {
			4050 = {
				OR = {
					has_production_building_trigger = yes
					trade_goods = gold
				}
				base_production = 5
				NOT = { has_province_modifier = mithradum_prospecting }
			}
			4052 = {
				OR = {
					has_production_building_trigger = yes
					trade_goods = gold
				}
				base_production = 5
				NOT = { has_province_modifier = mithradum_prospecting }
			}
			4053 = {
				OR = {
					has_production_building_trigger = yes
					trade_goods = gold
				}
				base_production = 5
				NOT = { has_province_modifier = mithradum_prospecting }
			}
		}
		
		effect = {
			if = {
				limit = {
					NOT = {
						OR = {
							4050 = { trade_goods = mithril }
							4052 = { trade_goods = mithril }
							4053 = { trade_goods = mithril }
						}
					}
				}
				random_list = {
					40 = {
						4050 = { change_trade_goods = mithril }
					}
					40 = {
						4052 = { change_trade_goods = mithril }
					}
					20 = {
						4053 = { change_trade_goods = mithril }
					}
				}
			}
			else = {
				if = {
					limit = { 4050 = { trade_goods = mithril } }
					4050 = { add_base_production = 3 }
				}
				if = {
					limit = { 4052 = { trade_goods = mithril } }
					4050 = { add_base_production = 3 }
				}
				if = {
					limit = { 4053 = { trade_goods = mithril } }
					4050 = { add_base_production = 3 }
				}
			}
		}
	}
	
	I05_promote_trade = {
		icon = mission_door_trade
		required_missions = { I05_expand_mines }
		position = 4
		
		provinces_to_highlight = {
			has_discovered = ROOT
			province_id = 4236
			NOT = { province_has_center_of_trade_of_level = 2 }
		}
		
		trigger = {
			mercantilism = 15
			if = {
				limit = { has_dlc = "Dharma" }
				4236 = { province_has_center_of_trade_of_level = 2 }
			}
			else = {
				ROOT = { treasury = 250 }
			}
			OR = {
				2931 = {
					trade_share = {
						country = ROOT
						share = 50
					}
				}
				2868 = {
					trade_share = {
						country = ROOT
						share = 50
					}
				}
			}
		}
		
		effect = {
			add_country_modifier = {
				name = mithradhum_sales
				duration = 14600
			}
			if = {
				limit = { NOT = { has_dlc = "Dharma" } }
				add_treasury = -250
				4236 = { add_center_of_trade_level = 1 }
			}
		}
	}
	
	I05_true_mine = {
		icon = dominant_economy
		required_missions = { I05_promote_trade }
		position = 5
		
		provinces_to_highlight = {
			has_discovered = ROOT
			trade_goods = mithril
			NOT = { area = mithradhum_area }
			OR = {
				NOT = { owned_by = ROOT }
				NOT = { is_core = ROOT }
			}
		}
		
		trigger = {
			any_owned_province = {
				trade_goods = mithril
				NOT = { area = mithradhum_area }
				is_core = ROOT
			}
		}
		
		effect = {
			add_country_modifier = {
				name = mithradhum_sourcing
				duration = 10950
			}
			every_owned_province = {
				limit = {
					trade_goods = mithril
				}
				add_base_production = 2
			}
		}
	}
	
	I05_cavernous_mithril = {
		icon = mission_high_income
		required_missions = { I05_true_mine I05_sell_our_service }
		position = 6
		
		provinces_to_highlight = {
			has_discovered = ROOT
			trade_goods = mithril
			owned_by = ROOT
			NOT = { province_id = 4236 }
			OR = {
				NOT = { base_production = 15 }
				NOT = { is_core = ROOT }
			}
		}
		
		trigger = {
			any_owned_province = {
				trade_goods = mithril
				base_production = 15
				NOT = { province_id = 4236 }
				is_core = ROOT
			}
		}
		
		effect = {
			add_country_modifier = {
				name = mithradhum_surplus
				duration = 10950
			}
			random_owned_province = {
				limit = {
					trade_goods = mithril
					base_production = 15
					NOT = { province_id = 4236 }
					is_core = ROOT
				}
				add_province_modifier = {
					name = mithradum_mithril_town
					duration = -1
				}
			}
		}
	}
}

I05_Mithril_2 = {
	slot = 4
	generic = no
	ai = yes
	potential = {
		tag = I05 #Mithradhum
	}
	has_country_shield = yes
		
	I05_kings_foundry = {
		icon = mission_smith
		required_missions = { I05_expand_company I05_intervene_directly }
		position = 8
		
		provinces_to_highlight = {
			province_id = 4236
			OR = {
				NOT = { base_production = 35 }
				NOT = { owned_by = ROOT }
				NOT = { has_manufactory_trigger = yes }
			}
			has_discovered = ROOT
		}
		
		trigger = {
			owns_core_province = 4236
			4236 = {
				base_production = 35
				has_manufactory_trigger = yes
			}
			adm_power = 150
		}
		
		effect = {
			add_adm_power = -150
			increase_legitimacy_large_effect = yes
			4236 = {
				add_province_modifier = {
					name = mithradum_foundry
					duration = -1
				}
			}
		}
	}
	
	I05_enlarging_control = {
		icon = reform_the_state
		required_missions = { I05_kings_foundry }
		position = 9
		
		provinces_to_highlight = {
			has_discovered = ROOT
			trade_goods = mithril
		}
		
		trigger = {
			num_of_owned_provinces_with = {
				value = 5
				trade_goods = mithril
			}
			production_leader = { trade_goods = mithril }
		}
		
		effect = {
			add_prestige = 20
			add_country_modifier = {
				name = mithradhum_grandiose
				duration = 9125
			}
		}
	}
	
	I05_removing_competition = {
		icon = mission_dethrone_the_rurikovichs
		required_missions = { I05_enlarging_control }
		position = 10
		
		provinces_to_highlight = {
			has_discovered = ROOT
			trade_goods = mithril
			region = west_dwarovar_region
			owner = {
				NOT = {
					has_opinion = { who = I05 value = 100 }  
					has_spy_network_from = { who = I05 value = 80 }
				}
			}
		}
		
		trigger = {
			west_dwarovar_region = {
				type = all
				OR = {
					NOT = { trade_goods = mithril }
					owner = {
						OR = {
							has_opinion = { who = I05 value = 100 }  
							has_spy_network_from = { who = I05 value = 80 }
						}
					}
				}
			}
		}
		
		effect = {
			add_country_modifier = {
				name = mithradhum_competition
				duration = 10950
			}
		}
	}
	
	I05_dominate_mithril_market = {
		icon = mission_african_gold
		required_missions = { I05_removing_competition }
		position = 11
		
		provinces_to_highlight = {
			has_discovered = ROOT
			province_id = 4236
			NOT = { province_has_center_of_trade_of_level = 3 }
		}
		
		trigger = {
			if = {
				limit = { has_dlc = "Dharma" }
				4236 = { province_has_center_of_trade_of_level = 3 }
			}
			else = {
				ROOT = { treasury = 1200 }
			}
			OR = {
				mercantilism = 55
				AND = {
					mercantilism = 40
					2868 = {
						trade_share = {
							country = ROOT
							share = 80
						}
					}
				}
			}
			trading_bonus = {
				trade_goods = mithril
				value = yes
			}
			NOT = {
				all_country = {
					trading_bonus = {
						trade_goods = mithril
						value = yes
					} 
				}
			}
		}
		
		effect = {
			add_years_of_income = 1
			add_mercantilism = 5
			country_event = { id = flavor_mithradhum.102 }
			if = {
				limit = { NOT = { has_dlc = "Dharma" } }
				add_treasury = -1200
				4236 = { add_center_of_trade_level = 2 }
			}
		}
	}
	
	I05_show_strength = {
		icon = unite_the_league
		required_missions = { I05_mithril_in_war I05_dominate_mithril_market I05_mithril_escanni_arms }
		position = 12
		
		provinces_to_highlight = {
			has_discovered = ROOT
			owner = { total_development = 600 }
		}
		
		trigger = {
			custom_trigger_tooltip = {
				tooltip = mithradhum_flex
				any_country = {
					war_with = ROOT
					NOT = {
						war_score_against = {
							who = ROOT
							value = -80
						}
					}
					total_development = 600
				}
			}
		}
		
		effect = {
			add_country_modifier = {
				name = mithradhum_strength
				duration = 18250
			}
		}
	}
}

I05_Escann = {
	slot = 5
	generic = no
	ai = yes
	potential = {
		tag = I05 #Mithradhum
	}
	has_country_shield = yes
	
	I05_new_government = {
		icon = renovate_berlin
		required_missions = { }
		position = 1
		
		trigger = {
			government_reform_progress = 100
			NOT = { has_reform = adventurer_reform }
		}
		
		effect = {
			increase_legitimacy_large_effect = yes
			add_country_modifier = {
				name = mithradhum_new_code
				duration = 9125
			}
		}
	}
	
	I05_reconnect_outside = {
		icon = mission_junnagadh_fort
		required_missions = { I05_breathing_space I05_new_government }
		position = 3
		
		provinces_to_highlight = {
			has_discovered = ROOT
			area = south_breach_area
			OR = {
				NOT = { owned_by = ROOT }
				NOT = { is_core = ROOT }
			}
		}
		
		trigger = {
			has_institution = renaissance
			south_breach_area = {
				type = all
				owned_by = ROOT
				is_core = ROOT
			}
		}
		
		effect = {
			west_breach_area = {
				limit = {
					NOT = { is_core = ROOT }
					NOT = { is_permanent_claim = ROOT }
				}
				add_permanent_claim = ROOT
			}
			inner_castanor_region = {
				discover_country = ROOT
			}
		}
	}
	
	I05_secure_pathways = {
		icon = the_alpine_wall
		required_missions = { I05_reconnect_outside }
		position = 4
		
		provinces_to_highlight = {
			has_discovered = ROOT
			OR = {
				AND = {
					area = west_breach_area
					OR = {
						NOT = { owned_by = ROOT }
						NOT = { is_core = ROOT }
					}
				}
				AND = {
					OR = {
						province_id = 4552
						province_id = 4553
					}
					OR = {
						NOT = { owned_by = ROOT }
						NOT = { province_has_current_tech_fort_trigger = yes }
					}
				}
				AND = {
					OR = {
						province_id = 860
						province_id = 863
					}
					NOT = { owned_by = ROOT }
					NOT = { owner = { alliance_with = ROOT } }
				}
			}
			
		}
		
		trigger = {
			west_breach_area = {
				type = all
				owned_by = ROOT
				is_core = ROOT
			}
			OR = {
				AND = {
					4552 = { 
						owned_by = ROOT
						province_has_current_tech_fort_trigger = yes 
					}
					4553 = {
						owned_by = ROOT
						province_has_current_tech_fort_trigger = yes 
					}
				}
				AND = {
					any_ally = { owns = 860 }
					any_ally = { owns = 863 }
				}
			}
		}
		
		effect = {
			4552 = {
				add_base_tax = 1
				add_base_production = 1
				add_base_manpower = 1
			}
			4553 = {
				add_base_tax = 1
				add_base_production = 1
				add_base_manpower = 1
			}
		}
	}
	
	I05_sell_our_service = {
		icon = mission_warrior_gold
		required_missions = { I05_secure_pathways }
		position = 5
		
		provinces_to_highlight = {
			has_discovered = ROOT
			owner = { 
				capital_scope = { superregion = escann_superregion } 
				is_at_war = yes
				NOT = { has_country_modifier = monstrous_nation }
				NOT = { war_with = I05 }
			}
		}
		
		trigger = {
			if = {
				limit = { has_dlc = "Mare Nostrum" }
				custom_trigger_tooltip = {
					tooltip = mithradhum_selling
					any_country = {  
						capital_scope = { superregion = escann_superregion } 
						is_at_war = yes
						war_score = 75
						NOT = { has_country_modifier = monstrous_nation }
						I05 = { is_renting_condottieri_to = PREV }
					}
				}
			}
		}
		
		effect = {
			if = {
				limit = { has_dlc = "Mare Nostrum" }
				add_estate_loyalty = { estate = estate_adventurers loyalty = 15 }
				add_country_modifier = {
					name = mithradhum_available
					duration = -1
				}
			}
			else = {
				custom_tooltip = mithradhum_dlc
			}
			west_castanor_region = {
				discover_country = ROOT
			}
			south_castanor_region = {
				discover_country = ROOT
			}
		}
	}
	
	I05_intervene_directly = {
		icon = mission_heated_battle
		required_missions = { I05_cavernous_mithril I05_sell_our_service }
		position = 7
		
		provinces_to_highlight = {
			has_discovered = ROOT
			owner = { 
				capital_scope = { NOT = { continent = serpentspine } } 
				OR = { 
					has_country_modifier = orcish_administration
					has_country_modifier = goblin_administration
				}
			}
		}
		
		trigger = {
			custom_trigger_tooltip = {
				tooltip = mithradhum_intervene
				any_country = {  
					capital_scope = { NOT = { continent = serpentspine } }
					OR = { 
						has_country_modifier = orcish_administration
						has_country_modifier = goblin_administration
					}
					I05 = {
						war_score_against = {
							who = PREV
							value = 75
						}
					}
				}
			}
		}
		
		effect = {
			if = {
				limit = { mission_completed = I05_begin_purification }
				country_event = { id = flavor_mithradhum.101 }
			}
			else = {
				add_country_modifier = {
					name = mithradhum_true
					duration = 7300
				}
				custom_tooltip = mithradhum_mission_2
			}
		}
	}
	
	I05_serve_victors = {
		icon = mission_landsknecht_soldier
		required_missions = { I05_kings_foundry I05_intervene_directly }
		position = 9
		
		provinces_to_highlight = {
			has_discovered = ROOT
			owner = { 
				capital_scope = { superregion = escann_superregion } 
				is_at_war = yes
				NOT = { war_with = I05 }
				NOT = { has_country_modifier = monstrous_nation }
				total_development = 300
			}
		}
		
		trigger = {
			if = {
				limit = { has_dlc = "Mare Nostrum" }
				custom_trigger_tooltip = {
					tooltip = mithradhum_selling_2
					any_country = {  
						capital_scope = { superregion = escann_superregion } 
						is_at_war = yes
						total_development = 300
						NOT = { has_country_modifier = monstrous_nation }
						I05 = { is_renting_condottieri_to = PREV }
						war_score = 75
					}
				}
			}
		}
		
		effect = {
			if = {
				limit = { has_dlc = "Mare Nostrum" }
				add_estate_loyalty = { estate = estate_adventurers loyalty = 15 }
				add_country_modifier = {
					name = mithradhum_plunder
					duration = 7300
				}
			}
		}
	}
	
	I05_play_field = {
		icon = mission_italian_condottiere
		required_missions = { I05_serve_victors }
		position = 10
		
		provinces_to_highlight = {
			has_discovered = ROOT
			owner = { 
				capital_scope = { superregion = escann_superregion } 
				is_at_war = yes
				NOT = { has_country_modifier = monstrous_nation }
				NOT = { war_with = I05 }
			}
		}
		
		trigger = {
			if = {
				limit = { has_dlc = "Mare Nostrum" }
				calc_true_if = {
					custom_trigger_tooltip = {
						tooltip = mithradhum_selling_twice
						all_country = {  
							capital_scope = { superregion = escann_superregion } 
							is_at_war = yes
							NOT = { has_country_modifier = monstrous_nation }
							I05 = { is_renting_condottieri_to = PREV }
						}
					}
					amount = 2
				}
			}
		}
		
		effect = {
			if = {
				limit = { has_dlc = "Mare Nostrum" }
				add_yearly_manpower = 1
				add_army_tradition = 25
			}
		}
	}
	
	I05_mithril_escanni_arms = {
		icon = mission_heated_battle
		required_missions = { I05_play_field }
		position = 11
		
		provinces_to_highlight = {
			has_discovered = ROOT
			owner = {
				capital_scope = { superregion = escann_superregion }
				NOT = { war_with = I05 }
				NOT = {
					any_country = {
						capital_scope = { superregion = escann_superregion }
						total_development = PREV
					}
				}
			}
		}
		
		trigger = {
			OR = {
				current_age = age_of_absolutism
				current_age = age_of_revolutions
			}
			if = {
				limit = { has_dlc = "Mare Nostrum" }
				OR = {
					custom_trigger_tooltip = {
						tooltip = mithradhum_selling_3
						any_country = {  
							capital_scope = { superregion = escann_superregion } 
							is_at_war = yes
							war_score = 75
							NOT = {
								any_country = {
									capital_scope = { superregion = escann_superregion }
									total_development = PREV
								}
							}
							I05 = { is_renting_condottieri_to = PREV }
						}
					}
					custom_trigger_tooltip = {
						tooltip = mithradhum_selling_4
						any_country = {  
							capital_scope = { superregion = escann_superregion } 
							is_at_war = yes
							NOT = {
								any_country = {
									capital_scope = { superregion = escann_superregion }
									total_development = PREV
								}
							}
							any_country = {
								war_score_against = {
									who = PREV
									value = 75
								}
								I05 = { is_renting_condottieri_to = PREV }
							}
						}
					}
				}
			}
		}
		
		effect = {
			if = {
				limit = { has_dlc = "Mare Nostrum" }
				remove_country_modifier = mithradhum_available
				add_country_modifier = {
					name = mithradhum_foreign
					duration = -1
				}
			}
		}
	}
	
	I05_escanni_hold = {
		icon = mission_conquer_50_development
		required_missions = { I05_mithril_escanni_arms }
		position = 13
		
		provinces_to_highlight = {
			has_discovered = ROOT
			province_id = 4097
			OR = {
				NOT = { owned_by = ROOT }
				NOT = { is_core = ROOT }
			}
		}
		
		trigger = {
			if = {
				limit = { has_dlc = "Mare Nostrum" }
				OR = {
					4097 = { owner = { alliance_with = I05 } }
					custom_trigger_tooltip = {
						tooltip = mithradhum_selling_marrhold
						4097 = {
							owner = {
								any_country = {
									war_score_against = {
										who = PREV
										value = 50
									}
									I05 = { is_renting_condottieri_to = PREV }
									controls = 4097
								}
							}
						}
					}
				}
			}
			else = {
				4097 = { owner = { alliance_with = I05 } }
			}
			treasury = 2000
			adm_power = 100
		}
		
		effect = {
			add_treasury = -2000
			add_adm_power = -100
			if = {
				limit = { has_dlc = "Mare Nostrum" }
				4097 = { controller = { country_event = { id = flavor_mithradhum.103 days = 1 } } }
			}
			else = {
				4097 = { owner = { country_event = { id = flavor_mithradhum.103 days = 1 } } }
			}
		}
	}
}