
ramsteel_1_cavalry = {
	slot = 1
	generic = no
	ai = yes
	has_country_shield = yes
	potential = { tag = I04 }
	
	ramsteel_old_flocks = {
		icon = mission_secure_khandesh
		position = 2
		required_missions = { ramsteel_small_step }
		
		provinces_to_highlight = { 
			OR = {
				province_id = 4194 #Logrsedge
				province_id = 4195 #Harazlogr
			}
		}
		
		trigger = {
			ROOT = {
				4194 = {
					development = 10
					is_core = ROOT
					owned_by = ROOT
				}
				4195 = {
					development = 10
					is_core = ROOT
					owned_by = ROOT
				}
			}
		}
		effect = {
			4194 = {
				add_base_production = 1
				change_trade_goods = livestock
			}
			4195 = {
				add_base_production = 1
				change_trade_goods = wool
			}
			add_country_modifier = {
				name = ramsteel_settlement_enthusiasm
				duration = 3650
			}
			hidden_respite_area = {
				add_permanent_claim = ROOT
			}
			the_copperwood_area = {
				add_permanent_claim = ROOT
			}
			upper_logr_area = {
				add_permanent_claim = ROOT
			}
		}
	}
	
	ramsteel_breeding_pens = {
		icon = mission_collect_yasak
		position = 5
		required_missions = { ramsteel_old_flocks }
		
		provinces_to_highlight = { 
			area = hidden_respite_area
			NOT = { development = 10 }
		}
		
		trigger = {
			hidden_respite_area = {
				type = all
				owned_by = ROOT
				is_core = ROOT
				development = 10
			}
		}
		effect = {
			add_country_modifier = {
				name = ramsteel_breeding_pens
				duration = -1
			}
			hidden_respite_area = {
				add_permanent_province_modifier = {
					name = ramsteel_breeding_pens_province
					duration = -1
				}
				change_trade_goods = livestock
			}
			lower_logr_area = {
				add_permanent_claim = ROOT
			}
		}
	}
	ramsteel_first_charge = {
		icon = mission_subdue_rajputana
		position = 8
		required_missions = { ramsteel_breeding_pens }
		
		trigger = {
			is_at_war = yes
			cavalry_fraction = 0.33
			num_of_cavalry = 10
		}
		effect = {
			add_country_modifier = {
				name = ramsteel_first_charge_buff
				duration = 7300
			}
		}
	}
	ramsteel_feed_addition = {
		icon = mission_consume_the_baghels
		position = 13
		required_missions = { ramsteel_nutritious_feed }
		
		trigger = {
			num_of_owned_provinces_with = {
				value = 2
				trade_goods = mithril
				development = 20
				has_building = weapons
				has_production_building_trigger = yes
			}
			unit_type = tech_dwarven
		}
		effect = {
			custom_tooltip =  ramsteel_shock_1_replace 
			clear_ramsteel_fire_shock_buffs_effect = yes
			add_country_modifier = {
				name = ramsteel_shock_2
				duration = -1
			}
		}
	}
}

ramsteel_2_reclaim_the_range = {
	slot = 2
	generic = no
	ai = yes
	has_country_shield = yes
	potential = { tag = I04 }
	
	ramsteel_small_step = {
		icon = alpine_defenses
		position = 1
		required_missions = {  }
		
		provinces_to_highlight = { 
			OR = {
				province_id = 4145 
				province_id = 4164 
			}
			NOT = {
				owned_by = ROOT
			}
		}
		
		trigger = {
			ROOT = {
				AND = {
					owns_core_province = 4145 #Hornriver
					owns_core_province = 4164 #Northvale
				}
			}
		}
		effect = {
			4145 = {
				add_province_modifier = {
					name = ramsteel_vale_block
					duration = 18250
				}
			}
			4164 = {
				add_province_modifier = {
					name = ramsteel_vale_block
					duration = 18250
				}
			}
			serpents_vale_region = {
				limit = { NOT = { country_or_non_sovereign_subject_holds = ROOT } }
				add_permanent_claim = ROOT
			}
		}
	}
	
	ramsteel_irrigation_controls = {
		icon = mission_industrialize_bengal
		position = 2
		required_missions = { ramsteel_small_step }
		
		provinces_to_highlight = {
			area = amldihr_area
			NOT = { owned_by = ROOT }
		}

		trigger = {
			amldihr_area = {
				type = all
				owned_by = ROOT
				is_core = ROOT
			}
			if = {
				limit = { NOT = { has_global_flag = irrigation_east } } 
				custom_trigger_tooltip = {
					tooltip = ramsteel_irrigation_unfinished
					NOT = { has_global_flag = irrigation_east }
				}
				custom_trigger_tooltip = {
					tooltip = ramsteel_not_repairing
					NOT = { has_global_flag = repairing_irrigation }
				}
				treasury = 500
				adm_power = 200
				advisor = natural_scientist
			}
		}
		effect = {
			add_country_modifier = {
				name = ramsteel_large_morale_buff
				duration = 7300
			}
			if = { 
				limit = { NOT = { has_global_flag = irrigation_east } }
				country_event = { id = ramsteel.13 days = 30 }
			}
			else = {
				add_adm_power = 150
			}
		}
	}
	
	ramsteel_ancestral_fields = {
		icon = mission_rb_conquer_wales
		position = 3
		required_missions = { ramsteel_irrigation_controls }
		
		provinces_to_highlight = {
			area = common_terrace_area
		}
		
		trigger = {
			custom_trigger_tooltip = {
				tooltip = ramsteel_ancestral_fields_trigger
				has_global_flag = irrigation_east_done
			}
		}
		effect = {
			common_terrace_area = {
				change_trade_goods = livestock
				add_permanent_province_modifier = {
					name = ramsteel_ancestral_fields_buff
					duration = -1
				}
			}
		}
	}
	
	ramsteel_steak_and_chops = {
		icon = mission_rb_conquer_wales
		position = 4
		required_missions = { ramsteel_ancestral_fields }
		
		provinces_to_highlight = { province_id = 4143 }
		
		trigger = {
			4143 = {
				has_building = farm_estate
				base_production = 10
			}
		}
		effect = {
			add_country_modifier = {
				name = ramsteel_prestige
				duration = 7300
			}
			4143 = {
				add_base_production = 2
			}
		}
	}
	
	ramsteel_grazing_lands = {
		icon = mission_nomad
		position = 6
		required_missions = { ramsteel_breeding_pens }
		
		provinces_to_highlight = {
			OR = {
				area = middle_logr_area
				area = lower_logr_area
			}
			NOT = { owned_by = ROOT }
		}
		trigger = {
			middle_logr_area = {
				type = all
				is_city = yes
				owned_by = ROOT
			}
			lower_logr_area = {
				type = all
				is_city = yes
				owned_by = ROOT
			}
		}
		effect = {
			southern_giants_tears_area = {
				add_permanent_claim = ROOT
			}
			dwaroval_area = {
				add_permanent_claim = ROOT
			}
			northern_pass_region = {
				limit = { owned_by = ROOT }
				add_province_modifier = {
					name = ramsteel_grazing_lands_dev
					duration = 18250
				}
			}
			add_country_modifier = {
				name = ramsteel_country_production
				duration = 7300
			}
			custom_tooltip = ramsteel_to_wool_effect
			hidden_effect = {
				random_owned_province = {
					limit = {
						OR = {
							area = middle_logr_area
							area = lower_logr_area
						}
						NOT = { has_province_flag = changed_wool }
						NOT = { trade_goods = wool }
					}
					change_trade_goods = wool
					set_province_flag = changed_wool
				}
				random_owned_province = {
					limit = {
						OR = {
							area = middle_logr_area
							area = lower_logr_area
						}
						NOT = { has_province_flag = changed_wool }
						NOT = { trade_goods = wool }
					}
					change_trade_goods = wool
					set_province_flag = changed_wool
				}
				random_owned_province = {
					limit = {
						OR = {
							area = middle_logr_area
							area = lower_logr_area
						}
						NOT = { has_province_flag = changed_wool }
						NOT = { trade_goods = wool }
					}
					change_trade_goods = wool
					set_province_flag = changed_wool
				}
				every_owned_province = {
					limit = { has_province_flag = changed_wool }
					clr_province_flag = changed_wool
				}
			}
		}
	}
	
	ramsteel_more_grazing_lands = {
		icon = mission_rb_colonise_canada
		position = 7
		required_missions = { ramsteel_grazing_lands }
		provinces_to_highlight = {
			OR = {
				area = dwaroval_area
				area = southern_giants_tears_area
			}
			NOT = { owned_by = ROOT }
		}
		trigger = {
			dwaroval_area = {
				type = all
				owned_by = ROOT
				is_city = yes
			}
			southern_giants_tears_area = {
				type = all
				owned_by = ROOT
				is_city = yes
			}
			num_of_owned_provinces_with = {
				value = 6
				region = northern_pass_region
				OR = {
					has_building = farm_estate
					has_building = textile
				}
			}
		}
		effect = {
			custom_tooltip = ramsteel_more_grazing_lands_effect
			hidden_effect = {
				every_owned_province = {
					limit = {
						region = northern_pass_region
						OR = {
							has_building = farm_estate
							has_building = textile
						}
					}
					add_province_modifier = {
						name = ramsteel_grazing_lands_goods
						duration = -1
					}
				}
			}
			far_moitsa_area = {
				add_permanent_claim = ROOT
			}
			tanning_valley_area = {
				add_permanent_claim = ROOT
			}
		}
	}
	
	ramsteel_range_into_the_plains = {
		icon = mission_amur_acquisition
		position = 8
		required_missions = { ramsteel_more_grazing_lands }
		
		provinces_to_highlight = { area = far_moitsa_area }
		trigger = {
			far_moitsa_area = {
				is_core = ROOT
				owned_by = ROOT
			}
		}
		effect = {
			add_country_modifier = {
				name = ramsteel_plains_colonist
				duration = 18250
			}
			central_moitsa_area = {
				add_permanent_claim = ROOT
			}
			foirakhian_area = {
				add_permanent_claim = ROOT
			}
			skurkha_kyard_area = {
				add_permanent_claim = ROOT
			}
		}
	}
}

ramsteel_2_cavalry = {
	slot = 2
	generic = no
	ai = yes
	has_country_shield = yes
	potential = { tag = I04 }
	
	ramsteel_gelkalis_breed = {
		icon = hispaniae
		position = 9
		required_missions = { 
			ramsteel_first_charge
			ramsteel_range_into_the_plains
		}
		
		provinces_to_highlight = { province_id = 665 }
		trigger = {
			OR = {
				AND = {
					treasury = 300
					advisor = trader
					any_country = {
						owns = 665
						has_opinion = {
							who = ROOT
							value = 100
						}
					}
				}
				any_country = {
					owns = 665
					has_spy_network_from = {
						who = ROOT
						value = 60
					}
				}
			}
		}
		effect = {
			country_event = {
				id = ramsteel.2
			}
		}
	}
	
	ramsteel_nutritious_feed = {
		icon = mission_dominate_persian_gulf
		position = 12
		required_missions = { ramsteel_razam_headquarters }
		
		trigger = {
			custom_trigger_tooltip = {
				tooltip = ramsteel_shock_trigger
				has_country_flag = ramsteel_shock
			}
			num_of_owned_provinces_with = {
				value = 10
				OR = {
					trade_goods = fungi
					trade_goods = livestock
					trade_goods = grain
				}
				has_building = farm_estate
				development = 10
			}
			unit_type = tech_dwarven
		}
		effect = {
			add_country_modifier = {
				name = ramsteel_shock_1
				duration = -1
			}
		}
	}
	
	ramsteel_runed_horns = {
		icon = mission_science
		position = 14
		required_missions = { ramsteel_feed_addition }
		
		trigger = {
			any_owned_province = {
				trade_goods = damestear
				base_production = 15
				has_building = tradecompany
			}
			unit_type = tech_dwarven
		}
		effect = { 
			custom_tooltip = ramsteel_shock_2_replace
			clear_ramsteel_fire_shock_buffs_effect = yes
			add_country_modifier = {
				name = ramsteel_shock_3
				duration = -1
			}
		}
	}
}

ramsteel_3_misc = {
	slot = 3
	generic = no
	ai = yes
	has_country_shield = yes
	potential = { tag = I04 }
	
	ramsteel_home_on_the_range = {
		icon = mission_ramsteel_crest
		position = 2
		required_missions = { 
			ramsteel_small_step
			ramsteel_reclaim_ramvault
		}
		
		trigger = {
			4147 = { has_dwarven_hold_7 = yes } #Orlazam-az-Dihr
			production_leader = { trade_goods = livestock }
			production_leader = { trade_goods = wool }
			trading_bonus = {
				trade_goods = iron
				value = yes
			}
		}
		effect = {
			4147 = {
				add_province_modifier = {
					name = ramsteel_home_of_the_rangers_province
					duration = -1
				}
				add_center_of_trade_level = 2
			}
		}
	}
	
	ramsteel_quarry_access = {
		icon = mission_rb_prospect_for_coal
		position = 4
		required_missions = { ramsteel_weapons_research }
		
		provinces_to_highlight = {
			OR = {
				area = dagrinrod_4_6_area
				area = dwarovrod_7_9_area
			}
			NOT = {
				owned_by = ROOT
			}
		}
		trigger = {
			owns_all_provinces = {
				area = dagrinrod_4_6_area
			}
			owns_all_provinces = {
				area = dwarovrod_7_9_area
			}
		}
		effect = {
			add_country_modifier = {
				name = ramsteel_settlement_enthusiasm
				duration = 3650
			}
			mithradhum_area = {
				add_permanent_claim = ROOT
			}
			goblins_bypass_area = {
				add_permanent_claim = ROOT
			}
			broken_dagger_pass_area = {
				add_permanent_claim = ROOT
			}
		}
	}
	
	ramsteel_state_control_of_mines = {
		icon = mission_entrepot_of_india
		position = 5
		required_missions = { ramsteel_quarry_access }
		
		provinces_to_highlight = {
			owned_by = ROOT
			trade_goods = iron
			local_autonomy = 10
		}
		trigger = {
			num_of_owned_provinces_with = {
				value = 5
				trade_goods = iron
				NOT = { local_autonomy = 10 }
			}
			NOT = { has_estate_privilege = estate_nobles_monopoly_of_metals }
		}
		effect = {
			custom_tooltip = ramsteel_mines_control_effect
			hidden_effect = {
				every_owned_province = { limit = { trade_goods = iron }
					add_permanent_province_modifier = {
						name = ramsteel_local_production
						duration = -1
					}
				}
			}
			custom_tooltip = ramsteel_mines_control_estate_effect
			take_estate_land_share_massive = { estate = all }
		}
	}
	
	ramsteel_dwarf_and_his_ram = {
		icon = mission_bijapur_karnatak
		position = 8
		required_missions = { ramsteel_more_grazing_lands }
		
		trigger = {
			OR = {
				any_owned_province = {
					OR = {
						has_province_modifier = hold_farm
						has_province_modifier = hold_farm_2
						has_province_modifier = high_gardens
					}
				}
				num_of_owned_provinces_with = {
					value = 20
					trade_goods = livestock
					base_production = 10
					has_building = farm_estate
					has_production_building_trigger = yes
				}
			}
			
		}
		effect = {
			country_event = { id = ramsteel.1 }
		}
	}
}

ramsteel_3_cavalry = {
	slot = 3
	generic = no
	ai = yes
	has_country_shield = yes
	potential = { tag = I04 }
	
	ramsteel_retooling_corps = {
		icon = continue_the_renaissance
		position = 10
		required_missions = { 
			ramsteel_mithril_ramsteel
			ramsteel_gelkalis_breed
		}
		
		trigger = {
			OR = {
				innovativeness = 25
				mil_tech = 11
			}
			army_reformer = 2
			NOT = { has_country_modifier = ramsteel_gelkalis_buffs }
		}
		effect = { country_event = { id = ramsteel.3 } }
	}
	
	ramsteel_razam_headquarters = {
		icon = alpine_fortifications
		position = 11
		required_missions = { ramsteel_retooling_corps }
		
		trigger = {
			treasury = 1000
			4182 = { #Salt Grass Lake
				fort_level = 2
				has_manpower_building_trigger = yes
				development = 20
			}
			NOT = { has_country_modifier = ramsteel_retooling_debuffs }
			unit_type = tech_dwarven 
		}
		effect = {
			custom_tooltip = ramsteel_breeding_pens_replace
			hidden_effect = {
				hidden_respite_area = {
					remove_province_modifier = ramsteel_breeding_pens_province
				}
				ROOT = { remove_country_modifier = ramsteel_breeding_pens }
			}
			ROOT = {
				add_country_modifier = {
					name = ramsteel_razam_headquarters
					duration = -1
				}
			}
			hidden_respite_area = {
				add_permanent_province_modifier = {
					name = ramsteel_razam_headquarters_province
					duration = -1
				}
				add_base_production = 1
				add_base_manpower = 2
			}
		}
	}
	
	ramsteel_mithril_barding = {
		icon = mission_armor_choice
		position = 13
		required_missions = { ramsteel_razam_headquarters }
		
		trigger = {
			any_owned_province = {
				trade_goods = mithril
				development = 35
				has_building = weapons
			}
			OR = {
				quality_ideas = 3
				AND = {
					mil_power = 100
					treasury = 500
				}
			}
		}
		effect = {
			custom_tooltip = ramsteel_perfect_pairing_replace
			hidden_effect = {
				remove_country_modifier = ramsteel_perfect_pairing_buff
				remove_country_modifier = ramsteel_perfect_pairing_bonus_buff
			}
			custom_tooltip = ramsteel_mithril_barding_trading_bonus
			hidden_effect = {
				if = {
					limit = {
						trading_bonus = {
							trade_goods = mithril
							value = yes
						}
					}
					add_country_modifier = {
						name = ramsteel_mithril_barding_bonus_buff
						duration = -1
					}
				}
				else = {
					add_country_modifier = {
						name = ramsteel_mithril_barding_buff
						duration = -1
					}
				}
			}
			if = {
				limit = { NOT = { quality_ideas = 3 } }
				add_mil_power = 100
				add_treasury = -500
			}
		}
	}
	
	ramsteel_mecharam_prototypes = {
		icon = mission_machine_of_war
		position = 15
		required_missions = {  }
		
		trigger = {
			OR = {
				innovativeness = 50
				mil_tech = 17
			}
			has_global_modifier_value = {
				which = cavalry_power
				value = 0.3
			}
			OR = {
				estate_loyalty = {
					estate = estate_artificers
					loyalty = 60
				}
				AND = {
					mil_power = 400
					adm_power = 400
					dip_power = 400
				}
			}
			treasury = 1000
			OR = {
				mission_completed = ramsteel_runed_horns
				mission_completed = ramsteel_mounted_gun_batteries
			}
		}
		effect = {
			add_treasury = -1000
			if = {
				limit = {
					NOT = {
						estate_loyalty = {
							estate = estate_artificers
							loyalty = 60
						}
					}
				}
				add_mil_power = -400
				add_adm_power = -400
				add_dip_power = -400
			}
			country_event = {
				id = ramsteel.8
			}
			mission_reward_artifice_points_2 = yes
		}
	}
}

ramsteel_4_ramsteel_production = {
	slot = 4
	generic = no
	ai = yes
	has_country_shield = yes
	potential = { tag = I04 }
	
	ramsteel_reclaim_ramvault = {
		icon = mission_conquer_andhra_vij
		position = 1
		required_missions = {  }
		
		provinces_to_highlight = { 
			area = old_dagrinrod_area
			NOT = {
				is_core = ROOT
			}
		}
		
		trigger = {
			old_dagrinrod_area = {
				type = all
				is_core = ROOT
			}
		}
		effect = {
			add_country_modifier = {
				name = ramsteel_settlement_enthusiasm
				duration = 3650
			}
		}
	}
	
	ramsteel_forges = {
		icon = mission_smith
		position = 2
		required_missions = { ramsteel_reclaim_ramvault }
		
		provinces_to_highlight = { province_id = 4130 } #Ramvault
		
		trigger = {
			4130 = {
				base_production = 5
			}
		}
		effect = {
			4130 = {
				change_trade_goods = iron
				if = {
					limit = { NOT = { has_production_building_trigger = yes } }
					add_building_construction = {
						building = workshop
						cost = 0.5
						speed = 1
					}
				}
				change_province_name = "Razstunad Mines"
				rename_capital = "Razstunad Mines"
			}
		}
	}
	
	ramsteel_weapons_research = {
		icon = mission_writing_book
		position = 3
		required_missions = { 
			ramsteel_forges
			ramsteel_rediscover
		}
		
		trigger = {
			treasury = 300
			mil_power = 100
			advisor = fortification_expert
			custom_trigger_tooltip = {
				tooltip = ramsteel_secrets_rediscovered_trigger
				NOT = { has_country_flag = ramsteel_on_expedition }
			}
		}
		effect = {
			add_country_modifier = {
				name = ramsteel_weapons_research_regiment_cost
				duration = 7300
			}
			custom_tooltip = ramsteel_weapons_research_prov_buff
			hidden_effect = {
				every_owned_province = {
					limit = {
						trade_goods = iron
					}
					add_province_modifier = {
						name = ramsteel_weapons_research_goods
						duration = 7300
					}
				}
			}
			dagrinrod_4_6_area = {
				if = {
					limit = { is_empty = no }
					add_permanent_claim = ROOT
				}
			}
			dwarovrod_7_9_area = {
				if = {
					limit = { is_empty = no }
					add_permanent_claim = ROOT
				}
			}
		}
	}
	
	ramsteel_frozen_forge = {
		icon = mission_moon_moon
		position = 4
		required_missions = { ramsteel_weapons_research }
		
		provinces_to_highlight = {
			province_id = 4208 #Krakdhumvror
		}

		trigger = {
			OR = {
				is_rival = I02
				alliance_with = I02
				4208 = {
					is_core = ROOT
					owned_by = ROOT
				}
				I02 = {
					vassal_of = ROOT
				}
			}
		}
		effect = {
			hidden_effect = {
				if = {
					limit = {
						is_rival = I02
					}
					add_casus_belli = {
						target = I02
						type = cb_vassalize_mission
						months = 120
					}
				}
				else_if = {
					limit = {
						OR = {
							alliance_with = I02
							I02 = {
								vassal_of = ROOT
							}
						}
					}
					country_event = { id = ramsteel.4 }
				}
				else = {
					add_country_modifier = {
						name = ramsteel_krakd_conquer
						duration = 7300
					}
				}
			}
			custom_tooltip = ramsteel_frozen_forge_effect_tt
		}
	}
	
	ramsteel_mining_techniques = {
		icon = mission_mechanical_mining
		position = 6
		required_missions = { ramsteel_state_control_of_mines }
		
		trigger = {
			num_of_owned_provinces_with = {
				value = 5
				trade_goods = iron
				has_production_building_trigger = yes
				base_production = 5
			}
		}
		effect = {
			add_country_modifier = {
				name = ramsteel_country_production
				duration = 7300
			}
			custom_tooltip = ramsteel_mining_techniques_effect
			hidden_effect = {
				random_owned_province = {
					limit = { 
						trade_goods = iron
						has_production_building_trigger = yes
						NOT = { has_province_flag = production_added }
					}
					add_base_production = 1
					set_province_flag = production_added
				}
				random_owned_province = {
					limit = { 
						trade_goods = iron
						has_production_building_trigger = yes
						NOT = { has_province_flag = production_added }
					}
					add_base_production = 1
					set_province_flag = production_added
				}
				random_owned_province = {
					limit = { 
						trade_goods = iron
						has_production_building_trigger = yes
						NOT = { has_province_flag = production_added }
					}
					add_base_production = 1
					set_province_flag = production_added
				}
				every_owned_province = {
					limit = { has_province_flag = production_added }
					clr_province_flag = production_added
				}
			}
		}
	}
	
	ramsteel_obtain_mithril = {
		icon = mission_mithril_cannons
		position = 7
		required_missions = { ramsteel_mining_techniques }
		
		provinces_to_highlight = { province_id = 4236 }

		trigger = {
			OR = {
				4236 = { #Mithradhum
					is_core = ROOT
					owned_by = ROOT
				}
				any_owned_province = {
					trade_goods = mithril
					development = 10
				}
			}
		}
		effect = {
			add_country_modifier = {
				name = ramsteel_small_morale_buff
				duration = 7300
			}
		}
	}
	
	ramsteel_mithril_production = {
		icon = mission_state_manufactories
		position = 8
		required_missions = { ramsteel_obtain_mithril }
		
		trigger = {
			any_owned_province = {
				trade_goods = mithril
				base_production = 10
				has_production_building_trigger = yes
			}
		}
		effect = {
			add_country_modifier = {
				name = ramsteel_country_production
				duration = 7300
			}
		}
	}
}

ramsteel_4_cavalry = {
	slot = 4
	generic = no
	ai = yes
	has_country_shield = yes
	potential = { tag = I04 }
	
	ramsteel_mithril_ramsteel = {
		icon = mission_armoury
		position = 9
		required_missions = { 
			ramsteel_mithril_production 
			ramsteel_advanced_ramsteel_forge
		}
		
		trigger = {
			any_owned_province = {
				OR = {
					has_province_modifier = hold_foundry
					has_province_modifier = hold_foundry_2
					has_province_modifier = magma_forge
				}
			}
		}
		effect = {
			custom_tooltip = ramsteel_perfect_pairing_trading_bonus
			hidden_effect = {
				if = { 
					limit = { ROOT = { trading_bonus = { trade_goods = iron value = yes }} }
					add_country_modifier = {
						name = ramsteel_perfect_pairing_bonus_buff
						duration = -1
					}
				}
				else = {
					add_country_modifier = {
						name = ramsteel_perfect_pairing_buff
						duration = -1
					}
				}
			}
		}
	}
	
	ramsteel_pistolier_training = {
		icon = mission_invade_the_deccan_ori
		position = 12
		required_missions = { ramsteel_razam_headquarters }
		
		trigger = {
			custom_trigger_tooltip = {
				tooltip = ramsteel_fire_trigger
				has_country_flag = ramsteel_fire
			}
			mil_power = 100
			if = { limit = { NOT = { has_dlc = "Rule Britannia" } } 
				army_tradition = 40
			}
			else = {
				army_professionalism = 0.4
			}
			unit_type = tech_dwarven
		}
		effect = {
			add_mil_power = -100
			add_country_modifier = {
				name = ramsteel_fire_1
				duration = -1
			}
		}
	}
	
	ramsteel_mounted_gun_batteries = {
		icon = mission_cannons_firing
		position = 14
		required_missions = { ramsteel_powder_kits }
		
		trigger = {
			mil_power = 100
			if = { limit = { NOT = { has_dlc = "Rule Britannia" } } 
				army_tradition = 60
			}
			else = {
				army_professionalism = 0.60
			}
			num_of_cavalry = 50
			num_of_artillery = 50
			unit_type = tech_dwarven
		}
		effect = {
			custom_tooltip = ramsteel_fire_2_replace
			clear_ramsteel_fire_shock_buffs_effect = yes
			add_country_modifier = {
				name = ramsteel_fire_3
				duration = -1
			}
		}
	}
}

ramsteel_5_ramsteel_production = {
	slot = 5
	generic = no
	ai = yes
	has_country_shield = yes
	potential = { tag = I04 }
	
	ramsteel_rediscover = {
		icon = mission_treasure_room
		position = 2
		required_missions = { ramsteel_reclaim_ramvault }
		
		provinces_to_highlight = { province_id = 4130 }
		trigger = {
			4130 = {
				is_city = yes
				is_core = ROOT
			}
			treasury = 300
			manpower = 3
		}
		effect = {
			country_event = { id = ramsteel.14 days = 10 }
			hidden_effect = {
				country_event = { id = ramsteel.69 }
			}
			set_country_flag = ramsteel_on_expedition
		}
	}
	
	ramsteel_restart_production = {
		icon = mission_colonial
		position = 5
		required_missions = { ramsteel_rediscover }
		
		provinces_to_highlight = { province_id = 4147 }
		trigger = {
			4147 = {
				base_production = 20
			}
			custom_trigger_tooltip = {
				tooltip = ramsteel_secrets_rediscovered_trigger
				NOT = { has_country_flag = ramsteel_on_expedition }
			}
		}
		effect = {
			country_event = {
				id = ramsteel.169
			}
			4147 = {
				add_permanent_province_modifier = {
					name = ramsteel_restart_production_goods
					duration = -1
				}
			}
		}
	}
	
	ramsteel_advanced_ramsteel_forge = {
		icon = mission_rb_central_belt_coal_mining
		position = 8
		required_missions = { ramsteel_restart_production }
		
		provinces_to_highlight = { province_id = 4147 }
		trigger = {
			4147 = {
				has_manufactory_trigger = yes
				base_production = 30
			}
		}
		effect = {
			4147 = {
				add_permanent_province_modifier = {
					name = ramsteel_advanced_ramsteel_forges_goods
					duration = -1
				}
			}
			custom_tooltip = ramsteel_remove_restart_production
			remove_country_modifier = ramsteel_restart_production_goods
		}
	}
}

ramsteel_5_cavalry = {
	slot = 5
	generic = no
	ai = yes
	has_country_shield = yes
	potential = { tag = I04 }
	
	ramsteel_powder_kits = {
		icon = mission_ramsteel_gunpowder
		position = 13
		required_missions = { ramsteel_pistolier_training }
		
		trigger = {
			any_owned_province = {
				AND = {
					trade_goods = cloth
					has_production_building_trigger = yes
					has_building = textile
					development = 15
				}
			}
			textile = 5
			unit_type = tech_dwarven
		}
		effect = {
			custom_tooltip = ramsteel_fire_1_replace
			clear_ramsteel_fire_shock_buffs_effect = yes
			
			add_country_modifier = {
				name = ramsteel_fire_2
				duration = -1
			}
		}
	}
}
