
#These are generic Selphereg missions

selphergi1_missions = {
	slot = 1 
	generic = no
	ai = yes 
	potential = {
		AND = {
			primary_culture = selphereg
			NOT = {
					tag = H01
					tag = H21
			}
		}
	}
	
	selphereg_a_place_in_the_sun = {
		icon = mission_secure_khandesh
		required_missions = {  }
		position = 1
		provinces_to_highlight = {
			area_for_scope_province = {
				is_capital_of = ROOT
			}
			NOT = { owned_by = ROOT }
		}
		trigger = {
			capital_scope = {
				area_for_scope_province = {
					type = all
					owned_by = ROOT 
				}
				development = 14
			}
		}
		effect = { 
			capital_scope = {
				add_base_tax = 1
				add_base_production = 1
				add_base_manpower = 1
				area = {
					limit = { owned_by = ROOT }
					add_province_modifier = {
						name = "growth_of_capital"
						duration = 9125 #25 years
					}
				}
			}
			increase_legitimacy_medium_effect = yes
			add_prestige = 10
		}
	}
	selphereg_splendor_of_spring_court = {
		icon = mission_interfaith_relations
		required_missions = {
			selphereg_a_place_in_the_sun
		}
		position = 2
		trigger = {
			capital_scope = {
				has_tax_building_trigger = yes
			}
			prestige = 30
		}
		effect = {
			add_country_modifier = {name = "arakeprun_splendor_of_spring_court" duration = 5475}
		}
	}
	selphereg_protector_of_selpheregi = {
		icon = mission_rb_rein_in_the_highland_clans
		required_missions = {
			selphereg_splendor_of_spring_court
		}
		position = 3
		provinces_to_highlight = {
			AND = {
				superregion = eordand_superregion
				culture = selphereg
				NOT = { owned_by = ROOT }
			}
			NOT = {
				country_or_non_sovereign_subject_holds = ROOT
			}
		}
		trigger = {
			custom_trigger_tooltip = {
				tooltip = EORDAND_PROTECTOR
				NOT = {
					eordand_superregion = {
						culture = selphereg
						NOT = { owned_by = ROOT }
					}
				}
			}
		}
		effect = {
			add_country_modifier = {name = "arakeprun_protector_of_the_spring_court" duration = 5475}
			pelodard_area = {
				add_permanent_claim = ROOT
			}
		}
	}
	selphereg_pretenders_of_pelomar = {
		icon = mission_rb_unite_the_clans
		required_missions = {selphereg_protector_of_selpheregi}
		position = 4
		provinces_to_highlight = {
			province_id = 2049
		}
		trigger = {
			owns_core_province = 2049
			NOT = { exists = H08 }
		}
		effect = {
			drisleak_area = {
				add_permanent_claim = ROOT
			}
			sidmargbal_area = {
				add_permanent_claim = ROOT
			}
			country_event = { id = eordand.3 }
		}
	}
}

selpheregi3_missions = {
	slot = 3
	generic = no
	ai = yes 
	potential = {
		AND = {
		primary_culture = selphereg
		NOT = {
				tag = H01
				tag = H21
		}
		}
	}
	
	selphereg_interseasonal_diplomacy = {
		icon = mission_reliable_allies
		required_missions = { }
		position = 1
		trigger = {
			custom_trigger_tooltip = {
				tooltip = selphereg_interseasonal
				num_of_allies = 2
				calc_true_if = {
					all_ally = {
						NOT = { primary_culture = selphereg }
						has_opinion = {
							who = ROOT
							value = 150
						}
					}
					amount = 2
				}
			}
		}
		effect = {
			add_country_modifier = {
				name = "influential_diplomacy"
				duration = 9125 #25 years
			}
		}
	}
	
	selphereg_stewardship_of_seasons = {
		icon = mission_rule_the_garjats
		required_missions = { selphereg_interseasonal_diplomacy } 
		position = 2
		trigger = {
			custom_trigger_tooltip = {
				tooltip = selphereg_stewardship
					calc_true_if = {
						all_subject_country = {
							NOT = { primary_culture = selphereg }
						}
						amount = 1
					}
			}
		}
		effect = {
			add_country_modifier = {
				name = "obedient_subjects"
				duration = 9125 #25 years
			}
		}
	}
}

selpheregi4_missions = {
	slot = 4
	generic = no
	ai = yes 
	potential = {
		AND = {
		primary_culture = selphereg
		NOT = {
					tag = H01
					tag = H21
		}
		}
	}
	
	selphereg_precursor_expeditons = {
		icon = mission_jawal_silver_mine
		required_missions = { }
		position = 1
		
		trigger = {
			precursor_relics = 2
			all_owned_province = {
				OR = {
					AND = {
						trade_goods = precursor_relics
						base_production = 5
					}
					NOT = { trade_goods = precursor_relics }
				}
			}
		}
		effect = {
			random_owned_province = {
					limit = {
						trade_goods = precursor_relics
					}
					add_base_manpower = 1
					add_base_production = 1
					add_permanent_province_modifier = {
						name = selphereg_precursor_excavation
						duration = 18250
					}
			}
		}
	}
	selphereg_renovate_arakeprun = {
		icon = mission_city_prosperity
		required_missions = {
			selphereg_precursor_expeditons
		}
		position = 2
		provinces_to_highlight = {
			province_id = 2007
		}
		trigger = {
			owns_core_province = 2007
			precursor_relics = 2
			2007 = {
				has_production_building_trigger = yes
			}
			years_of_income = 2
		}
		effect = {
			2007 = {
				remove_province_modifier = arakeprun_precursor_tool_deprivation
			}
			add_years_of_income = -1.75
			add_prestige = 10
			hidden_effect = { set_country_flag = eordand_rebuilt_arakeprun }
		}
	}
}
selpheregi5_missions = {
	slot = 5
	generic = no
	ai = yes 
	potential = {
		AND = {
		primary_culture = selphereg
		NOT = {
					tag = H01
					tag = H21
		}
		}
	}
	
	selphereg_vernal_arts = {
		icon = mission_modernize_production
		required_missions = { selphereg_precursor_expeditons }
		position = 2
		
		trigger = {
			ROOT = {
				has_institution = renaissance
			}
			prestige = 35
		}
		effect = {
			add_country_modifier = {
				name = "eor_vernal_arts"
				duration = 5475
			}
		}
	}
}