

phoenix_empire_1 = {
	slot = 1
	generic = no
	ai = yes
	has_country_shield = yes
	
	potential = {
		tag = F38
		NOT = { was_tag = F52 }
	}
	
	phoenix_empire_the_great_waterway = {
		icon = mission_have_manufactories
		ai = yes
		position = 7
		
		required_missions = {
			
		}
		
		provinces_to_highlight = {
			province_id = 601
		}
		
		trigger = {
			601 = { has_province_modifier = great_bulwari_watercourse }
		}
		
		effect = {
			601 = {
				add_base_tax = 3
				add_base_production = 3
				add_base_manpower = 1
			}
		}
	}
	
	phoenix_empire_the_golden_highway = {
		icon = mission_indian_soldier_elephant
		ai = yes
		position = 8
		
		provinces_to_highlight = {
			OR = {
				province_group = golden_highway_bulwar_proper
				province_group = golden_highway_far_bulwar
				province_group = golden_highway_far_salahad
				province_group = golden_highway_rahen_coast
				province_group = golden_highway_dhujat
				province_group = golden_highway_xianjie
				province_group = golden_highway_upper_yanshen
				province_group = golden_highway_lower_yanshen
			}
			NOT = {
				has_province_modifier = golden_highway
			}
		}
		
		trigger = {
			golden_highway_bulwar_proper = {
				type = all
				has_province_modifier = golden_highway
			}
			golden_highway_far_bulwar = {
				type = all
				has_province_modifier = golden_highway
			}
			golden_highway_far_salahad = {
				type = all
				has_province_modifier = golden_highway
			}
			golden_highway_rahen_coast = {
				type = all
				has_province_modifier = golden_highway
			}
			golden_highway_dhujat = {
				type = all
				has_province_modifier = golden_highway
			}
			golden_highway_xianjie = {
				type = all
				has_province_modifier = golden_highway
			}
			golden_highway_upper_yanshen = {
				type = all
				has_province_modifier = golden_highway
			}
			golden_highway_lower_yanshen = {
				type = all
				has_province_modifier = golden_highway
			}
		}
		
		effect = {
			add_country_modifier = {
				name = phoenix_empire_restoration_of_the_golden_highway
				duration = 7300
			}
		}
	}
	
	phoenix_empire_secure_bahar = {
		icon = mission_arabian_fort
		ai = yes
		position = 9
		
		required_missions = {
			
		}
		
		provinces_to_highlight = {
			OR = {
				region = bahar_region
			}
			NOT = {
				owned_by = ROOT
			}
		}
		
		trigger = {
			bahar_region = {
				type = all
				owned_by = ROOT
			}
		}
		
		effect = {
			custom_tooltip = phoenix_conquest_cb_20_tt
			hidden_effect = {
				add_country_modifier = {
					name = phoenix_conquest_cb_mod
					hidden = yes
					duration = 7300
				}
			}
			
			businor_region = {
				limit = {
					NOT = {
						owned_by = ROOT
						is_core = ROOT
					}
				}
				add_permanent_claim = ROOT
			}
			ourdia_region = {
				limit = {
					NOT = {
						owned_by = ROOT
						is_core = ROOT
					}
				}
				add_permanent_claim = ROOT
			}
			daravans_folly_region = {
				limit = {
					NOT = {
						owned_by = ROOT
						is_core = ROOT
					}
				}
				add_permanent_claim = ROOT
			}
			dostanor_region = {
				limit = {
					NOT = {
						owned_by = ROOT
						is_core = ROOT
					}
				}
				add_permanent_claim = ROOT
			}
			hidden_effect = {
				set_variable = { which = phoenix_empire_timer_1 value = 0 }
			}
		}
	}
	
	phoenix_empire_the_busilari_protectorate = {
		icon = mission_found_havana
		ai = yes
		position = 10
		
		required_missions = {
			phoenix_empire_secure_bahar
		}
		
		provinces_to_highlight = {
			OR = {
				region = businor_region
			}
			NOT = {
				owned_by = ROOT
			}
		}
		
		trigger = {
			num_of_owned_provinces_with = {
				region = businor_region
				value = 20
			}
			408 = { owned_by = ROOT }
			365 = { owned_by = ROOT }
		}
		
		effect = {
			custom_tooltip = phoenix_conquest_cb_20_tt
			hidden_effect = {
				add_country_modifier = {
					name = phoenix_conquest_cb_mod
					hidden = yes
					duration = 7300
				}
			}
			
			the_borders_region = {
				limit = {
					NOT = {
						owned_by = ROOT
						is_core = ROOT
					}
				}
				add_permanent_claim = ROOT
			}
			
			#Timer
			if = {
				limit = { NOT = { mission_completed = phoenix_empire_the_busilari_protectorate } } #Have not completed this mission
				custom_tooltip = phoenix_empire_if_completed_previous_mission_20_tt
				tooltip = {
					add_dip_power = 50
					add_adm_power = 100
				}
				if = {
					limit = { NOT = { check_variable = { which = phoenix_empire_timer_1 value = 240 } } } #timer in months
					hidden_effect = {
						add_dip_power = 50
						add_adm_power = 100
						hidden_effect = { change_variable = { which = phoenix_empire_timed_missions_completed value = 1 } }
					}
				}
				if = {
					limit = { mission_completed = phoenix_empire_secure_bahar } #Have completed the previous mission
					custom_tooltip = phoenix_empire_months_since_completing_previous_mission_1_tt
				}
			}
			hidden_effect = {
				set_variable = { which = phoenix_empire_timer_1 value = 0 }
			}
		}
	}
	
	phoenix_empire_link_up = {
		icon = mission_protect_granada
		ai = yes
		position = 11
		
		required_missions = {
			phoenix_empire_the_busilari_protectorate
			phoenix_empire_the_corvurian_protectorate
		}
		
		provinces_to_highlight = {
			OR = {
				region = the_borders_region
			}
			NOT = {
				owned_by = ROOT
			}
		}
		
		trigger = {
			num_of_owned_provinces_with = {
				region = the_borders_region
				value = 20
			}
			NOT = {
				any_owned_province = {
					region = businor_region
					is_overseas = yes
				}
			}
		}
		
		effect = {
			custom_tooltip = phoenix_conquest_cb_20_tt
			hidden_effect = {
				add_country_modifier = {
					name = phoenix_conquest_cb_mod
					hidden = yes
					duration = 7300
				}
			}
			
			east_dameshead_region = {
				limit = {
					NOT = {
						owned_by = ROOT
						is_core = ROOT
					}
				}
				add_permanent_claim = ROOT
			}
			esmaria_region = {
				limit = {
					NOT = {
						owned_by = ROOT
						is_core = ROOT
					}
				}
				add_permanent_claim = ROOT
			}
			
			#Timer
			if = {
				limit = { NOT = { mission_completed = phoenix_empire_link_up } } #Have not completed this mission
				custom_tooltip = phoenix_empire_if_completed_previous_mission_20_tt
				tooltip = {
					the_borders_region = {
						limit = {
							owned_by = ROOT
						}
						add_unrest = -3
						add_nationalism = -5
					}
					businor_region = {
						limit = {
							owned_by = ROOT
						}
						add_unrest = -3
						add_nationalism = -5
					}
					dostanor_region = {
						limit = {
							owned_by = ROOT
						}
						add_unrest = -3
						add_nationalism = -5
					}
				}
				if = {
					limit = { NOT = { check_variable = { which = phoenix_empire_timer_1 value = 240 } } } #timer in months
					hidden_effect = {
						the_borders_region = {
							limit = {
								owned_by = ROOT
							}
							add_unrest = -3
							add_nationalism = -5
						}
						businor_region = {
							limit = {
								owned_by = ROOT
							}
							add_unrest = -3
							add_nationalism = -5
						}
						dostanor_region = {
							limit = {
								owned_by = ROOT
							}
							add_unrest = -3
							add_nationalism = -5
						}
						hidden_effect = { change_variable = { which = phoenix_empire_timed_missions_completed value = 1 } }
					}
				}
				if = {
					limit = { mission_completed = phoenix_empire_the_busilari_protectorate } #Have completed the previous mission
					custom_tooltip = phoenix_empire_months_since_completing_previous_mission_1_tt
				}
			}
			hidden_effect = {
				set_variable = { which = phoenix_empire_timer_1 value = 0 }
			}
		}
	}
	
	phoenix_empire_jexis_conquest = {
		icon = secure_the_republic
		ai = yes
		position = 12
		
		required_missions = {
			phoenix_empire_link_up
		}
		
		provinces_to_highlight = {
			OR = {
				region = east_dameshead_region
				region = esmaria_region
				region = the_borders_region
			}
			NOT = {
				owned_by = ROOT
			}
		}
		
		trigger = {
			num_of_owned_provinces_with = {
				OR = {
					region = east_dameshead_region
					region = esmaria_region
					region = the_borders_region
				}
				value = 50
			}
			8 = { owned_by = ROOT }
		}
		
		effect = {
			custom_tooltip = phoenix_conquest_cb_20_tt
			hidden_effect = {
				add_country_modifier = {
					name = phoenix_conquest_cb_mod
					hidden = yes
					duration = 7300
				}
			}
			
			west_dameshead_region = {
				limit = {
					NOT = {
						owned_by = ROOT
						is_core = ROOT
					}
				}
				add_permanent_claim = ROOT
			}
			damescrown_region = {
				limit = {
					NOT = {
						owned_by = ROOT
						is_core = ROOT
					}
				}
				add_permanent_claim = ROOT
			}
			forlorn_vale_region = {
				limit = {
					NOT = {
						owned_by = ROOT
						is_core = ROOT
					}
				}
				add_permanent_claim = ROOT
			}
			country_event = {
				id = phoenix_empire.1
			}
			
			#Timer
			if = {
				limit = { NOT = { mission_completed = phoenix_empire_jexis_conquest } } #Have not completed this mission
				custom_tooltip = phoenix_empire_if_completed_previous_mission_20_tt
				tooltip = {
					add_power_projection = {
						type = mission_rewards_power_projection
						amount = 25
					}
				}
				if = {
					limit = { NOT = { check_variable = { which = phoenix_empire_timer_1 value = 240 } } } #timer in months
					hidden_effect = {
						add_power_projection = {
							type = mission_rewards_power_projection
							amount = 25
						}
						hidden_effect = { change_variable = { which = phoenix_empire_timed_missions_completed value = 1 } }
					}
				}
				if = {
					limit = { mission_completed = phoenix_empire_link_up } #Have completed the previous mission
					custom_tooltip = phoenix_empire_months_since_completing_previous_mission_1_tt
				}
			}
			hidden_effect = {
				set_variable = { which = phoenix_empire_timer_1 value = 0 }
			}
		}
	}
	
	phoenix_empire_around_the_dameshead = {
		icon = reclaim_the_aegean
		ai = yes
		position = 13
		
		required_missions = {
			phoenix_empire_jexis_conquest
		}
		
		provinces_to_highlight = {
			OR = {
				region = west_dameshead_region
				region = damescrown_region
			}
			NOT = {
				owned_by = ROOT
			}
		}
		
		trigger = {
			num_of_owned_provinces_with = {
				OR = {
					region = west_dameshead_region
					region = damescrown_region
				}
				value = 40
			}
		}
		
		effect = {
			custom_tooltip = phoenix_conquest_cb_20_tt
			hidden_effect = {
				add_country_modifier = {
					name = phoenix_conquest_cb_mod
					hidden = yes
					duration = 7300
				}
			}
			
			add_country_modifier = {
				name = phoenix_empire_dameshead_hegemony
				duration = 7300
			}
			
			#Timer
			if = {
				limit = { NOT = { mission_completed = phoenix_empire_the_busilari_protectorate } } #Have not completed this mission
				custom_tooltip = phoenix_empire_if_completed_previous_mission_20_tt
				tooltip = {
					add_dip_power = 100
					add_adm_power = 100
				}
				if = {
					limit = { NOT = { check_variable = { which = phoenix_empire_timer_1 value = 240 } } } #timer in months
					hidden_effect = {
						add_dip_power = 100
						add_adm_power = 100
						hidden_effect = { change_variable = { which = phoenix_empire_timed_missions_completed value = 1 } }
					}
				}
				if = {
					limit = { mission_completed = phoenix_empire_the_busilari_protectorate } #Have completed the previous mission
					custom_tooltip = phoenix_empire_months_since_completing_previous_mission_1_tt
				}
			}
			hidden_effect = {
				set_variable = { which = phoenix_empire_timer_1 value = 0 }
			}
		}
	}
	
	phoenix_empire_one_empire = {
		icon = polish_diplomacy
		ai = yes
		position = 14
		
		required_missions = {
			phoenix_empire_around_the_dameshead
		}
		
		provinces_to_highlight = {
			OR = {
				region = east_dameshead_region
				region = esmaria_region
				region = the_borders_region
				region = west_dameshead_region
				region = damescrown_region
			}
			NOT = {
				owned_by = ROOT
			}
		}
		
		trigger = {
			num_of_owned_provinces_with = {
				OR = {
					region = east_dameshead_region
					region = esmaria_region
					region = the_borders_region
					region = west_dameshead_region
					region = damescrown_region
				}
				value = 180
			}
			eoa_is_dismantled = yes
		}
		
		effect = {
			custom_tooltip = phoenix_conquest_cb_20_tt
			hidden_effect = {
				add_country_modifier = {
					name = phoenix_conquest_cb_mod
					hidden = yes
					duration = 7300
				}
			}
			
			small_country_region = {
				limit = {
					NOT = {
						owned_by = ROOT
						is_core = ROOT
					}
				}
				add_permanent_claim = ROOT
			}
			lencenor_region = {
				limit = {
					NOT = {
						owned_by = ROOT
						is_core = ROOT
					}
				}
				add_permanent_claim = ROOT
			}
			
			#Timer
			if = {
				limit = { NOT = { mission_completed = phoenix_empire_one_empire } } #Have not completed this mission
				custom_tooltip = phoenix_empire_if_completed_previous_mission_20_tt
				tooltip = {
					east_dameshead_region = {
						limit = {
							culture_is_human = yes
						}
						add_unrest = -3
						add_nationalism = -5
					}
					esmaria_region = {
						limit = {
							culture_is_human = yes
						}
						add_unrest = -3
						add_nationalism = -5
					}
					the_borders_region = {
						limit = {
							culture_is_human = yes
						}
						add_unrest = -3
						add_nationalism = -5
					}
					west_dameshead_region = {
						limit = {
							culture_is_human = yes
						}
						add_unrest = -3
						add_nationalism = -5
					}
					damescrown_region = {
						limit = {
							culture_is_human = yes
						}
						add_unrest = -3
						add_nationalism = -5
					}
				}
				if = {
					limit = { NOT = { check_variable = { which = phoenix_empire_timer_1 value = 240 } } } #timer in months
					hidden_effect = {
						east_dameshead_region = {
							limit = {
								culture_is_human = yes
							}
							add_unrest = -3
							add_nationalism = -5
						}
						esmaria_region = {
							limit = {
								culture_is_human = yes
							}
							add_unrest = -3
							add_nationalism = -5
						}
						the_borders_region = {
							limit = {
								culture_is_human = yes
							}
							add_unrest = -3
							add_nationalism = -5
						}
						west_dameshead_region = {
							limit = {
								culture_is_human = yes
							}
							add_unrest = -3
							add_nationalism = -5
						}
						damescrown_region = {
							limit = {
								culture_is_human = yes
							}
							add_unrest = -3
							add_nationalism = -5
						}
						hidden_effect = { change_variable = { which = phoenix_empire_timed_missions_completed value = 1 } }
					}
				}
				if = {
					limit = { mission_completed = phoenix_empire_around_the_dameshead } #Have completed the previous mission
					custom_tooltip = phoenix_empire_months_since_completing_previous_mission_1_tt
				}
			}
			hidden_effect = {
				set_variable = { which = phoenix_empire_timer_1 value = 0 }
			}
		}
	}
	
	phoenix_empire_lords_of_grapes_and_grain = {
		icon = prosperity_for_all
		ai = yes
		position = 15
		
		required_missions = {
			phoenix_empire_one_empire
		}
		
		provinces_to_highlight = {
			OR = {
				region = small_country_region
				region = lencenor_region
			}
			NOT = {
				owned_by = ROOT
			}
		}
		
		trigger = {
			num_of_owned_provinces_with = {
				OR = {
					region = small_country_region
					region = lencenor_region
				}
				value = 50
			}
			67 = { owned_by = ROOT }
			101 = { owned_by = ROOT }
			33 = { owned_by = ROOT }
			63 = { owned_by = ROOT }
			66 = { owned_by = ROOT }
		}
		
		effect = {
			custom_tooltip = phoenix_conquest_cb_20_tt
			hidden_effect = {
				add_country_modifier = {
					name = phoenix_conquest_cb_mod
					hidden = yes
					duration = 7300
				}
			}
			
			dragon_coast_region = {
				limit = {
					NOT = {
						owned_by = ROOT
						is_core = ROOT
					}
				}
				add_permanent_claim = ROOT
			}
			
			#Timer
			if = {
				limit = { NOT = { mission_completed = phoenix_empire_lords_of_grapes_and_grain } } #Have not completed this mission
				custom_tooltip = phoenix_empire_if_completed_previous_mission_20_tt
				tooltip = {
					add_mil_power = 100
					add_adm_power = 100
				}
				if = {
					limit = { NOT = { check_variable = { which = phoenix_empire_timer_1 value = 240 } } } #timer in months
					hidden_effect = {
						add_mil_power = 100
						add_adm_power = 100
						hidden_effect = { change_variable = { which = phoenix_empire_timed_missions_completed value = 1 } }
					}
				}
				if = {
					limit = { mission_completed = phoenix_empire_one_empire } #Have completed the previous mission
					custom_tooltip = phoenix_empire_months_since_completing_previous_mission_1_tt
				}
			}
			hidden_effect = {
				set_variable = { which = phoenix_empire_timer_1 value = 0 }
			}
		}
	}
	
	phoenix_empire_to_the_sunset = {
		icon = mission_rb_take_gibraltar
		ai = yes
		position = 16
		
		required_missions = {
			phoenix_empire_lords_of_grapes_and_grain
		}
		
		provinces_to_highlight = {
			OR = {
				region = dragon_coast_region
			}
			NOT = {
				owned_by = ROOT
			}
		}
		
		trigger = {
			num_of_owned_provinces_with = {
				region = dragon_coast_region
				value = 20
			}
			177 = { owned_by = ROOT }
		}
		
		effect = {
			if = {
				limit = { mission_completed = phoenix_empire_to_the_sunrise }
				custom_tooltip = phoenix_conquest_cb_always_tt
				hidden_effect = {
					add_country_modifier = {
						name = phoenix_conquest_cb_mod
						hidden = yes
						duration = -1
					}
				}
			}
			else = {
				custom_tooltip = phoenix_conquest_cb_20_tt
				hidden_effect = {
					add_country_modifier = {
						name = phoenix_conquest_cb_mod
						hidden = yes
						duration = 7300
					}
				}
			}
			
			western_cannor_superregion = {
				limit = {
					NOT = {
						owned_by = ROOT
						is_core = ROOT
					}
				}
				add_permanent_claim = ROOT
			}
			escann_superregion = {
				limit = {
					NOT = {
						owned_by = ROOT
						is_core = ROOT
					}
				}
				add_permanent_claim = ROOT
			}
			gerudia_superregion = {
				limit = {
					NOT = {
						owned_by = ROOT
						is_core = ROOT
					}
				}
				add_permanent_claim = ROOT
			}
			deepwoods_superregion = {
				limit = {
					NOT = {
						owned_by = ROOT
						is_core = ROOT
					}
				}
				add_permanent_claim = ROOT
			}
			country_event = {
				id = phoenix_empire.2
			}
			
			#Timer
			if = {
				limit = { NOT = { mission_completed = phoenix_empire_to_the_sunset } } #Have not completed this mission
				custom_tooltip = phoenix_empire_if_completed_previous_mission_20_tt
				tooltip = {
					add_adm_power = 100
					add_dip_power = 100
					add_mil_power = 100
				}
				if = {
					limit = { NOT = { check_variable = { which = phoenix_empire_timer_1 value = 240 } } } #timer in months
					hidden_effect = {
						add_adm_power = 100
						add_dip_power = 100
						add_mil_power = 100
						hidden_effect = { change_variable = { which = phoenix_empire_timed_missions_completed value = 1 } }
					}
				}
				if = {
					limit = { mission_completed = phoenix_empire_lords_of_grapes_and_grain } #Have completed the previous mission
					custom_tooltip = phoenix_empire_months_since_completing_previous_mission_1_tt
				}
			}
			hidden_effect = {
				set_variable = { which = phoenix_empire_timer_1 value = 0 }
			}
		}
	}
	
	phoenix_empire_cloudless_cannor = {
		icon = mission_rb_scottish_conquer_london
		ai = yes
		position = 19
		
		required_missions = {
			phoenix_empire_westward_missions
		}
		
		provinces_to_highlight = {
			OR = {
				superregion = western_cannor_superregion
			}
			NOT = {
				religion = bulwari_sun_cult
			}
		}
		
		trigger = {
			western_cannor_superregion = {
				type = all
				OR = {
					religion = bulwari_sun_cult
					is_city = no
				}
			}
		}
		
		effect = {
			if = {
				limit = { has_country_modifier = phoenix_empire_the_glory_of_surakel_4 }
				remove_country_modifier = phoenix_empire_the_glory_of_surakel_4
				add_country_modifier = {
					name = phoenix_empire_the_glory_of_surakel_5
					duration = -1
				}
			}
			else_if = {
				limit = { has_country_modifier = phoenix_empire_the_glory_of_surakel_3 }
				remove_country_modifier = phoenix_empire_the_glory_of_surakel_3
				add_country_modifier = {
					name = phoenix_empire_the_glory_of_surakel_4
					duration = -1
				}
			}
			else_if = {
				limit = { has_country_modifier = phoenix_empire_the_glory_of_surakel_2 }
				remove_country_modifier = phoenix_empire_the_glory_of_surakel_2
				add_country_modifier = {
					name = phoenix_empire_the_glory_of_surakel_3
					duration = -1
				}
			}
			else_if = {
				limit = { has_country_modifier = phoenix_empire_the_glory_of_surakel_1 }
				remove_country_modifier = phoenix_empire_the_glory_of_surakel_1
				add_country_modifier = {
					name = phoenix_empire_the_glory_of_surakel_2
					duration = -1
				}
			}
			else = {
				add_country_modifier = {
					name = phoenix_empire_the_glory_of_surakel_1
					duration = -1
				}
			}
			country_event = {
				id = phoenix_empire.3
			}
		}
	}
}


phoenix_empire_2 = {
	slot = 2
	generic = no
	ai = yes
	has_country_shield = yes
	
	potential = {
		tag = F38
		NOT = { was_tag = F52 }
	}
	
	phoenix_empire_the_east_west_trade = {
		icon = mission_market_place_with_asian_traders
		ai = yes
		position = 9
		
		required_missions = {
			phoenix_empire_the_golden_highway
		}
		
		provinces_to_highlight = {
			
		}
		
		trigger = {
			1252 = { is_strongest_trade_power = ROOT }
			1270 = { is_strongest_trade_power = ROOT }
			1296 = { is_strongest_trade_power = ROOT }
			1305 = { is_strongest_trade_power = ROOT }
			1305 = { is_strongest_trade_power = ROOT }
			1309 = { is_strongest_trade_power = ROOT }
			601 = { is_strongest_trade_power = ROOT }
			638 = { is_strongest_trade_power = ROOT }
			2901 = { is_strongest_trade_power = ROOT }
			1350 = { is_strongest_trade_power = ROOT }
			1361 = { is_strongest_trade_power = ROOT }
			1364 = { is_strongest_trade_power = ROOT }
			1644 = { is_strongest_trade_power = ROOT }
			1369 = { is_strongest_trade_power = ROOT }
			1371 = { is_strongest_trade_power = ROOT }
			4871 = { is_strongest_trade_power = ROOT }
		}
		
		effect = {
			add_country_modifier = {
				name = phoenix_empire_empire_of_the_golden_sun
				duration = 9125
			}
		}
	}
	
	phoenix_empire_the_corvurian_protectorate = {
		icon = mission_impaled_soldies
		ai = yes
		position = 10
		
		required_missions = {
			phoenix_empire_secure_bahar
		}
		
		provinces_to_highlight = {
			OR = {
				region = dostanor_region
				region = daravans_folly_region
				region = ourdia_region
			}
			NOT = {
				owned_by = ROOT
			}
		}
		
		trigger = {
			num_of_owned_provinces_with = {
				OR = {
					region = dostanor_region
					region = daravans_folly_region
					region = ourdia_region
				}
				value = 20
			}
			441 = { owned_by = ROOT }
			510 = { owned_by = ROOT }
		}
		
		effect = {
			custom_tooltip = phoenix_conquest_cb_20_tt
			hidden_effect = {
				add_country_modifier = {
					name = phoenix_conquest_cb_mod
					hidden = yes
					duration = 7300
				}
			}
			
			south_castanor_region = {
				limit = {
					NOT = {
						owned_by = ROOT
						is_core = ROOT
					}
				}
				add_permanent_claim = ROOT
			}
			
			#Timer
			if = {
				limit = { NOT = { mission_completed = phoenix_empire_the_corvurian_protectorate } } #Have not completed this mission
				custom_tooltip = phoenix_empire_if_completed_previous_mission_20_tt
				tooltip = {
					add_dip_power = 50
					add_adm_power = 100
				}
				if = {
					limit = { NOT = { check_variable = { which = phoenix_empire_timer_1 value = 240 } } } #timer in months
					hidden_effect = {
						add_dip_power = 50
						add_adm_power = 100
						hidden_effect = { change_variable = { which = phoenix_empire_timed_missions_completed value = 1 } }
					}
				}
				if = {
					limit = { mission_completed = phoenix_empire_secure_bahar } #Have completed the previous mission
					custom_tooltip = phoenix_empire_months_since_completing_previous_mission_1_tt
				}
			}
			hidden_effect = {
				set_variable = { which = phoenix_empire_timer_2 value = 0 }
			}
		}
	}
	
	phoenix_empire_the_shining_blade = {
		icon = mission_heated_battle
		ai = yes
		position = 11
		
		required_missions = {
			phoenix_empire_the_corvurian_protectorate
		}
		
		provinces_to_highlight = {
			OR = {
				region = south_castanor_region
			}
			NOT = {
				owned_by = ROOT
			}
		}
		
		trigger = {
			num_of_owned_provinces_with = {
				region = south_castanor_region
				value = 20
			}
			817 = { owned_by = ROOT }
		}
		
		effect = {
			custom_tooltip = phoenix_conquest_cb_20_tt
			hidden_effect = {
				add_country_modifier = {
					name = phoenix_conquest_cb_mod
					hidden = yes
					duration = 7300
				}
			}
			
			inner_castanor_region = {
				limit = {
					NOT = {
						owned_by = ROOT
						is_core = ROOT
					}
				}
				add_permanent_claim = ROOT
			}
			
			#Timer
			if = {
				limit = { NOT = { mission_completed = phoenix_empire_the_shining_blade } } #Have not completed this mission
				custom_tooltip = phoenix_empire_if_completed_previous_mission_20_tt
				tooltip = {
					add_mil_power = 50
					add_adm_power = 100
				}
				if = {
					limit = { NOT = { check_variable = { which = phoenix_empire_timer_2 value = 240 } } } #timer in months
					hidden_effect = {
						add_mil_power = 50
						add_adm_power = 100
						hidden_effect = { change_variable = { which = phoenix_empire_timed_missions_completed value = 1 } }
					}
				}
				if = {
					limit = { mission_completed = phoenix_empire_the_corvurian_protectorate } #Have completed the previous mission
					custom_tooltip = phoenix_empire_months_since_completing_previous_mission_2_tt
				}
			}
			hidden_effect = {
				set_variable = { which = phoenix_empire_timer_2 value = 0 }
			}
		}
	}
	
	phoenix_empire_no_more_witch_kings = {
		icon = mission_white_tower
		ai = yes
		position = 12
		
		required_missions = {
			phoenix_empire_the_shining_blade
		}
		
		provinces_to_highlight = {
			OR = {
				region = inner_castanor_region
			}
			NOT = {
				owned_by = ROOT
			}
		}
		
		trigger = {
			num_of_owned_provinces_with = {
				region = inner_castanor_region
				value = 20
			}
			840 = { owned_by = ROOT }
			831 = { owned_by = ROOT }
			832 = { owned_by = ROOT }
			833 = { owned_by = ROOT }
		}
		
		effect = {
			country_event = {
				id = phoenix_empire.4
			}
			
			#Timer
			if = {
				limit = { NOT = { mission_completed = phoenix_empire_no_more_witch_kings } } #Have not completed this mission
				custom_tooltip = phoenix_empire_if_completed_previous_mission_20_tt
				tooltip = {
					add_power_projection = {
						type = mission_rewards_power_projection
						amount = 25
					}
				}
				if = {
					limit = { NOT = { check_variable = { which = phoenix_empire_timer_2 value = 240 } } } #timer in months
					hidden_effect = {
						add_power_projection = {
							type = mission_rewards_power_projection
							amount = 25
						}
						hidden_effect = { change_variable = { which = phoenix_empire_timed_missions_completed value = 1 } }
					}
				}
				if = {
					limit = { mission_completed = phoenix_empire_the_shining_blade } #Have completed the previous mission
					custom_tooltip = phoenix_empire_months_since_completing_previous_mission_2_tt
				}
			}
		}
	}
	
	phoenix_empire_outshine_the_moon = {
		icon = mission_moon_moon
		ai = yes
		position = 13
		
		required_missions = {
			phoenix_empire_jexis_conquest
		}
		
		provinces_to_highlight = {
			OR = {
				area = north_ibevar_area
				area = south_ibevar_area
			}
			NOT = {
				owned_by = ROOT
			}
		}
		
		trigger = {
			north_ibevar_area = {
				type = all
				owned_by = ROOT
			}
			south_ibevar_area = {
				type = all
				owned_by = ROOT
			}
			NOT = { exists = A32 }
			
			num_of_owned_provinces_with = {
				culture = moon_elf
				value = 10
			}
		}
		
		effect = {
			custom_tooltip = phoenix_empire_outshine_the_moon_tt
			hidden_effect = {
				every_owned_province = {
					limit = { culture = moon_elf }
					add_province_modifier = {
						name = phoenix_empire_the_sun_outshines_the_moon
						hidden = yes
						duration = -1
					}
				}
				set_country_flag = phoenix_empire_the_sun_outshines_the_moon_flag
			}
			country_event = {
				id = phoenix_empire.5
			}
			
			#Timer
			if = {
				limit = { NOT = { mission_completed = phoenix_empire_outshine_the_moon } } #Have not completed this mission
				custom_tooltip = phoenix_empire_if_completed_previous_mission_20_tt
				tooltip = {
					add_dip_power = 150
				}
				if = {
					limit = { NOT = { check_variable = { which = phoenix_empire_timer_1 value = 240 } } } #timer in months
					hidden_effect = {
						add_dip_power = 150
						hidden_effect = { change_variable = { which = phoenix_empire_timed_missions_completed value = 1 } }
					}
				}
				if = {
					limit = { mission_completed = phoenix_empire_jexis_conquest } #Have completed the previous mission
					custom_tooltip = phoenix_empire_months_since_completing_previous_mission_1_tt
				}
			}
		}
	}
	
	phoenix_empire_the_length_of_the_divenhal = {
		icon = colonize_the_cape
		ai = yes
		position = 14
		
		required_missions = {
			phoenix_empire_jahers_inheritance
		}
		
		provinces_to_highlight = {
			OR = {
				region = akan_region
			}
			NOT = {
				owned_by = ROOT
			}
		}
		
		trigger = {
			num_of_owned_provinces_with = {
				region = akan_region
				value = 20
			}
			402 = { owned_by = ROOT }
		}
		
		effect = {
			add_country_modifier = {
				name = phoenix_empire_the_phoenix_sea
				duration = 9125
			}
			country_event = {
				id = phoenix_empire.6
			}
			
			#Timer
			if = {
				limit = { NOT = { mission_completed = phoenix_empire_the_length_of_the_divenhal } } #Have not completed this mission
				custom_tooltip = phoenix_empire_if_completed_previous_mission_20_tt
				tooltip = {
					402 = {
						build_to_forcelimit = {
							light_ship = 0.2
						}
					}
				}
				if = {
					limit = { NOT = { check_variable = { which = phoenix_empire_timer_3 value = 240 } } } #timer in months
					hidden_effect = {
						402 = {
							build_to_forcelimit = {
								light_ship = 0.2
							}
						}
						hidden_effect = { change_variable = { which = phoenix_empire_timed_missions_completed value = 1 } }
					}
				}
				if = {
					limit = { mission_completed = phoenix_empire_jahers_inheritance } #Have completed the previous mission
					custom_tooltip = phoenix_empire_months_since_completing_previous_mission_3_tt
				}
			}
		}
	}
	
	phoenix_empire_capital_of_the_west = {
		icon = expand_the_doges_palace
		ai = yes
		position = 15
		
		required_missions = {
			phoenix_empire_one_empire
		}
		
		provinces_to_highlight = {
			province_id = 8
		}
		
		trigger = {
			8 = {
				has_building = town_hall
				has_building = cathedral
				religion = bulwari_sun_cult
			}
		}
		
		effect = {
			add_country_modifier = {
				name = phoenix_empire_the_capital_of_the_west
				duration = -1
			}
			country_event = {
				id = phoenix_empire.7
			}
		}
	}
	
	phoenix_empire_westward_missions = {
		icon = hand-picked_bureaucrats
		ai = yes
		position = 18
		
		required_missions = {
			phoenix_empire_bright_bulwar
		}
		
		provinces_to_highlight = {
			
		}
		
		trigger = {
			calc_true_if = {
				amount = 200
				europe = {
					type = all
					religion = bulwari_sun_cult
				}
			}
		}
		
		effect = {
			add_country_modifier = {
				name = phoenix_empire_missions_for_the_setting_sun
				duration = 18250
			}
		}
	}
	
	phoenix_empire_effulgent_escann = {
		icon = claim_tirol
		ai = yes
		position = 20
		
		required_missions = {
			phoenix_empire_westward_missions
		}
		
		provinces_to_highlight = {
			OR = {
				superregion = escann_superregion
			}
			NOT = {
				religion = bulwari_sun_cult
			}
		}
		
		trigger = {
			escann_superregion = {
				type = all
				OR = {
					religion = bulwari_sun_cult
					is_city = no
				}
			}
		}
		
		effect = {
			if = {
				limit = { has_country_modifier = phoenix_empire_the_glory_of_surakel_4 }
				remove_country_modifier = phoenix_empire_the_glory_of_surakel_4
				add_country_modifier = {
					name = phoenix_empire_the_glory_of_surakel_5
					duration = -1
				}
			}
			else_if = {
				limit = { has_country_modifier = phoenix_empire_the_glory_of_surakel_3 }
				remove_country_modifier = phoenix_empire_the_glory_of_surakel_3
				add_country_modifier = {
					name = phoenix_empire_the_glory_of_surakel_4
					duration = -1
				}
			}
			else_if = {
				limit = { has_country_modifier = phoenix_empire_the_glory_of_surakel_2 }
				remove_country_modifier = phoenix_empire_the_glory_of_surakel_2
				add_country_modifier = {
					name = phoenix_empire_the_glory_of_surakel_3
					duration = -1
				}
			}
			else_if = {
				limit = { has_country_modifier = phoenix_empire_the_glory_of_surakel_1 }
				remove_country_modifier = phoenix_empire_the_glory_of_surakel_1
				add_country_modifier = {
					name = phoenix_empire_the_glory_of_surakel_2
					duration = -1
				}
			}
			else = {
				add_country_modifier = {
					name = phoenix_empire_the_glory_of_surakel_1
					duration = -1
				}
			}
			country_event = {
				id = phoenix_empire.8
			}
		}
	}
}


phoenix_empire_3 = {
	slot = 3
	generic = no
	ai = yes
	has_country_shield = yes
	
	potential = {
		tag = F38
		NOT = { was_tag = F52 }
	}
	
	phoenix_empire_revive_the_phoenix = {
		icon = mission_sweat_fealty
		ai = yes
		position = 6
		
		required_missions = {
			
		}
		
		provinces_to_highlight = {
			OR = {
				superregion = bulwar_superregion
			}
			NOT = {
				owned_by = ROOT
			}
		}
		
		trigger = {
			bulwar_superregion = {
				type = all
				owned_by = ROOT
			}
		}
		
		effect = {
			add_government_reform = phoenix_empire
		}
	}
	
	phoenix_empire_ignite_the_phoenix = {
		icon = mission_torch_fire
		ai = yes
		position = 7
		
		required_missions = {
			phoenix_empire_revive_the_phoenix
		}
		
		trigger = {
			total_development = 2000
		}
		
		effect = {
			add_government_reform = jaherian_administration
		}
	}
	
	phoenix_empire_don_the_phoenix_crown = {
		icon = mission_in_the_name_of_the_fallen
		ai = yes
		position = 8
		
		required_missions = {
			phoenix_empire_ignite_the_phoenix
		}
		
		trigger = {
			crown_land_share = 50
			adm = 6
			dip = 6
			mil = 6
			custom_trigger_tooltip = {
				tooltip = phoenix_empire_don_the_phoenix_crown_tt
				check_variable = {
					which = phoenix_empire_timed_missions_completed
					value = 10
				}
			}
		}
		
		effect = {
			country_event = {
				id = phoenix_empire.9
			}
		}
	}
	
	phoenix_empire_a_crossroads_of_ideas = {
		icon = mission_restore_caliphate_of_cordoba
		ai = yes
		position = 10
		
		required_missions = {
			phoenix_empire_bulwar_renaissance
			phoenix_empire_the_east_west_trade
		}
		
		trigger = {
			num_of_owned_provinces_with = {
				value = 20
				superregion = bulwar_superregion
				has_building = university
			}
			calc_true_if = {
				all_known_country = {
					is_subject = no
					has_opinion = {
						who = ROOT
						value = 120
					}
				}
				amount = 10
			}
		}
		
		effect = {
			country_event = {
				id = phoenix_empire.20
			}
		}
	}
	
	phoenix_empire_heliocentric_halann = {
		icon = jerusalem
		ai = yes
		position = 11
		
		required_missions = {
			phoenix_empire_a_grand_celebration
			phoenix_empire_a_crossroads_of_ideas
		}
		
		provinces_to_highlight = {
			
		}
		
		trigger = {
			absolutism = 90
			custom_trigger_tooltip = {
				tooltip = phoenix_empire_have_10_tolerance_own_tt
				has_global_modifier_value = { which = tolerance_own value = 10 }
			}
			custom_trigger_tooltip = {
				tooltip = phoenix_empire_have_7_diplomatic_reputation_tt
				has_global_modifier_value = { which = diplomatic_reputation value = 7 }
			}
			great_power_rank = 1
			custom_trigger_tooltip = {
				tooltip = phoenix_empire_development_is_more_than_25_percent_tt
				NOT = {
					any_known_country = {
						is_great_power = yes
						variable_arithmetic_trigger = {
							custom_tooltip = phoenix_empire_development_is_more_than_25_percent_tt
							export_to_variable = {
								which = their_total_development
								value = trigger_value:total_development
							}
							export_to_variable = {
								which = our_total_development
								value = trigger_value:total_development
								who = ROOT
							}
							multiply_variable = { which = their_total_development value = 4 }
							
							check_variable = { which = their_total_development which = our_total_development }
						}
					}
				}
			}
		}
		
		effect = {
			country_event = {
				id = phoenix_empire.21
			}
		}
	}
	
	phoenix_empire_secure_bulwar = {
		icon = mission_into_persia_2
		ai = yes
		position = 12
		
		required_missions = {
			
		}
		
		provinces_to_highlight = {
			OR = {
				region = bulwar_proper_region
			}
			NOT = {
				owned_by = ROOT
			}
		}
		
		trigger = {
			bulwar_proper_region = {
				type = all
				owned_by = ROOT
			}
		}
		
		effect = {
			custom_tooltip = phoenix_conquest_cb_20_tt
			hidden_effect = {
				add_country_modifier = {
					name = phoenix_conquest_cb_mod
					hidden = yes
					duration = 7300
				}
			}
			
			north_salahad_region = {
				limit = {
					NOT = {
						owned_by = ROOT
						is_core = ROOT
					}
				}
				add_permanent_claim = ROOT
			}
			
			hidden_effect = {
				set_variable = { which = phoenix_empire_timer_3 value = 0 }
			}
		}
	}
	
	phoenix_empire_jahers_inheritance = {
		icon = mission_the_songhai_campaign
		ai = yes
		position = 13
		
		required_missions = {
			phoenix_empire_secure_bulwar
		}
		
		provinces_to_highlight = {
			OR = {
				region = north_salahad_region
			}
			NOT = {
				owned_by = ROOT
			}
		}
		
		trigger = {
			num_of_owned_provinces_with = {
				region = north_salahad_region
				value = 20
			}
			475 = { owned_by = ROOT }
			OR = {
				is_emperor_of_china = yes
				NOT = {
					any_country = {
						is_emperor_of_china = yes
					}
				}
			}
		}
		
		effect = {
			custom_tooltip = phoenix_conquest_cb_20_tt
			hidden_effect = {
				add_country_modifier = {
					name = phoenix_conquest_cb_mod
					hidden = yes
					duration = 7300
				}
			}
			
			akan_region = {
				limit = {
					NOT = {
						owned_by = ROOT
						is_core = ROOT
					}
				}
				add_permanent_claim = ROOT
			}
			gol_region = {
				limit = {
					NOT = {
						owned_by = ROOT
						is_core = ROOT
					}
				}
				add_permanent_claim = ROOT
			}
			country_event = {
				id = phoenix_empire.11
			}
			
			#Timer
			if = {
				limit = { NOT = { mission_completed = phoenix_empire_jahers_inheritance } } #Have not completed this mission
				custom_tooltip = phoenix_empire_if_completed_previous_mission_20_tt
				tooltip = {
					add_power_projection = {
						type = mission_rewards_power_projection
						amount = 25
					}
					add_mandate = 20
				}
				if = {
					limit = { NOT = { check_variable = { which = phoenix_empire_timer_3 value = 240 } } } #timer in months
					hidden_effect = {
						add_power_projection = {
							type = mission_rewards_power_projection
							amount = 25
						}
						add_mandate = 20
						hidden_effect = { change_variable = { which = phoenix_empire_timed_missions_completed value = 1 } }
					}
				}
				if = {
					limit = { mission_completed = phoenix_empire_secure_bulwar } #Have completed the previous mission
					custom_tooltip = phoenix_empire_months_since_completing_previous_mission_3_tt
				}
			}
			hidden_effect = {
				set_variable = { which = phoenix_empire_timer_3 value = 0 }
			}
		}
	}
	
	phoenix_empire_push_south = {
		icon = mission_conquer_benin
		ai = yes
		position = 14
		
		required_missions = {
			phoenix_empire_jahers_inheritance
		}
		
		provinces_to_highlight = {
			OR = {
				region = gol_region
			}
			NOT = {
				owned_by = ROOT
			}
		}
		
		trigger = {
			num_of_owned_provinces_with = {
				region = gol_region
				value = 20
			}
		}
		
		effect = {
			custom_tooltip = phoenix_conquest_cb_20_tt
			hidden_effect = {
				add_country_modifier = {
					name = phoenix_conquest_cb_mod
					hidden = yes
					duration = 7300
				}
			}
			
			nirakhet_range_region = {
				limit = {
					NOT = {
						owned_by = ROOT
						is_core = ROOT
					}
				}
				add_permanent_claim = ROOT
			}
			barkazan_region = {
				limit = {
					NOT = {
						owned_by = ROOT
						is_core = ROOT
					}
				}
				add_permanent_claim = ROOT
			}
			
			#Timer
			if = {
				limit = { NOT = { mission_completed = phoenix_empire_push_south } } #Have not completed this mission
				custom_tooltip = phoenix_empire_if_completed_previous_mission_20_tt
				tooltip = {
					gol_region = {
						limit = {
							owned_by = ROOT
						}
						add_unrest = -3
						add_nationalism = -5
					}
				}
				if = {
					limit = { NOT = { check_variable = { which = phoenix_empire_timer_3 value = 240 } } } #timer in months
					hidden_effect = {
						gol_region = {
							limit = {
								owned_by = ROOT
							}
							add_unrest = -3
							add_nationalism = -5
						}
						hidden_effect = { change_variable = { which = phoenix_empire_timed_missions_completed value = 1 } }
					}
				}
				if = {
					limit = { mission_completed = phoenix_empire_jahers_inheritance } #Have completed the previous mission
					custom_tooltip = phoenix_empire_months_since_completing_previous_mission_3_tt
				}
			}
			hidden_effect = {
				set_variable = { which = phoenix_empire_timer_3 value = 0 }
			}
		}
	}
	
	phoenix_empire_circle_around = {
		icon = mission_conquer_timbuktu
		ai = yes
		position = 15
		
		required_missions = {
			phoenix_empire_push_south
		}
		
		provinces_to_highlight = {
			OR = {
				region = barkazan_region
			}
			NOT = {
				owned_by = ROOT
			}
		}
		
		trigger = {
			num_of_owned_provinces_with = {
				region = barkazan_region
				value = 20
			}
		}
		
		effect = {
			custom_tooltip = phoenix_conquest_cb_20_tt
			hidden_effect = {
				add_country_modifier = {
					name = phoenix_conquest_cb_mod
					hidden = yes
					duration = 7300
				}
			}
			
			horncost_region = {
				limit = {
					NOT = {
						owned_by = ROOT
						is_core = ROOT
					}
				}
				add_permanent_claim = ROOT
			}
			
			#Timer
			if = {
				limit = { NOT = { mission_completed = phoenix_empire_circle_around } } #Have not completed this mission
				custom_tooltip = phoenix_empire_if_completed_previous_mission_20_tt
				tooltip = {
					add_mil_power = 50
					add_adm_power = 100
				}
				if = {
					limit = { NOT = { check_variable = { which = phoenix_empire_timer_3 value = 240 } } } #timer in months
					hidden_effect = {
						add_mil_power = 50
						add_adm_power = 100
						hidden_effect = { change_variable = { which = phoenix_empire_timed_missions_completed value = 1 } }
					}
				}
				if = {
					limit = { mission_completed = phoenix_empire_push_south } #Have completed the previous mission
					custom_tooltip = phoenix_empire_months_since_completing_previous_mission_3_tt
				}
			}
			hidden_effect = {
				set_variable = { which = phoenix_empire_timer_3 value = 0 }
			}
		}
	}
	
	phoenix_empire_the_gulf_of_rahen = {
		icon = mission_portuguese_malacca
		ai = yes
		position = 16
		
		required_missions = {
			phoenix_empire_circle_around
		}
		
		provinces_to_highlight = {
			OR = {
				region = horncost_region
			}
			NOT = {
				owned_by = ROOT
			}
		}
		
		trigger = {
			num_of_owned_provinces_with = {
				region = horncost_region
				value = 20
			}
		}
		
		effect = {
			country_event = {
				id = phoenix_empire.12
			}
			
			#Timer
			if = {
				limit = { NOT = { mission_completed = phoenix_empire_the_gulf_of_rahen } } #Have not completed this mission
				custom_tooltip = phoenix_empire_if_completed_previous_mission_20_tt
				tooltip = {
					add_adm_power = 100
					random_owned_province = {
						limit = { region = horncost_region has_port = yes }
						build_to_forcelimit = {
							light_ship = 0.2
						}
					}
				}
				if = {
					limit = { NOT = { check_variable = { which = phoenix_empire_timer_3 value = 240 } } } #timer in months
					hidden_effect = {
						add_adm_power = 100
						random_owned_province = {
							limit = { region = horncost_region has_port = yes }
							build_to_forcelimit = {
								light_ship = 0.2
							}
						}
						hidden_effect = { change_variable = { which = phoenix_empire_timed_missions_completed value = 1 } }
					}
				}
				if = {
					limit = { mission_completed = phoenix_empire_circle_around } #Have completed the previous mission
					custom_tooltip = phoenix_empire_months_since_completing_previous_mission_3_tt
				}
			}
		}
	}
	
	phoenix_empire_bright_bulwar = {
		icon = mission_sun_temple
		ai = yes
		position = 17
		
		required_missions = {
			
		}
		
		provinces_to_highlight = {
			OR = {
				superregion = bulwar_superregion
			}
			NOT = {
				religion = bulwari_sun_cult
			}
		}
		
		trigger = {
			bulwar_superregion = {
				type = all
				religion = bulwari_sun_cult
			}
		}
		
		effect = {
			add_country_modifier = {
				name = phoenix_empire_the_homeland_of_surael
				duration = 18250
			}
		}
	}
	
	phoenix_empire_southward_missions = {
		icon = mission_saharan_route
		ai = yes
		position = 18
		
		required_missions = {
			phoenix_empire_bright_bulwar
		}
		
		provinces_to_highlight = {
			
		}
		
		trigger = {
			calc_true_if = {
				amount = 80
				salahad_superregion = {
					type = all
					religion = bulwari_sun_cult
				}
			}
		}
		
		effect = {
			add_country_modifier = {
				name = phoenix_empire_missions_for_the_rising_sun
				duration = 18250
			}
		}
	}
	
	phoenix_empire_sunny_salahad = {
		icon = mission_invade_mali
		ai = yes
		position = 21
		
		required_missions = {
			phoenix_empire_southward_missions
		}
		
		provinces_to_highlight = {
			OR = {
				superregion = salahad_superregion
			}
			NOT = {
				religion = bulwari_sun_cult
			}
		}
		
		trigger = {
			salahad_superregion = {
				type = all
				OR = {
					religion = bulwari_sun_cult
					is_city = no
				}
			}
		}
		
		effect = {
			if = {
				limit = { has_country_modifier = phoenix_empire_the_glory_of_surakel_4 }
				remove_country_modifier = phoenix_empire_the_glory_of_surakel_4
				add_country_modifier = {
					name = phoenix_empire_the_glory_of_surakel_5
					duration = -1
				}
			}
			else_if = {
				limit = { has_country_modifier = phoenix_empire_the_glory_of_surakel_3 }
				remove_country_modifier = phoenix_empire_the_glory_of_surakel_3
				add_country_modifier = {
					name = phoenix_empire_the_glory_of_surakel_4
					duration = -1
				}
			}
			else_if = {
				limit = { has_country_modifier = phoenix_empire_the_glory_of_surakel_2 }
				remove_country_modifier = phoenix_empire_the_glory_of_surakel_2
				add_country_modifier = {
					name = phoenix_empire_the_glory_of_surakel_3
					duration = -1
				}
			}
			else_if = {
				limit = { has_country_modifier = phoenix_empire_the_glory_of_surakel_1 }
				remove_country_modifier = phoenix_empire_the_glory_of_surakel_1
				add_country_modifier = {
					name = phoenix_empire_the_glory_of_surakel_2
					duration = -1
				}
			}
			else = {
				add_country_modifier = {
					name = phoenix_empire_the_glory_of_surakel_1
					duration = -1
				}
			}
			country_event = {
				id = phoenix_empire.13
			}
		}
	}
}


phoenix_empire_4 = {
	slot = 4
	generic = no
	ai = yes
	has_country_shield = yes
	
	potential = {
		tag = F38
		NOT = { was_tag = F52 }
	}
	
	phoenix_empire_bulwar_renaissance = {
		icon = mission_reclaim_dehli
		ai = yes
		position = 9
		
		required_missions = {
			phoenix_empire_growth_of_the_bulwari_cities
		}
		
		provinces_to_highlight = {
			
		}
		
		trigger = {
			num_of_owned_provinces_with = {
				value = 50
				superregion = bulwar_superregion
				custom_trigger_tooltip = {
					tooltip = province_is_prosperous
					is_prosperous = yes
				}
			}
			NOT = { is_lacking_institutions = yes }
			has_adm_advisor_3 = yes
			has_dip_advisor_3 = yes
			has_mil_advisor_3 = yes
			current_income_balance = 30
		}
		
		effect = {
			capital_scope = {
				add_base_tax = 3
				add_base_production = 3
				add_base_manpower = 1
			}
		
			custom_tooltip = phoenix_empire_palace_build_tt
			hidden_effect = { set_country_flag = phoenix_empire_palace_build_flag }
		}
	}
	
	
	phoenix_empire_a_grand_celebration = {
		icon = mission_fatimid_caliphate
		ai = yes
		position = 10
		
		required_missions = {
			phoenix_empire_bulwar_renaissance
		}
		
		provinces_to_highlight = {
			
		}
		
		trigger = {
			custom_trigger_tooltip = {
				tooltip = phoenix_empire_palace_completed_tt
				capital_scope = {
					OR = {
						has_province_modifier =  phoenix_empire_complete_palace
						has_province_modifier =  phoenix_empire_complete_palace_large
						has_province_modifier =  phoenix_empire_complete_palace_massive
					}
				}
			}
			treasury = 500
			dip_power = 100
		}
		
		effect = {
			add_treasury = -500
			add_dip_power = -100
			country_event = {
				id = phoenix_empire.10
				days = 365
			}
		}
	}
	
	phoenix_empire_crossing_the_kharunyana = {
		icon = mission_junk_boat
		ai = yes
		position = 11
		
		required_missions = {
			phoenix_empire_the_ruin_of_the_raj
		}
		
		provinces_to_highlight = {
			OR = {
				region = bomdan_region
			}
			NOT = {
				owned_by = ROOT
			}
		}
		
		trigger = {
			num_of_owned_provinces_with = {
				region = bomdan_region
				value = 30
			}
		}
		
		effect = {
			custom_tooltip = phoenix_conquest_cb_20_tt
			hidden_effect = {
				add_country_modifier = {
					name = phoenix_conquest_cb_mod
					hidden = yes
					duration = 7300
				}
			}
			
			thidinkai_region = {
				limit = {
					NOT = {
						owned_by = ROOT
						is_core = ROOT
					}
				}
				add_permanent_claim = ROOT
			}
			
			#Timer
			if = {
				limit = { NOT = { mission_completed = phoenix_empire_crossing_the_kharunyana } } #Have not completed this mission
				custom_tooltip = phoenix_empire_if_completed_previous_mission_20_tt
				tooltip = {
					add_mil_power = 50
					add_adm_power = 100
				}
				if = {
					limit = { NOT = { check_variable = { which = phoenix_empire_timer_5 value = 240 } } } #timer in months
					hidden_effect = {
						add_mil_power = 50
						add_adm_power = 100
						hidden_effect = { change_variable = { which = phoenix_empire_timed_missions_completed value = 1 } }
					}
				}
				if = {
					limit = { mission_completed = phoenix_empire_the_ruin_of_the_raj } #Have completed the previous mission
					custom_tooltip = phoenix_empire_months_since_completing_previous_mission_5_tt
				}
			}
			hidden_effect = {
				set_variable = { which = phoenix_empire_timer_4 value = 0 }
			}
		}
	}
	
	phoenix_empire_where_jaher_failed = {
		icon = mission_conquer_lower_burma_tau
		ai = yes
		position = 12
		
		required_missions = {
			phoenix_empire_crossing_the_kharunyana
		}
		
		provinces_to_highlight = {
			OR = {
				region = thidinkai_region
			}
			NOT = {
				owned_by = ROOT
			}
		}
		
		trigger = {
			num_of_owned_provinces_with = {
				region = thidinkai_region
				value = 20
			}
		}
		
		effect = {
			custom_tooltip = phoenix_conquest_cb_20_tt
			hidden_effect = {
				add_country_modifier = {
					name = phoenix_conquest_cb_mod
					hidden = yes
					duration = 7300
				}
			}
			
			lupulan_rainforest_region = {
				limit = {
					NOT = {
						owned_by = ROOT
						is_core = ROOT
					}
				}
				add_permanent_claim = ROOT
			}
			
			#Timer
			if = {
				limit = { NOT = { mission_completed = phoenix_empire_where_jaher_failed } } #Have not completed this mission
				custom_tooltip = phoenix_empire_if_completed_previous_mission_20_tt
				tooltip = {
					add_power_projection = {
						type = mission_rewards_power_projection
						amount = 25
					}
				}
				if = {
					limit = { NOT = { check_variable = { which = phoenix_empire_timer_4 value = 240 } } } #timer in months
					hidden_effect = {
						add_power_projection = {
							type = mission_rewards_power_projection
							amount = 25
						}
						hidden_effect = { change_variable = { which = phoenix_empire_timed_missions_completed value = 1 } }
					}
				}
				if = {
					limit = { mission_completed = phoenix_empire_crossing_the_kharunyana } #Have completed the previous mission
					custom_tooltip = phoenix_empire_months_since_completing_previous_mission_4_tt
				}
			}
			hidden_effect = {
				set_variable = { which = phoenix_empire_timer_4 value = 0 }
			}
		}
	}
	
	phoenix_empire_long_lost_brothers = {
		icon = mission_kanbawzathadi_palace
		ai = yes
		position = 13
		
		required_missions = {
			phoenix_empire_where_jaher_failed
		}
		
		provinces_to_highlight = {
			OR = {
				region = lupulan_rainforest_region
			}
			NOT = {
				owned_by = ROOT
			}
		}
		
		trigger = {
			num_of_owned_provinces_with = {
				region = lupulan_rainforest_region
				value = 20
			}
			4963 = { owned_by = ROOT }
		}
		
		effect = {
			lupulan_rainforest_region = {
				limit = {
					owned_by = ROOT
					NOT = { religion =  bulwari_sun_cult }
				}
				add_province_modifier = {
					name = phoenix_empire_the_eastern_sun
					duration = 9125
				}
			}
			country_event = {
				id = phoenix_empire.14
			}
			
			#Timer
			if = {
				limit = { NOT = { mission_completed = phoenix_empire_long_lost_brothers } } #Have not completed this mission
				custom_tooltip = phoenix_empire_if_completed_previous_mission_20_tt
				tooltip = {
					add_dip_power = 50
					add_adm_power = 100
				}
				if = {
					limit = { NOT = { check_variable = { which = phoenix_empire_timer_4 value = 240 } } } #timer in months
					hidden_effect = {
						add_dip_power = 50
						add_adm_power = 100
						hidden_effect = { change_variable = { which = phoenix_empire_timed_missions_completed value = 1 } }
					}
				}
				if = {
					limit = { mission_completed = phoenix_empire_where_jaher_failed } #Have completed the previous mission
					custom_tooltip = phoenix_empire_months_since_completing_previous_mission_4_tt
				}
			}
		}
	}
	
	phoenix_empire_make_the_oni_bow = {
		icon = mission_restore_the_pagan_kingdom
		ai = yes
		position = 14
		
		required_missions = {
			phoenix_empire_the_cradle_of_the_east
		}
		
		provinces_to_highlight = {
			OR = {
				region = demon_hills_region
			}
			NOT = {
				owned_by = ROOT
			}
		}
		
		trigger = {
			num_of_owned_provinces_with = {
				region = demon_hills_region
				value = 10
			}
		}
		
		effect = {
			add_mil_power = 150
			
			#Timer
			if = {
				limit = { NOT = { mission_completed = phoenix_empire_make_the_oni_bow } } #Have not completed this mission
				custom_tooltip = phoenix_empire_if_completed_previous_mission_20_tt
				tooltip = {
					add_mil_power = 50
					add_adm_power = 100
				}
				if = {
					limit = { NOT = { check_variable = { which = phoenix_empire_timer_5 value = 240 } } } #timer in months
					hidden_effect = {
						add_mil_power = 50
						add_adm_power = 100
						hidden_effect = { change_variable = { which = phoenix_empire_timed_missions_completed value = 1 } }
					}
				}
				if = {
					limit = { mission_completed = phoenix_empire_the_cradle_of_the_east } #Have completed the previous mission
					custom_tooltip = phoenix_empire_months_since_completing_previous_mission_5_tt
				}
			}
		}
	}
	
	phoenix_empire_old_gold = {
		icon = mission_entrepot_of_india
		ai = yes
		position = 15
		
		required_missions = {
			phoenix_empire_push_south
		}
		
		provinces_to_highlight = {
			OR = {
				region = nirakhet_range_region
			}
			NOT = {
				owned_by = ROOT
			}
		}
		
		trigger = {
			num_of_owned_provinces_with = {
				region = nirakhet_range_region
				value = 20
			}
			num_of_owned_provinces_with = {
				region = nirakhet_range_region
				trade_goods = gold
				value = 3
			}
		}
		
		effect = {
			add_country_modifier = {
				name = phoenix_empire_gold_of_the_old_khet
				duration = 7300
			}
			
			#Timer
			if = {
				limit = { NOT = { mission_completed = phoenix_empire_old_gold } } #Have not completed this mission
				custom_tooltip = phoenix_empire_if_completed_previous_mission_20_tt
				tooltip = {
					add_years_of_income = 5
				}
				if = {
					limit = { NOT = { check_variable = { which = phoenix_empire_timer_3 value = 240 } } } #timer in months
					hidden_effect = {
						add_years_of_income = 5
						hidden_effect = { change_variable = { which = phoenix_empire_timed_missions_completed value = 1 } }
					}
				}
				if = {
					limit = { mission_completed = phoenix_empire_push_south } #Have completed the previous mission
					custom_tooltip = phoenix_empire_months_since_completing_previous_mission_3_tt
				}
			}
		}
	}
	
	phoenix_empire_eastward_missions = {
		icon = mission_gharbianss
		ai = yes
		position = 18
		
		required_missions = {
			phoenix_empire_bright_bulwar
		}
		
		provinces_to_highlight = {
			
		}
		
		trigger = {
			calc_true_if = {
				amount = 200
				asia = {
					type = all
					religion = bulwari_sun_cult
				}
			}
		}
		
		effect = {
			add_country_modifier = {
				name = phoenix_empire_missions_for_the_burning_sun
				duration = 18250
			}
		}
	}
	
	phoenix_empire_radiant_rahen = {
		icon = mission_city_of_victory_bah
		ai = yes
		position = 20
		
		required_missions = {
			phoenix_empire_eastward_missions
		}
		
		provinces_to_highlight = {
			OR = {
				superregion = rahen_superregion
			}
			NOT = {
				religion = bulwari_sun_cult
			}
		}
		
		trigger = {
			rahen_superregion = {
				type = all
				OR = {
					religion = bulwari_sun_cult
					is_city = no
				}
			}
		}
		
		effect = {
			if = {
				limit = { has_country_modifier = phoenix_empire_the_glory_of_surakel_4 }
				remove_country_modifier = phoenix_empire_the_glory_of_surakel_4
				add_country_modifier = {
					name = phoenix_empire_the_glory_of_surakel_5
					duration = -1
				}
			}
			else_if = {
				limit = { has_country_modifier = phoenix_empire_the_glory_of_surakel_3 }
				remove_country_modifier = phoenix_empire_the_glory_of_surakel_3
				add_country_modifier = {
					name = phoenix_empire_the_glory_of_surakel_4
					duration = -1
				}
			}
			else_if = {
				limit = { has_country_modifier = phoenix_empire_the_glory_of_surakel_2 }
				remove_country_modifier = phoenix_empire_the_glory_of_surakel_2
				add_country_modifier = {
					name = phoenix_empire_the_glory_of_surakel_3
					duration = -1
				}
			}
			else_if = {
				limit = { has_country_modifier = phoenix_empire_the_glory_of_surakel_1 }
				remove_country_modifier = phoenix_empire_the_glory_of_surakel_1
				add_country_modifier = {
					name = phoenix_empire_the_glory_of_surakel_2
					duration = -1
				}
			}
			else = {
				add_country_modifier = {
					name = phoenix_empire_the_glory_of_surakel_1
					duration = -1
				}
			}
			country_event = {
				id = phoenix_empire.15
			}
		}
	}
}


phoenix_empire_5 = {
	slot = 5
	generic = no
	ai = yes
	has_country_shield = yes
	
	potential = {
		tag = F38
		NOT = { was_tag = F52 }
	}
	
	phoenix_empire_expanding_the_farmlands = {
		icon = austria_prospers
		ai = yes
		position = 7
		
		required_missions = {
			
		}
		
		
		provinces_to_highlight = {
			owned_by = ROOT
			superregion = bulwar_superregion
			trade_goods = grain
			has_building = farm_estate
		}
		
		trigger = {
			num_of_owned_provinces_with = {
				value = 20
				superregion = bulwar_superregion
				trade_goods = grain
				has_manufactory_trigger = yes
			}
		}
		
		effect = {
			bulwar_superregion = {
				limit = { owned_by = ROOT }
				add_province_modifier = {
					name = phoenix_empire_bulwari_population_boom
					duration = 9125
				}
			}
		}
	}
	
	phoenix_empire_growth_of_the_bulwari_cities = {
		icon = mission_found_udaipur
		ai = yes
		position = 8
		
		required_missions = {
			phoenix_empire_expanding_the_farmlands
		}
		
		trigger = {
			num_of_owned_provinces_with = {
				value = 10
				superregion = bulwar_superregion
				development = 30
				NOT = { num_free_building_slots = 1 }
			}
		}
		
		effect = {
			custom_tooltip = phoenix_empire_growth_of_the_bulwari_cities_tt
			tooltip = {
				random_owned_province = {
					limit = { development = 30 superregion = bulwar_superregion }
					add_province_modifier = {
						name = phoenix_empire_prosperous_bulwary_city
						duration = 7300
					}
				}
			}
			hidden_effect = {
				every_owned_province = {
					limit = { development = 30 superregion = bulwar_superregion }
					add_province_modifier = {
						name = phoenix_empire_prosperous_bulwary_city
						duration = 7300
					}
				}
			}
		}
	}
	
	phoenix_empire_secure_the_east = {
		icon = mission_merchant_of_gujarat
		ai = yes
		position = 9
		
		required_missions = {
			
		}
		
		provinces_to_highlight = {
			OR = {
				region = far_salahad_region
			}
			NOT = {
				owned_by = ROOT
			}
		}
		
		trigger = {
			far_salahad_region = {
				type = all
				owned_by = ROOT
			}
		}
		
		effect = {
			custom_tooltip = phoenix_conquest_cb_20_tt
			hidden_effect = {
				add_country_modifier = {
					name = phoenix_conquest_cb_mod
					hidden = yes
					duration = 7300
				}
			}
			
			rahen_coast_region = {
				limit = {
					NOT = {
						owned_by = ROOT
						is_core = ROOT
					}
				}
				add_permanent_claim = ROOT
			}
			rakhadesh_region = {
				limit = {
					NOT = {
						owned_by = ROOT
						is_core = ROOT
					}
				}
				add_permanent_claim = ROOT
			}
			
			hidden_effect = {
				set_variable = { which = phoenix_empire_timer_5 value = 0 }
			}
		}
	}
	
	phoenix_empire_the_ruin_of_the_raj = {
		icon = mission_growth_of_ahmedabad
		ai = yes
		position = 10
		
		required_missions = {
			phoenix_empire_secure_the_east
		}
		
		provinces_to_highlight = {
			OR = {
				region = rahen_coast_region
				region = rakhadesh_region
			}
			NOT = {
				owned_by = ROOT
			}
		}
		
		trigger = {
			num_of_owned_provinces_with = {
				OR = {
					region = rahen_coast_region
					region = rakhadesh_region
				}
				value = 40
			}
			4411 = { owned_by = ROOT }
			4420 = { owned_by = ROOT }
		}
		
		effect = {
			custom_tooltip = phoenix_conquest_cb_20_tt
			hidden_effect = {
				add_country_modifier = {
					name = phoenix_conquest_cb_mod
					hidden = yes
					duration = 7300
				}
			}
			
			dhujat_region = {
				limit = {
					NOT = {
						owned_by = ROOT
						is_core = ROOT
					}
				}
				add_permanent_claim = ROOT
			}
			bomdan_region = {
				limit = {
					NOT = {
						owned_by = ROOT
						is_core = ROOT
					}
				}
				add_permanent_claim = ROOT
			}
			country_event = {
				id = phoenix_empire.16
			}
			
			#Timer
			if = {
				limit = { NOT = { mission_completed = phoenix_empire_the_ruin_of_the_raj } } #Have not completed this mission
				custom_tooltip = phoenix_empire_if_completed_previous_mission_20_tt
				tooltip = {
					rahen_coast_region = {
						limit = {
							owned_by = ROOT
						}
						add_unrest = -3
						add_nationalism = -5
					}
					rakhadesh_region = {
						limit = {
							owned_by = ROOT
						}
						add_unrest = -3
						add_nationalism = -5
					}
					add_power_projection = {
						type = mission_rewards_power_projection
						amount = 25
					}
				}
				if = {
					limit = { NOT = { check_variable = { which = phoenix_empire_timer_5 value = 240 } } } #timer in months
					hidden_effect = {
						rahen_coast_region = {
							limit = {
								owned_by = ROOT
							}
							add_unrest = -3
							add_nationalism = -5
						}
						rakhadesh_region = {
							limit = {
								owned_by = ROOT
							}
							add_unrest = -3
							add_nationalism = -5
						}
						add_power_projection = {
							type = mission_rewards_power_projection
							amount = 25
						}
						hidden_effect = { change_variable = { which = phoenix_empire_timed_missions_completed value = 1 } }
					}
				}
				if = {
					limit = { mission_completed = phoenix_empire_secure_the_east } #Have completed the previous mission
					custom_tooltip = phoenix_empire_months_since_completing_previous_mission_5_tt
				}
			}
			hidden_effect = {
				set_variable = { which = phoenix_empire_timer_5 value = 0 }
			}
		}
	}
	
	phoenix_empire_taking_the_porcelain_cities = {
		icon = mission_growth_of_surat
		ai = yes
		position = 11
		
		required_missions = {
			phoenix_empire_the_ruin_of_the_raj
		}
		
		provinces_to_highlight = {
			OR = {
				region = dhujat_region
			}
			NOT = {
				owned_by = ROOT
			}
		}
		
		trigger = {
			num_of_owned_provinces_with = {
				region = dhujat_region
				value = 20
			}
			4411 = { owned_by = ROOT }
			4420 = { owned_by = ROOT }
			4500 = { is_strongest_trade_power = ROOT }
		}
		
		effect = {
			custom_tooltip = phoenix_conquest_cb_20_tt
			hidden_effect = {
				add_country_modifier = {
					name = phoenix_conquest_cb_mod
					hidden = yes
					duration = 7300
				}
			}
			
			add_country_modifier = {
				name = phoenix_empire_lords_of_porcelain
				duration = 7300
			}
			
			#Timer
			if = {
				limit = { NOT = { mission_completed = phoenix_empire_taking_the_porcelain_cities } } #Have not completed this mission
				custom_tooltip = phoenix_empire_if_completed_previous_mission_20_tt
				tooltip = {
					add_dip_power = 50
					add_adm_power = 100
				}
				if = {
					limit = { NOT = { check_variable = { which = phoenix_empire_timer_5 value = 240 } } } #timer in months
					hidden_effect = {
						add_dip_power = 50
						add_adm_power = 100
						hidden_effect = { change_variable = { which = phoenix_empire_timed_missions_completed value = 1 } }
					}
				}
				if = {
					limit = { mission_completed = phoenix_empire_the_ruin_of_the_raj } #Have completed the previous mission
					custom_tooltip = phoenix_empire_months_since_completing_previous_mission_5_tt
				}
			}
		}
	}
	
	phoenix_empire_visiting_the_oracle = {
		icon = mission_junnagadh_fort
		ai = yes
		position = 12
		
		required_missions = {
			phoenix_empire_taking_the_porcelain_cities
		}
		
		provinces_to_highlight = {
			province_id = 4527
			NOT = { owned_by = ROOT }
		}
		
		trigger = {
			4527 = { owned_by = ROOT }
			dip_power = 200
		}
		
		effect = {
			add_dip_power = -200
			shamakhad_region = {
				limit = {
					NOT = {
						owned_by = ROOT
						is_core = ROOT
					}
				}
				add_permanent_claim = ROOT
			}
			country_event = {
				id = phoenix_empire.17
			}
			#! Fire a prophecy
			
			hidden_effect = {
				set_variable = { which = phoenix_empire_timer_5 value = 0 }
			}
		}
	}
	
	phoenix_empire_the_cradle_of_the_east = {
		icon = mission_conquer_mewar
		ai = yes
		position = 13
		
		required_missions = {
			phoenix_empire_visiting_the_oracle
		}
		
		provinces_to_highlight = {
			OR = {
				region = shamakhad_region
			}
			NOT = {
				owned_by = ROOT
			}
		}
		
		trigger = {
			num_of_owned_provinces_with = {
				region = shamakhad_region
				value = 40
			}
			4460 = { owned_by = ROOT }
			4510 = { owned_by = ROOT }
			4630 = { owned_by = ROOT }
			4633 = { owned_by = ROOT }
		}
		
		effect = {
			custom_tooltip = phoenix_conquest_cb_20_tt
			hidden_effect = {
				add_country_modifier = {
					name = phoenix_conquest_cb_mod
					hidden = yes
					duration = 7300
				}
			}
			
			demon_hills_region = {
				limit = {
					NOT = {
						owned_by = ROOT
						is_core = ROOT
					}
				}
				add_permanent_claim = ROOT
			}
			xianjie_region = {
				limit = {
					NOT = {
						owned_by = ROOT
						is_core = ROOT
					}
				}
				add_permanent_claim = ROOT
			}
			
			#Timer
			if = {
				limit = { NOT = { mission_completed = phoenix_empire_the_cradle_of_the_east } } #Have not completed this mission
				custom_tooltip = phoenix_empire_if_completed_previous_mission_20_tt
				tooltip = {
					add_army_tradition = 20
					add_mil_power = 50
					add_adm_power = 100
				}
				if = {
					limit = { NOT = { check_variable = { which = phoenix_empire_timer_5 value = 240 } } } #timer in months
					hidden_effect = {
						add_army_tradition = 20
						add_mil_power = 50
						add_adm_power = 100
						hidden_effect = { change_variable = { which = phoenix_empire_timed_missions_completed value = 1 } }
					}
				}
				if = {
					limit = { mission_completed = phoenix_empire_visiting_the_oracle } #Have completed the previous mission
					custom_tooltip = phoenix_empire_months_since_completing_previous_mission_5_tt
				}
			}
			hidden_effect = {
				set_variable = { which = phoenix_empire_timer_5 value = 0 }
			}
		}
	}
	
	phoenix_empire_the_forest_of_monks = {
		icon = mission_japanese_fort
		ai = yes
		position = 14
		
		required_missions = {
			phoenix_empire_the_cradle_of_the_east
		}
		
		provinces_to_highlight = {
			OR = {
				region = xianjie_region
			}
			NOT = {
				owned_by = ROOT
			}
		}
		
		trigger = {
			num_of_owned_provinces_with = {
				region = xianjie_region
				value = 20
			}
		}
		
		effect = {
			custom_tooltip = phoenix_conquest_cb_20_tt
			hidden_effect = {
				add_country_modifier = {
					name = phoenix_conquest_cb_mod
					hidden = yes
					duration = 7300
				}
			}
			
			upper_yanshen_region = {
				limit = {
					NOT = {
						owned_by = ROOT
						is_core = ROOT
					}
				}
				add_permanent_claim = ROOT
			}
			
			#Timer
			if = {
				limit = { NOT = { mission_completed = phoenix_empire_the_forest_of_monks } } #Have not completed this mission
				custom_tooltip = phoenix_empire_if_completed_previous_mission_20_tt
				tooltip = {
					add_mil_power = 50
					add_adm_power = 100
				}
				if = {
					limit = { NOT = { check_variable = { which = phoenix_empire_timer_5 value = 240 } } } #timer in months
					hidden_effect = {
						add_mil_power = 50
						add_adm_power = 100
						hidden_effect = { change_variable = { which = phoenix_empire_timed_missions_completed value = 1 } }
					}
				}
				if = {
					limit = { mission_completed = phoenix_empire_the_cradle_of_the_east } #Have completed the previous mission
					custom_tooltip = phoenix_empire_months_since_completing_previous_mission_5_tt
				}
			}
			hidden_effect = {
				set_variable = { which = phoenix_empire_timer_5 value = 0 }
			}
		}
	}
	
	phoenix_empire_avenge_jaher = {
		icon = mission_asian_city
		ai = yes
		position = 15
		
		required_missions = {
			phoenix_empire_the_forest_of_monks
		}
		
		provinces_to_highlight = {
			OR = {
				region = upper_yanshen_region
			}
			NOT = {
				owned_by = ROOT
			}
		}
		
		trigger = {
			num_of_owned_provinces_with = {
				region = upper_yanshen_region
				value = 20
			}
		}
		
		effect = {
			custom_tooltip = phoenix_conquest_cb_20_tt
			hidden_effect = {
				add_country_modifier = {
					name = phoenix_conquest_cb_mod
					hidden = yes
					duration = 7300
				}
			}
			
			lower_yanshen_region = {
				limit = {
					NOT = {
						owned_by = ROOT
						is_core = ROOT
					}
				}
				add_permanent_claim = ROOT
			}
			
			#Timer
			if = {
				limit = { NOT = { mission_completed = phoenix_empire_avenge_jaher } } #Have not completed this mission
				custom_tooltip = phoenix_empire_if_completed_previous_mission_20_tt
				tooltip = {
					add_power_projection = {
						type = mission_rewards_power_projection
						amount = 25
					}
				}
				if = {
					limit = { NOT = { check_variable = { which = phoenix_empire_timer_5 value = 240 } } } #timer in months
					hidden_effect = {
						add_power_projection = {
							type = mission_rewards_power_projection
							amount = 25
						}
						hidden_effect = { change_variable = { which = phoenix_empire_timed_missions_completed value = 1 } }
					}
				}
				if = {
					limit = { mission_completed = phoenix_empire_the_forest_of_monks } #Have completed the previous mission
					custom_tooltip = phoenix_empire_months_since_completing_previous_mission_5_tt
				}
			}
			hidden_effect = {
				set_variable = { which = phoenix_empire_timer_5 value = 0 }
			}
		}
	}
	
	phoenix_empire_to_the_sunrise = {
		icon = mission_tree_fishing
		ai = yes
		position = 16
		
		required_missions = {
			phoenix_empire_avenge_jaher
		}
		
		provinces_to_highlight = {
			OR = {
				region = lower_yanshen_region
			}
			NOT = {
				owned_by = ROOT
			}
		}
		
		trigger = {
			num_of_owned_provinces_with = {
				region = lower_yanshen_region
				value = 20
			}
			4871 = { owned_by = ROOT }
		}
		
		effect = {
			if = {
				limit = { mission_completed = phoenix_empire_to_the_sunset }
				custom_tooltip = phoenix_conquest_cb_always_tt
				hidden_effect = {
					add_country_modifier = {
						name = phoenix_conquest_cb_mod
						hidden = yes
						duration = -1
					}
				}
			}
			else = {
				custom_tooltip = phoenix_conquest_cb_20_tt
				hidden_effect = {
					add_country_modifier = {
						name = phoenix_conquest_cb_mod
						hidden = yes
						duration = 7300
					}
				}
			}
			
			rahen_superregion = {
				limit = {
					NOT = {
						owned_by = ROOT
						is_core = ROOT
					}
				}
				add_permanent_claim = ROOT
			}
			south_haless_superregion = {
				limit = {
					NOT = {
						owned_by = ROOT
						is_core = ROOT
					}
				}
				add_permanent_claim = ROOT
			}
			yanshen_superregion = {
				limit = {
					NOT = {
						owned_by = ROOT
						is_core = ROOT
					}
				}
				add_permanent_claim = ROOT
			}
			country_event = {
				id = phoenix_empire.18
			}
			
			#Timer
			if = {
				limit = { NOT = { mission_completed = phoenix_empire_to_the_sunrise } } #Have not completed this mission
				custom_tooltip = phoenix_empire_if_completed_previous_mission_20_tt
				tooltip = {
					add_adm_power = 100
					add_dip_power = 100
					add_mil_power = 100
				}
				if = {
					limit = { NOT = { check_variable = { which = phoenix_empire_timer_5 value = 240 } } } #timer in months
					hidden_effect = {
						add_adm_power = 100
						add_dip_power = 100
						add_mil_power = 100
						hidden_effect = { change_variable = { which = phoenix_empire_timed_missions_completed value = 1 } }
					}
				}
				if = {
					limit = { mission_completed = phoenix_empire_avenge_jaher } #Have completed the previous mission
					custom_tooltip = phoenix_empire_months_since_completing_previous_mission_5_tt
				}
			}
		}
	}
	
	phoenix_empire_heliophilous_haless = {
		icon = mission_kowtow
		ai = yes
		position = 19
		
		required_missions = {
			phoenix_empire_eastward_missions
		}
		
		provinces_to_highlight = {
			OR = {
				superregion = yanshen_superregion
			}
			NOT = {
				religion = bulwari_sun_cult
			}
		}
		
		trigger = {
			yanshen_superregion = {
				type = all
				OR = {
					religion = bulwari_sun_cult
					is_city = no
				}
			}
		}
		
		effect = {
			if = {
				limit = { has_country_modifier = phoenix_empire_the_glory_of_surakel_4 }
				remove_country_modifier = phoenix_empire_the_glory_of_surakel_4
				add_country_modifier = {
					name = phoenix_empire_the_glory_of_surakel_5
					duration = -1
				}
			}
			else_if = {
				limit = { has_country_modifier = phoenix_empire_the_glory_of_surakel_3 }
				remove_country_modifier = phoenix_empire_the_glory_of_surakel_3
				add_country_modifier = {
					name = phoenix_empire_the_glory_of_surakel_4
					duration = -1
				}
			}
			else_if = {
				limit = { has_country_modifier = phoenix_empire_the_glory_of_surakel_2 }
				remove_country_modifier = phoenix_empire_the_glory_of_surakel_2
				add_country_modifier = {
					name = phoenix_empire_the_glory_of_surakel_3
					duration = -1
				}
			}
			else_if = {
				limit = { has_country_modifier = phoenix_empire_the_glory_of_surakel_1 }
				remove_country_modifier = phoenix_empire_the_glory_of_surakel_1
				add_country_modifier = {
					name = phoenix_empire_the_glory_of_surakel_2
					duration = -1
				}
			}
			else = {
				add_country_modifier = {
					name = phoenix_empire_the_glory_of_surakel_1
					duration = -1
				}
			}
			country_event = {
				id = phoenix_empire.19
			}
		}
	}
}
